EESchema Schematic File Version 4
LIBS:main-cache
EELAYER 26 0
EELAYER END
$Descr A3 16535 11693
encoding utf-8
Sheet 2 9
Title "Reflectance 1.0"
Date "2017-04-24"
Rev "1.0"
Comp "OurSci"
Comment1 "Zegarac Robert"
Comment2 "Jon Zeeff"
Comment3 ""
Comment4 ""
$EndDescr
$Comp
L main-rescue:R-RESCUE-main R23
U 1 1 59094D05
P 8700 5450
F 0 "R23" V 8780 5450 50  0000 C CNN
F 1 "150" V 8700 5450 50  0000 C CNN
F 2 "multispeq:r_0603" H 8700 5450 60  0001 C CNN
F 3 "RC0603JR-07150RL" V 8700 5450 12  0001 C CNN
F 4 "RC0603JR-07150RL" H 8700 5450 60  0001 C CNN "manf#"
	1    8700 5450
	0    1    -1   0   
$EndComp
$Comp
L main-rescue:R-RESCUE-main R25
U 1 1 55DCCEF4
P 9200 5925
F 0 "R25" V 9280 5925 50  0000 C CNN
F 1 "3" V 9200 5925 50  0000 C CNN
F 2 "Resistor_SMD:R_1206_3216Metric" H 9200 5925 60  0001 C CNN
F 3 "KTR18EZPF3R00" V 9200 5925 12  0001 C CNN
F 4 "KTR18EZPF3R00" V 9200 5925 60  0001 C CNN "manf#"
	1    9200 5925
	-1   0    0    -1  
$EndComp
$Comp
L main-rescue:C-RESCUE-main C6
U 1 1 55DCCEF6
P 8500 5600
F 0 "C6" H 8320 5605 40  0000 L CNN
F 1 "22p" H 8620 5600 50  0000 L CNN
F 2 "multispeq:c_0603" H 8500 5600 60  0001 C CNN
F 3 "CL10C220FB8NNNC" H 8500 5600 10  0001 C CNN
F 4 "CL10C220FB8NNNC" H 8500 5600 60  0001 C CNN "manf#"
	1    8500 5600
	1    0    0    1   
$EndComp
$Comp
L main-rescue:DG4157DL-T1-E3-RESCUE-main U5
U 1 1 55DCCEFB
P 7700 5500
F 0 "U5" H 7800 5400 30  0000 L CNN
F 1 "SW_SPDT" H 7550 5600 30  0000 L CNN
F 2 "multispeq:SOT-363_SC-70-6-Vishay" H 7700 5500 60  0001 C CNN
F 3 "DG4157DL-T1-E3" H 7650 5550 10  0001 C CNN
F 4 "OO" H 7700 5500 50  0001 C CNN "Note"
F 5 "DG4157EDL-T1-GE3" H 7700 5500 60  0001 C CNN "manf#"
	1    7700 5500
	-1   0    0    -1  
$EndComp
$Comp
L main-rescue:MOSN-TSOP6-RESCUE-main Q4
U 1 1 59094D06
P 9100 5450
F 0 "Q4" H 9350 5400 40  0000 C CNN
F 1 "MOSN" H 9450 5500 40  0000 C CNN
F 2 "multispeq:SC70-6L" H 9400 5300 60  0001 C CNN
F 3 "SQA410EJ-T1_GE3" H 9100 5450 20  0001 C CNN
F 4 "OO" H 9100 5450 50  0001 C CNN "Note"
F 5 "SIA418DJ-T1-GE3" H 9100 5450 60  0001 C CNN "manf#"
	1    9100 5450
	1    0    0    -1  
$EndComp
$Comp
L main-rescue:R-RESCUE-main R22
U 1 1 56045A37
P 7900 5925
F 0 "R22" V 7980 5925 50  0000 C CNN
F 1 "100K" V 7900 5925 50  0000 C CNN
F 2 "multispeq:r_0603" V 7830 5925 30  0001 C CNN
F 3 "CRCW0603100KJNEA" H 7900 5925 30  0001 C CNN
F 4 "CRCW0603100KJNEA" H 7900 5925 60  0001 C CNN "manf#"
	1    7900 5925
	1    0    0    -1  
$EndComp
$Comp
L main-rescue:C-RESCUE-main C5
U 1 1 56238CF7
P 7400 5950
F 0 "C5" H 7425 6025 40  0000 L CNN
F 1 ".1u" H 7425 5850 50  0000 L CNN
F 2 "multispeq:c_0603" H 7400 5950 60  0001 C CNN
F 3 "06035C104K4T2A" H 7400 5950 10  0001 C CNN
F 4 "CC0603KRX7R8BB104" H 7400 5950 60  0001 C CNN "manf#"
	1    7400 5950
	1    0    0    1   
$EndComp
$Comp
L main-rescue:TSV911-RESCUE-main U6
U 1 1 562B77DC
P 8300 5450
F 0 "U6" H 8250 5550 40  0000 L CNN
F 1 "TSV911ILT" H 8255 5610 30  0000 L CNN
F 2 "multispeq:SOT-23-5_LL" H 8300 5450 60  0001 C CNN
F 3 "TSV911ILT" H 8300 5450 60  0001 C CNN
F 4 "OO" H 8300 5450 50  0001 C CNN "Note"
F 5 "TSV911ILT" H 8300 5450 60  0001 C CNN "manf#"
	1    8300 5450
	1    0    0    -1  
$EndComp
$Comp
L main-rescue:R-RESCUE-main R24
U 1 1 562BD42D
P 8700 5750
F 0 "R24" V 8605 5745 40  0000 C CNN
F 1 "2K" V 8707 5751 40  0000 C CNN
F 2 "multispeq:r_0603" V 8630 5750 10  0001 C CNN
F 3 " ERJ-3GEYJ202V" V 8700 5750 10  0001 C CNN
F 4 " ERJ-3GEYJ202V" V 8700 5750 60  0001 C CNN "manf#"
	1    8700 5750
	0    1    -1   0   
$EndComp
$Comp
L main-rescue:R-RESCUE-main R20
U 1 1 562BD7C4
P 7250 5450
F 0 "R20" V 7330 5450 40  0000 C CNN
F 1 "2K" V 7257 5451 40  0000 C CNN
F 2 "multispeq:r_0603" V 7180 5450 10  0001 C CNN
F 3 " ERJ-3GEYJ202V" V 7250 5450 10  0001 C CNN
F 4 " ERJ-3GEYJ202V" H 7250 5450 60  0001 C CNN "manf#"
	1    7250 5450
	0    1    -1   0   
$EndComp
$Comp
L main-rescue:C-RESCUE-main C7
U 1 1 5662B441
P 8675 4900
F 0 "C7" H 8675 5000 40  0000 L CNN
F 1 "10u" H 8681 4815 40  0000 L CNN
F 2 "multispeq:c_0603" H 8675 4900 10  0000 C CNN
F 3 "GRM188R61A106KE69D" H 8675 4900 10  0001 C CNN
F 4 "GRM188R61A106KE69D" H 8675 4900 60  0001 C CNN "manf#"
	1    8675 4900
	1    0    0    -1  
$EndComp
$Comp
L main-rescue:R-RESCUE-main R26
U 1 1 55DCCF01
P 9400 5000
F 0 "R26" V 9480 5000 40  0000 C CNN
F 1 "150" V 9407 5001 40  0000 C CNN
F 2 "multispeq:r_0603" V 9330 5000 10  0001 C CNN
F 3 "RC0603JR-07150RL" V 9400 5000 10  0001 C CNN
F 4 "RC0603JR-07150RL" H 9400 5000 60  0001 C CNN "manf#"
	1    9400 5000
	-1   0    0    -1  
$EndComp
$Comp
L main-rescue:R-RESCUE-main R90
U 1 1 59C46B03
P 8950 5900
F 0 "R90" V 9030 5900 50  0000 C CNN
F 1 "3" V 8950 5900 50  0000 C CNN
F 2 "Resistor_SMD:R_1206_3216Metric" H 8950 5900 60  0001 C CNN
F 3 "KTR18EZPF3R00" V 8950 5900 12  0001 C CNN
F 4 "KTR18EZPF3R00" V 8950 5900 60  0001 C CNN "manf#"
	1    8950 5900
	-1   0    0    -1  
$EndComp
Text Label 9200 5705 0    20   Italic 0
ACT_SAT_FB
Text Label 8700 6100 0    20   Italic 0
ACT_GND
Text Notes 7925 4225 0    40   ~ 0
ACToPULSEr_Circuit (current controller)
Text Label 7900 5500 0    10   ~ 0
ACT_SAT_SW
Text Label 9450 5200 0    20   ~ 0
ACT_LED_C
Text HLabel 7125 4700 0    39   Input ~ 0
+5v
Text HLabel 7100 5450 0    40   Input ~ 0
ACT
Text HLabel 7175 5750 0    40   Input ~ 0
PULSE
Text HLabel 7150 6100 0    40   Input ~ 0
AGND
Text HLabel 8650 5050 0    40   Input ~ 0
AGND
Text HLabel 9750 5200 2    40   Output ~ 0
ACTO_Out
Text Notes 9400 6100 0    60   ~ 0
1.5 ohm net for a 1.2V DAC\n6.8 for a 5V DAC
Text Notes 9640 4955 0    60   ~ 0
LED is connected here\n
Text Notes 9650 5490 0    60   ~ 0
Low side regulator
Text Notes 7410 6605 0    60   ~ 0
Consider 1A op amp with no mosfet and no bypass resistor\nSwitch may not be needed (use DAC or multiplexor)
Text Notes 9105 4525 0    60   ~ 0
150 ohm resistor causes significant \nnon-linearity in LED output\n
Text Notes 9415 5860 0    60   ~ 0
+/-100 PPM or better, large size
Wire Wire Line
	8675 4700 8675 4750
Wire Wire Line
	9200 6100 9200 6075
Wire Wire Line
	9400 5150 9400 5200
Wire Wire Line
	8850 5450 8900 5450
Wire Wire Line
	9300 5200 9300 5250
Wire Wire Line
	9200 5200 9300 5200
Wire Wire Line
	9500 5200 9500 5250
Wire Wire Line
	9400 4700 9400 4850
Wire Wire Line
	7125 4700 7650 4700
Wire Wire Line
	8450 5450 8500 5450
Wire Wire Line
	7900 5500 8000 5500
Wire Wire Line
	7175 5750 7900 5750
Wire Wire Line
	7900 5650 7900 5750
Wire Wire Line
	7500 5550 7500 5700
Wire Wire Line
	7500 5700 7650 5700
Wire Wire Line
	7650 5700 7650 6100
Wire Wire Line
	7150 6100 7400 6100
Wire Wire Line
	7650 5300 7650 4700
Wire Wire Line
	8200 4700 8200 5300
Wire Wire Line
	7400 5450 7500 5450
Wire Wire Line
	7900 6075 7900 6100
Wire Wire Line
	8200 5600 8200 6100
Wire Wire Line
	7400 5450 7400 5800
Wire Wire Line
	8675 5050 8650 5050
Wire Wire Line
	9200 5250 9200 5200
Wire Wire Line
	9400 5200 9750 5200
Wire Wire Line
	8675 4700 9400 4700
Wire Wire Line
	9300 5200 9400 5200
Wire Wire Line
	9400 5200 9400 5250
Wire Wire Line
	9400 5200 9500 5200
Wire Wire Line
	8500 5450 8550 5450
Wire Wire Line
	7650 4700 8200 4700
Wire Wire Line
	8200 4700 8675 4700
Wire Wire Line
	7650 6100 7900 6100
Wire Wire Line
	7900 5750 7900 5775
Wire Wire Line
	7900 6100 8200 6100
Wire Wire Line
	8500 5750 8550 5750
Wire Wire Line
	7400 6100 7650 6100
Wire Wire Line
	9400 4700 9755 4700
Wire Wire Line
	9755 4700 9755 4715
Wire Wire Line
	8850 5750 8950 5750
Wire Wire Line
	9200 5750 9200 5775
Wire Wire Line
	9200 5650 9200 5750
Wire Wire Line
	8950 5750 9200 5750
Wire Wire Line
	8200 6100 8950 6100
Wire Wire Line
	8950 6050 8950 6100
Wire Wire Line
	8950 6100 9200 6100
Connection ~ 8675 4700
Connection ~ 9300 5200
Connection ~ 9400 5200
Connection ~ 8500 5450
Connection ~ 7650 4700
Connection ~ 8200 4700
Connection ~ 7650 6100
Connection ~ 7900 5750
Connection ~ 7900 6100
Connection ~ 8500 5750
Connection ~ 8200 6100
Connection ~ 7400 5450
Connection ~ 7400 6100
Connection ~ 7650 5700
Connection ~ 9400 4700
Connection ~ 9200 5750
Connection ~ 8950 5750
Connection ~ 8950 6100
NoConn ~ 860  5895
Wire Wire Line
	8000 5400 7945 5400
Wire Wire Line
	7945 5400 7945 5750
Wire Wire Line
	7945 5750 8500 5750
$Comp
L main-rescue:R-RESCUE-main R?
U 1 1 5B9AFE09
P 8550 7745
AR Path="/5B9AFE09" Ref="R?"  Part="1" 
AR Path="/563D36C9/5B9AFE09" Ref="R93"  Part="1" 
F 0 "R93" V 8460 7750 50  0000 C CNN
F 1 "316" V 8550 7745 50  0000 C CNN
F 2 "multispeq:r_0603" V 8480 7745 30  0001 C CNN
F 3 "" H 8550 7745 30  0001 C CNN
F 4 "ERA-3AEB3160V" H 8550 7745 60  0001 C CNN "manf#"
	1    8550 7745
	1    0    0    -1  
$EndComp
$Comp
L main-rescue:R-RESCUE-main R?
U 1 1 5B9AFE11
P 8550 7445
AR Path="/5B9AFE11" Ref="R?"  Part="1" 
AR Path="/563D36C9/5B9AFE11" Ref="R92"  Part="1" 
F 0 "R92" V 8640 7450 50  0000 C CNN
F 1 "1K" V 8550 7445 50  0000 C CNN
F 2 "multispeq:r_0603" V 8480 7445 30  0001 C CNN
F 3 "" H 8550 7445 30  0001 C CNN
F 4 "RT0603DRD071KL" H 8550 7445 60  0001 C CNN "manf#"
	1    8550 7445
	-1   0    0    1   
$EndComp
$Comp
L main-rescue:GND-RESCUE-main #PWR?
U 1 1 5B9AFE18
P 8550 7895
AR Path="/5B9AFE18" Ref="#PWR?"  Part="1" 
AR Path="/563D36C9/5B9AFE18" Ref="#PWR0104"  Part="1" 
F 0 "#PWR0104" H 8550 7895 30  0001 C CNN
F 1 "GND" H 8550 7825 30  0001 C CNN
F 2 "" H 8550 7895 60  0000 C CNN
F 3 "" H 8550 7895 60  0000 C CNN
	1    8550 7895
	-1   0    0    -1  
$EndComp
$Comp
L main-rescue:C-RESCUE-main C?
U 1 1 5B9AFE1F
P 8900 7745
AR Path="/5B9AFE1F" Ref="C?"  Part="1" 
AR Path="/563D36C9/5B9AFE1F" Ref="C31"  Part="1" 
F 0 "C31" V 8850 7595 30  0000 L CNN
F 1 "4.7n" V 8930 7595 30  0000 L CNN
F 2 "multispeq:c_0603" H 8900 7745 60  0001 C CNN
F 3 "" H 8900 7745 10  0001 C CNN
F 4 "GRM1885C1H472JA01D" H 8900 7745 60  0001 C CNN "manf#"
	1    8900 7745
	1    0    0    -1  
$EndComp
$Comp
L main-rescue:GND-RESCUE-main #PWR?
U 1 1 5B9AFE26
P 8900 7895
AR Path="/5B9AFE26" Ref="#PWR?"  Part="1" 
AR Path="/563D36C9/5B9AFE26" Ref="#PWR0105"  Part="1" 
F 0 "#PWR0105" H 8900 7895 30  0001 C CNN
F 1 "GND" H 8900 7825 30  0001 C CNN
F 2 "" H 8900 7895 60  0000 C CNN
F 3 "" H 8900 7895 60  0000 C CNN
	1    8900 7895
	-1   0    0    -1  
$EndComp
Text GLabel 9060 7595 2    40   Output ~ 0
voltage_sample
Text Notes 8705 7430 0    39   ~ 0
place filter near MK20
Wire Wire Line
	8555 7295 8550 7295
Text HLabel 7580 7340 0    40   Output ~ 0
ACTO_Out
Wire Wire Line
	8350 7290 8375 7290
Wire Wire Line
	8555 7290 8555 7295
Wire Wire Line
	8550 7595 8900 7595
Connection ~ 8550 7595
Wire Wire Line
	8900 7595 9060 7595
Connection ~ 8900 7595
$Comp
L main-rescue:TSV911-RESCUE-main U17
U 1 1 5B9F6805
P 8200 7290
F 0 "U17" H 8150 7390 40  0000 L CNN
F 1 "TSV911ILT" H 8155 7450 30  0000 L CNN
F 2 "multispeq:SOT-23-5_LL" H 8200 7290 60  0001 C CNN
F 3 "TSV911ILT" H 8200 7290 60  0001 C CNN
F 4 "OO" H 8200 7290 50  0001 C CNN "Note"
F 5 "TSV911ILT" H 8200 7290 60  0001 C CNN "manf#"
	1    8200 7290
	1    0    0    -1  
$EndComp
Text HLabel 8100 7070 0    39   Input ~ 0
+5v
Text HLabel 8100 7495 0    40   Input ~ 0
AGND
Wire Wire Line
	7900 7240 7900 6980
Wire Wire Line
	7900 6980 8550 6980
Wire Wire Line
	8550 6980 8550 7290
Connection ~ 8550 7290
Wire Wire Line
	8550 7290 8555 7290
Wire Wire Line
	8100 7070 8100 7140
Wire Wire Line
	8100 7440 8100 7495
Wire Wire Line
	7900 7340 7675 7340
Text Notes 8290 8200 0    40   ~ 0
43K/13K/100p for no op amp\n1K/316/4.7n for op amp
$Comp
L main-rescue:R-RESCUE-main R?
U 1 1 5BA04F77
P 7890 7765
AR Path="/5BA04F77" Ref="R?"  Part="1" 
AR Path="/563D36C9/5BA04F77" Ref="R94"  Part="1" 
F 0 "R94" V 7800 7770 50  0000 C CNN
F 1 "0" V 7890 7765 50  0000 C CNN
F 2 "multispeq:r_0603" V 7820 7765 30  0001 C CNN
F 3 "DNI" H 7890 7765 30  0001 C CNN
F 4 "DNI" H 7890 7765 60  0001 C CNN "manf#"
	1    7890 7765
	0    1    1    0   
$EndComp
Wire Wire Line
	7740 7765 7675 7765
Wire Wire Line
	7675 7765 7675 7340
Connection ~ 7675 7340
Wire Wire Line
	7675 7340 7580 7340
Wire Wire Line
	8040 7765 8375 7765
Wire Wire Line
	8375 7765 8375 7290
Connection ~ 8375 7290
Wire Wire Line
	8375 7290 8550 7290
Text Notes 7845 7885 0    30   ~ 0
DNI
Text Notes 9110 7820 0    60   ~ 0
thin film/C0G
$EndSCHEMATC
