Ref,Qty,Value,Footprint,Datasheet,Desc,manf#
C11 C16 C20 C23 C25 C27 C28 C29 ,8,10u,multispeq:c_0603,OPTIONAL-16B-DET, ,GRM188R61A106KE69D
C13 C21 ,2,5p,multispeq:c_0603,OPTIONAL-16B-DET, ,CL10C050BB8NFNC
C17 C22 ,2,.1u,multispeq:c_1206,OPTIONAL-16B-DET, ,GRM31C5C1E104JA01K
C24 ,1,.1u,multispeq:c_0603,OPTIONAL-16B-DET, ,C0603C104K4PAC7867
C26 ,1,10u,multispeq:c_0805,OPTIONAL-16B-DET,OPTIONAL-16B-DET,CC0805KKX5R9BB106
L5 L7 L8 ,3,ferrite,multispeq:r_0805,OPTIONAL-16B-DET, ,MI0805K601R-10
R36 R43 R44 R56 ,4,10K,multispeq:r_0603,OPTIONAL-16B-DET, ,RT0603FRE0710KL
R37 R42 R61 R81 ,4,300,multispeq:r_0603,OPTIONAL-16B-DET, ,RR0816P-301-D
R38 R62 ,2,4.7M,multispeq:r_0603,OPTIONAL-16B-DET, ,MCT06030C4704FP500
R39 R63 R84 R85 ,4,0,multispeq:r_0603,OPTIONAL-16B-DET, ,RC0603JR-070RL
R40 R80 ,2,2K,multispeq:r_0603,OPTIONAL-16B-DET, ,RR0816P-202-D
R41 R82 R83 ,3,10,multispeq:r_0603,OPTIONAL-16B-DET, ,RC0603FR-0710RL
R54 R60 ,2,510,multispeq:r_0603,OPTIONAL-16B-DET, ,RR0816P-511-D
U7 ,1,MCP4728,Housings_SSOP:MSOP-10_3x3mm_Pitch0.5mm,OPTIONAL-16B-DET,MCP4728,MCP4728
U9 ,1,ADA4522-2,multispeq:so-8,OPTIONAL-16B-DET,ADA4075-2,ADA4522-2ARZ-R7
U10 U13 ,2,ADA4625-1,multispeq:so-8,OPTIONAL-16B-DET, ,ADA4625-1ARDZ
U11 ,1,MEMS-FPI,multispeq:MEMS-FPI,OPTIONAL-16B-DET, ,C13272-02
U12 ,1,MEMS-FPI,multispeq:MEMS-FPI,OPTIONAL-16B-DET, ,C14272
U14 ,1,AD7689,multispeq:QFN-20-1EP_4x4mm_Pitch0.5mm,OPTIONAL-16B-DET,AD7689ACPZ,AD7689ACPZ
,,,,,,
C66 ,1,10u,multispeq:c_0603,OPTIONAL-HALL, ,GRM188R61A106KE69D
R88 ,1,10K,multispeq:r_0603,OPTIONAL-HALL, ,RC1608J103CS
R89 ,1,27K,multispeq:r_0603,OPTIONAL-HALL, ,RC0603JR-0727KL
U22 ,1,OHS3150U,multispeq:TO-92_Inline_Narrow_Oval,OPTIONAL-HALL, ,OHS3150U
