EESchema Schematic File Version 2
LIBS:det-pulse2-rescue
LIBS:power
LIBS:device
LIBS:transistors
LIBS:conn
LIBS:linear
LIBS:regul
LIBS:74xx
LIBS:cmos4000
LIBS:adc-dac
LIBS:memory
LIBS:xilinx
LIBS:microcontrollers
LIBS:dsp
LIBS:microchip
LIBS:analog_switches
LIBS:motorola
LIBS:texas
LIBS:intel
LIBS:audio
LIBS:interface
LIBS:digital-audio
LIBS:philips
LIBS:display
LIBS:cypress
LIBS:siliconi
LIBS:opto
LIBS:atmel
LIBS:contrib
LIBS:valves
LIBS:probe
LIBS:probe-cache
LIBS:probe-rescue
LIBS:x
LIBS:det-pulse2-cache
EELAYER 25 0
EELAYER END
$Descr A3 16535 11693
encoding utf-8
Sheet 1 1
Title "Multispec_Handheld_unit"
Date "1 oct 2015"
Rev "1"
Comp "Photosynq"
Comment1 "Zegarac Robert"
Comment2 "ACToPULSEr"
Comment3 ""
Comment4 ""
$EndDescr
$Comp
L GND #PWR01
U 1 1 56157DB6
P 3600 3950
F 0 "#PWR01" H 3600 3700 50  0001 C CNN
F 1 "GND" H 3600 3800 50  0000 C CNN
F 2 "" H 3600 3950 60  0000 C CNN
F 3 "" H 3600 3950 60  0000 C CNN
	1    3600 3950
	1    0    0    -1  
$EndComp
Text GLabel 4000 2825 2    60   Input ~ 0
+5V
Text GLabel 4000 3625 0    60   Input ~ 0
-5V
$Comp
L R_Small R8
U 1 1 56157DB7
P 4975 3225
F 0 "R8" V 4900 3175 50  0000 L CNN
F 1 "100" V 4975 3175 50  0000 L CNN
F 2 "Resistors_SMD:R_0805_HandSoldering" H 4975 3225 60  0001 C CNN
F 3 "" H 4975 3225 60  0000 C CNN
	1    4975 3225
	0    1    1    0   
$EndComp
$Comp
L R_Small R7
U 1 1 56157DB8
P 4075 2575
F 0 "R7" V 4150 2525 50  0000 L CNN
F 1 "20K" V 4000 2500 50  0000 L CNN
F 2 "Resistors_SMD:R_0805_HandSoldering" H 4075 2575 60  0001 C CNN
F 3 "" H 4075 2575 60  0000 C CNN
F 4 "Value" H 4075 2575 60  0001 C CNN "manf#"
	1    4075 2575
	0    1    1    0   
$EndComp
$Comp
L R_Small R5
U 1 1 56157DB9
P 3025 3525
F 0 "R5" V 3100 3475 50  0000 L CNN
F 1 "1000" V 2950 3450 50  0000 L CNN
F 2 "Resistors_SMD:R_0805_HandSoldering" H 3025 3525 60  0001 C CNN
F 3 "" H 3025 3525 60  0000 C CNN
F 4 "Value" H 3025 3525 60  0001 C CNN "manf#"
	1    3025 3525
	-1   0    0    1   
$EndComp
$Comp
L GND #PWR02
U 1 1 56157DBA
P 4700 5050
F 0 "#PWR02" H 4700 4800 50  0001 C CNN
F 1 "GND" H 4700 4900 50  0000 C CNN
F 2 "" H 4700 5050 60  0000 C CNN
F 3 "" H 4700 5050 60  0000 C CNN
	1    4700 5050
	1    0    0    -1  
$EndComp
Text GLabel 5525 4625 2    60   Output ~ 0
+5V
Text GLabel 5525 5475 2    60   Output ~ 0
-5V
$Comp
L C_Small C4
U 1 1 56157DBB
P 5075 4750
F 0 "C4" H 5085 4820 50  0000 L CNN
F 1 "10u" H 5085 4670 50  0000 L CNN
F 2 "Capacitors_SMD:C_0805_HandSoldering" H 5075 4750 60  0001 C CNN
F 3 "" H 5075 4750 60  0000 C CNN
	1    5075 4750
	1    0    0    -1  
$EndComp
$Comp
L C_Small C5
U 1 1 56157DBC
P 5075 5275
F 0 "C5" H 5085 5345 50  0000 L CNN
F 1 "10u" H 5085 5195 50  0000 L CNN
F 2 "Capacitors_SMD:C_0805_HandSoldering" H 5075 5275 60  0001 C CNN
F 3 "" H 5075 5275 60  0000 C CNN
	1    5075 5275
	1    0    0    -1  
$EndComp
$Comp
L C_Small C2
U 1 1 56157DBD
P 3225 3125
F 0 "C2" V 3100 3075 50  0000 L CNN
F 1 "50n" V 3350 3100 50  0000 L CNN
F 2 "Capacitors_SMD:C_0805_HandSoldering" H 3225 3125 60  0001 C CNN
F 3 "" H 3225 3125 60  0000 C CNN
F 4 "Value" H 3225 3125 60  0001 C CNN "manf#"
	1    3225 3125
	0    1    1    0   
$EndComp
$Comp
L C_Small C3
U 1 1 56157DBE
P 4050 2325
F 0 "C3" V 4125 2150 50  0000 L CNN
F 1 "40p" V 4125 2375 50  0000 L CNN
F 2 "Capacitors_SMD:C_0805_HandSoldering" H 4050 2325 60  0001 C CNN
F 3 "" H 4050 2325 60  0000 C CNN
F 4 "Value" H 4050 2325 60  0001 C CNN "manf#"
	1    4050 2325
	0    1    1    0   
$EndComp
$Comp
L PWR_FLAG #FLG03
U 1 1 56157DBF
P 5275 4625
F 0 "#FLG03" H 5275 4720 50  0001 C CNN
F 1 "PWR_FLAG" H 5275 4805 50  0000 C CNN
F 2 "" H 5275 4625 60  0000 C CNN
F 3 "" H 5275 4625 60  0000 C CNN
	1    5275 4625
	1    0    0    -1  
$EndComp
$Comp
L PWR_FLAG #FLG04
U 1 1 56157DC0
P 5275 5475
F 0 "#FLG04" H 5275 5570 50  0001 C CNN
F 1 "PWR_FLAG" H 5275 5655 50  0000 C CNN
F 2 "" H 5275 5475 60  0000 C CNN
F 3 "" H 5275 5475 60  0000 C CNN
	1    5275 5475
	-1   0    0    1   
$EndComp
$Comp
L PWR_FLAG #FLG05
U 1 1 56157DC1
P 4700 5050
F 0 "#FLG05" H 4700 5145 50  0001 C CNN
F 1 "PWR_FLAG" H 4700 5230 50  0000 C CNN
F 2 "" H 4700 5050 60  0000 C CNN
F 3 "" H 4700 5050 60  0000 C CNN
	1    4700 5050
	1    0    0    -1  
$EndComp
$Comp
L GND #PWR06
U 1 1 56157DC2
P 6775 4300
F 0 "#PWR06" H 6775 4050 50  0001 C CNN
F 1 "GND" H 6775 4150 50  0000 C CNN
F 2 "" H 6775 4300 60  0000 C CNN
F 3 "" H 6775 4300 60  0000 C CNN
	1    6775 4300
	1    0    0    -1  
$EndComp
Text GLabel 7775 2650 2    60   Input ~ 0
+5V
$Comp
L C_Small C7
U 1 1 56157DC3
P 6350 2825
F 0 "C7" H 6360 2895 50  0000 L CNN
F 1 "10u" H 6360 2745 50  0000 L CNN
F 2 "Capacitors_SMD:C_0805_HandSoldering" H 6350 2825 60  0001 C CNN
F 3 "" H 6350 2825 60  0000 C CNN
	1    6350 2825
	1    0    0    -1  
$EndComp
$Comp
L GND #PWR07
U 1 1 56157DC4
P 6350 2925
F 0 "#PWR07" H 6350 2675 50  0001 C CNN
F 1 "GND" H 6350 2775 50  0000 C CNN
F 2 "" H 6350 2925 60  0000 C CNN
F 3 "" H 6350 2925 60  0000 C CNN
	1    6350 2925
	1    0    0    -1  
$EndComp
$Comp
L C_Small C9
U 1 1 56157DC5
P 7775 2850
F 0 "C9" H 7785 2920 50  0000 L CNN
F 1 "10u" H 7785 2770 50  0000 L CNN
F 2 "Capacitors_SMD:C_0805_HandSoldering" H 7775 2850 60  0001 C CNN
F 3 "" H 7775 2850 60  0000 C CNN
	1    7775 2850
	1    0    0    -1  
$EndComp
$Comp
L GND #PWR08
U 1 1 56157DC6
P 7775 2950
F 0 "#PWR08" H 7775 2700 50  0001 C CNN
F 1 "GND" H 7775 2800 50  0000 C CNN
F 2 "" H 7775 2950 60  0000 C CNN
F 3 "" H 7775 2950 60  0000 C CNN
	1    7775 2950
	1    0    0    -1  
$EndComp
$Comp
L C_Small C8
U 1 1 56157DC7
P 7425 2875
F 0 "C8" H 7435 2945 50  0000 L CNN
F 1 "100n" H 7435 2795 50  0000 L CNN
F 2 "Capacitors_SMD:C_0805_HandSoldering" H 7425 2875 60  0001 C CNN
F 3 "" H 7425 2875 60  0000 C CNN
	1    7425 2875
	1    0    0    -1  
$EndComp
$Comp
L GND #PWR09
U 1 1 56157DC8
P 7425 2975
F 0 "#PWR09" H 7425 2725 50  0001 C CNN
F 1 "GND" H 7425 2825 50  0000 C CNN
F 2 "" H 7425 2975 60  0000 C CNN
F 3 "" H 7425 2975 60  0000 C CNN
	1    7425 2975
	1    0    0    -1  
$EndComp
Text Notes 7475 4000 0    60   ~ 0
teensy
$Comp
L PWR_FLAG #FLG010
U 1 1 56157DC9
P 8125 3375
F 0 "#FLG010" H 8125 3470 50  0001 C CNN
F 1 "PWR_FLAG" H 8125 3555 50  0000 C CNN
F 2 "" H 8125 3375 60  0000 C CNN
F 3 "" H 8125 3375 60  0000 C CNN
	1    8125 3375
	1    0    0    -1  
$EndComp
$Comp
L R_Small R9
U 1 1 56157DCA
P 5000 3950
F 0 "R9" V 5075 3925 50  0000 L CNN
F 1 "100" V 5000 3900 50  0000 L CNN
F 2 "Resistors_SMD:R_0805_HandSoldering" H 5000 3950 60  0001 C CNN
F 3 "" H 5000 3950 60  0000 C CNN
	1    5000 3950
	0    1    1    0   
$EndComp
Text Notes 4600 4675 0    60   ~ 0
caps at \nop amp
$Comp
L CONN_02X04 P6
U 1 1 56157DCB
P 7625 3625
F 0 "P6" H 7600 3725 50  0000 C CNN
F 1 "CONN_02X04" H 7625 3375 50  0001 C CNN
F 2 "Pin_Headers:Pin_Header_Straight_2x04" H 7625 2425 60  0001 C CNN
F 3 "" H 7625 2425 60  0000 C CNN
F 4 "Value" H 7625 3625 60  0001 C CNN "manf#"
	1    7625 3625
	1    0    0    -1  
$EndComp
$Comp
L C_Small C10
U 1 1 56157DCC
P 8350 3475
F 0 "C10" H 8360 3545 50  0000 L CNN
F 1 "10u" H 8360 3395 50  0000 L CNN
F 2 "Capacitors_SMD:C_0805_HandSoldering" H 8350 3475 60  0001 C CNN
F 3 "" H 8350 3475 60  0000 C CNN
	1    8350 3475
	1    0    0    -1  
$EndComp
$Comp
L GND #PWR011
U 1 1 56157DCD
P 8350 3700
F 0 "#PWR011" H 8350 3450 50  0001 C CNN
F 1 "GND" H 8350 3550 50  0000 C CNN
F 2 "" H 8350 3700 60  0000 C CNN
F 3 "" H 8350 3700 60  0000 C CNN
	1    8350 3700
	1    0    0    -1  
$EndComp
Text Notes 8250 3325 0    60   ~ 0
3.3V
$Comp
L AD7699 U2
U 1 1 56157DCE
P 6775 3575
F 0 "U2" H 6575 3675 50  0000 L CNN
F 1 "AD7699" H 6575 3500 50  0000 L CNN
F 2 "Housings_DFN_QFN:QFN-20-1EP_4x4mm_Pitch0.5mm" H 6775 3575 50  0001 C CNN
F 3 "" H 6775 3575 50  0000 C CNN
F 4 "Value" H 6775 3575 60  0001 C CNN "manf#"
	1    6775 3575
	1    0    0    -1  
$EndComp
$Comp
L PhotoD D1
U 1 1 56157DCF
P 2675 3475
F 0 "D1" H 2775 3575 50  0000 C CNN
F 1 "PhotoD" H 2675 3375 50  0000 C CNN
F 2 "Handheld board:Pin_diode_SIP_down" H 2675 3475 60  0001 C CNN
F 3 "S6775-01" H 2675 3475 60  0001 C CNN
F 4 "Value" H 2675 3475 60  0001 C CNN "manf#"
F 5 "Value" H 2675 3475 60  0001 C CNN "S6775-01"
	1    2675 3475
	0    1    1    0   
$EndComp
Text GLabel 2325 3950 0    60   Input ~ 0
-5V
$Comp
L LM6161 U1
U 1 1 56157DD0
P 4100 3225
F 0 "U1" H 4075 3225 60  0000 C CNN
F 1 "AD8675" H 4250 3425 60  0000 C CNN
F 2 "SMD_Packages:SOIC-8-N" H 4100 3225 60  0001 C CNN
F 3 "" H 4100 3225 60  0000 C CNN
F 4 "AD8675ARZ" H 4100 3225 60  0001 C CNN "manf#"
	1    4100 3225
	1    0    0    -1  
$EndComp
$Comp
L C_Small C6
U 1 1 56157DD1
P 5350 3550
F 0 "C6" V 5225 3500 50  0000 L CNN
F 1 "100n" V 5475 3525 50  0000 L CNN
F 2 "Capacitors_SMD:C_0805_HandSoldering" H 5350 3550 60  0001 C CNN
F 3 "" H 5350 3550 60  0000 C CNN
F 4 "Value" H 5350 3550 60  0001 C CNN "manf#"
	1    5350 3550
	-1   0    0    1   
$EndComp
Text Notes 3625 2175 0    60   ~ 0
Transimpedance Amp
Text Notes 4925 3075 0    60   ~ 0
Integrator/LPF
NoConn ~ 4100 3625
NoConn ~ 4200 3625
$Comp
L R_Small R1
U 1 1 56157DD2
P 2400 3125
F 0 "R1" V 2475 3075 50  0000 L CNN
F 1 "1K" V 2325 3050 50  0000 L CNN
F 2 "Resistors_SMD:R_0805_HandSoldering" H 2400 3125 60  0001 C CNN
F 3 "" H 2400 3125 60  0000 C CNN
F 4 "Value" H 2400 3125 60  0001 C CNN "manf#"
	1    2400 3125
	0    -1   -1   0   
$EndComp
$Comp
L CONN_01X02 P1
U 1 1 56157DD3
P 1975 3175
F 0 "P1" H 1975 3325 50  0000 C CNN
F 1 "CONN_01X02" V 2075 3175 50  0001 C CNN
F 2 "Connect:PINHEAD1-2" H 1975 3175 60  0001 C CNN
F 3 "" H 1975 3175 60  0000 C CNN
F 4 "Value" H 1975 3175 60  0001 C CNN "manf#"
	1    1975 3175
	-1   0    0    1   
$EndComp
$Comp
L GND #PWR012
U 1 1 56157DD4
P 2175 3225
F 0 "#PWR012" H 2175 2975 50  0001 C CNN
F 1 "GND" H 2175 3075 50  0000 C CNN
F 2 "" H 2175 3225 60  0000 C CNN
F 3 "" H 2175 3225 60  0000 C CNN
	1    2175 3225
	1    0    0    -1  
$EndComp
$Comp
L CONN_01X02 P3
U 1 1 56157DD5
P 5625 4900
F 0 "P3" H 5625 5050 50  0000 C CNN
F 1 "CONN_01X02" V 5725 4900 50  0001 C CNN
F 2 "Connect:PINHEAD1-2" H 5625 4900 60  0001 C CNN
F 3 "" H 5625 4900 60  0000 C CNN
F 4 "Value" H 5625 4900 60  0001 C CNN "manf#"
	1    5625 4900
	1    0    0    -1  
$EndComp
$Comp
L CONN_01X02 P4
U 1 1 56157DD6
P 5625 5200
F 0 "P4" H 5625 5350 50  0000 C CNN
F 1 "CONN_01X02" V 5725 5200 50  0001 C CNN
F 2 "Connect:PINHEAD1-2" H 5625 5200 60  0001 C CNN
F 3 "" H 5625 5200 60  0000 C CNN
F 4 "Value" H 5625 5200 60  0001 C CNN "manf#"
	1    5625 5200
	1    0    0    -1  
$EndComp
$Comp
L MOSN-TSOP6 Q1
U 1 1 56157DD8
P 3775 5350
F 0 "Q1" H 4025 5300 40  0000 C CNN
F 1 "MOSN-TSOP6" H 4125 5400 60  0000 C CNN
F 2 "Housings_SOT-23_SOT-143_TSOT-6:TSOT-6-MK06A_Handsoldering" H 4075 5200 60  0001 C CNN
F 3 "" H 3775 5350 60  0000 C CNN
F 4 "Value" H 3775 5350 60  0001 C CNN "manf#"
	1    3775 5350
	1    0    0    -1  
$EndComp
$Comp
L R_Small R6
U 1 1 56157DDA
P 3875 5775
F 0 "R6" V 3950 5725 50  0000 L CNN
F 1 "10" V 3800 5700 50  0000 L CNN
F 2 "Resistors_SMD:R_0805_HandSoldering" H 3875 5775 60  0001 C CNN
F 3 "" H 3875 5775 60  0000 C CNN
F 4 "Value" H 3875 5775 60  0001 C CNN "manf#"
	1    3875 5775
	-1   0    0    1   
$EndComp
$Comp
L LED-RESCUE-det-pulse2 D2
U 1 1 56157DDC
P 3875 4850
F 0 "D2" H 3875 4950 50  0000 C CNN
F 1 "LED" H 3875 4750 50  0000 C CNN
F 2 "LEDs:LED-3MM" H 3875 4850 60  0001 C CNN
F 3 "" H 3875 4850 60  0000 C CNN
F 4 "Value" H 3875 4850 60  0001 C CNN "manf#"
	1    3875 4850
	0    -1   -1   0   
$EndComp
$Comp
L C_Small C1
U 1 1 56157DDD
P 3350 4750
F 0 "C1" H 3425 4800 50  0000 L CNN
F 1 "10u" H 3360 4670 50  0000 L CNN
F 2 "Capacitors_SMD:C_0805_HandSoldering" H 3350 4750 60  0001 C CNN
F 3 "" H 3350 4750 60  0000 C CNN
	1    3350 4750
	1    0    0    -1  
$EndComp
$Comp
L R_Small R3
U 1 1 56157DDF
P 2850 3950
F 0 "R3" V 2925 3900 50  0000 L CNN
F 1 "0" V 2775 3875 50  0000 L CNN
F 2 "Resistors_SMD:R_0805_HandSoldering" H 2850 3950 60  0001 C CNN
F 3 "" H 2850 3950 60  0000 C CNN
F 4 "Value" H 2850 3950 60  0001 C CNN "manf#"
	1    2850 3950
	0    -1   -1   0   
$EndComp
$Comp
L R_Small R2
U 1 1 56157DE0
P 2525 3950
F 0 "R2" V 2600 3900 50  0000 L CNN
F 1 "0" V 2450 3875 50  0000 L CNN
F 2 "Resistors_SMD:R_0805_HandSoldering" H 2525 3950 60  0001 C CNN
F 3 "" H 2525 3950 60  0000 C CNN
F 4 "Value" H 2525 3950 60  0001 C CNN "manf#"
	1    2525 3950
	0    -1   -1   0   
$EndComp
Text Notes 3175 3525 0    60   ~ 0
DC\nfilter
Text Notes 2325 4275 0    60   ~ 0
optional\nreverse bias
$Comp
L CONN_01X01 P5
U 1 1 56157DE1
P 5900 3025
F 0 "P5" H 5900 3125 50  0000 C CNN
F 1 "CONN_01X01" V 6000 3025 50  0001 C CNN
F 2 "Connect:PINTST" H 5900 3025 60  0001 C CNN
F 3 "" H 5900 3025 60  0000 C CNN
F 4 "Value" H 5900 3025 60  0001 C CNN "manf#"
	1    5900 3025
	0    -1   -1   0   
$EndComp
Text GLabel 7875 3775 2    60   Output ~ 0
Pulse
Text Label 3875 5650 0    20   Italic 0
ACT_SAT_FB
Text Label 3375 6000 0    20   Italic 0
ACT_GND
Text Notes 2175 4550 0    40   ~ 0
ACToPULSEr_Circuit
Text Label 2575 5400 0    10   ~ 0
ACT_SAT_SW
Text Label 4125 5100 0    20   ~ 0
ACT_LED_C
$Comp
L TSV911 U4
U 1 1 562C6F6A
P 2975 5350
F 0 "U4" H 2925 5450 40  0000 L CNN
F 1 "TS461" H 2925 5250 30  0000 L CNN
F 2 "w_smd_trans:sot23-5" H 2975 5350 60  0001 C CNN
F 3 "" H 2975 5350 60  0000 C CNN
	1    2975 5350
	1    0    0    -1  
$EndComp
Text GLabel 1800 4600 0    39   Input ~ 0
+5v
Text GLabel 1775 5350 0    40   Input ~ 0
ACT
Text GLabel 1850 5650 0    40   Input ~ 0
PULSE
$Comp
L GND #PWR013
U 1 1 562CC352
P 1825 6000
F 0 "#PWR013" H 1825 5750 50  0001 C CNN
F 1 "GND" H 1825 5850 50  0000 C CNN
F 2 "" H 1825 6000 60  0000 C CNN
F 3 "" H 1825 6000 60  0000 C CNN
	1    1825 6000
	1    0    0    -1  
$EndComp
$Comp
L GND #PWR014
U 1 1 562CC96F
P 3350 4875
F 0 "#PWR014" H 3350 4625 50  0001 C CNN
F 1 "GND" H 3350 4725 50  0000 C CNN
F 2 "" H 3350 4875 60  0000 C CNN
F 3 "" H 3350 4875 60  0000 C CNN
	1    3350 4875
	1    0    0    -1  
$EndComp
$Comp
L R_Small R15
U 1 1 562D262B
P 4075 4850
F 0 "R15" V 4150 4800 50  0000 L CNN
F 1 "2K" V 4000 4775 50  0000 L CNN
F 2 "Resistors_SMD:R_0805_HandSoldering" H 4075 4850 60  0001 C CNN
F 3 "" H 4075 4850 60  0000 C CNN
F 4 "Value" H 4075 4850 60  0001 C CNN "manf#"
	1    4075 4850
	-1   0    0    1   
$EndComp
$Comp
L R_Small R12
U 1 1 562D39A2
P 3425 5350
F 0 "R12" V 3500 5300 50  0000 L CNN
F 1 "150" V 3350 5275 50  0000 L CNN
F 2 "Resistors_SMD:R_0805_HandSoldering" H 3425 5350 60  0001 C CNN
F 3 "" H 3425 5350 60  0000 C CNN
F 4 "Value" H 3425 5350 60  0001 C CNN "manf#"
	1    3425 5350
	0    -1   -1   0   
$EndComp
Wire Wire Line
	3450 2325 3450 3325
Wire Wire Line
	3450 2575 3975 2575
Connection ~ 3600 3950
Wire Wire Line
	2950 3950 4900 3950
Wire Wire Line
	4175 2575 4600 2575
Wire Wire Line
	4600 2325 4600 3225
Connection ~ 4600 3225
Wire Wire Line
	4700 5050 5425 5050
Wire Wire Line
	5425 4625 5425 4850
Wire Wire Line
	5425 5475 5425 5250
Wire Wire Line
	5075 4625 5525 4625
Wire Wire Line
	5075 4625 5075 4650
Wire Wire Line
	5075 4850 5075 5175
Wire Wire Line
	5075 5375 5075 5475
Wire Wire Line
	5075 5475 5525 5475
Connection ~ 5075 5050
Connection ~ 5425 5050
Connection ~ 5275 4625
Connection ~ 5275 5475
Wire Wire Line
	6025 4125 6875 4125
Connection ~ 6775 4125
Wire Wire Line
	6775 4125 6775 4300
Wire Wire Line
	6875 3025 6775 3025
Wire Wire Line
	6875 2650 6875 3025
Connection ~ 6875 3025
Wire Wire Line
	6675 3025 6675 2650
Wire Wire Line
	6675 2650 6350 2650
Wire Wire Line
	6350 2650 6350 2725
Wire Wire Line
	6875 2650 7775 2650
Wire Wire Line
	7775 2650 7775 2750
Connection ~ 6875 4125
Wire Wire Line
	7425 2775 6975 2775
Wire Wire Line
	6975 2775 6975 3025
Wire Wire Line
	7375 3375 8350 3375
Connection ~ 6675 4125
Wire Wire Line
	5650 3325 6225 3325
Wire Wire Line
	5075 3225 6325 3225
Wire Wire Line
	4600 3225 4875 3225
Wire Wire Line
	6125 3425 6025 3425
Wire Wire Line
	6025 3425 6025 4125
Connection ~ 6025 4125
Wire Wire Line
	6125 3725 6025 3725
Connection ~ 6025 3725
Wire Wire Line
	6225 3825 6025 3825
Connection ~ 6025 3825
Wire Wire Line
	6325 3925 6025 3925
Connection ~ 6025 3925
Connection ~ 6025 3625
Connection ~ 6025 3525
Connection ~ 8125 3375
Wire Wire Line
	7875 3475 7875 3375
Connection ~ 7875 3375
Connection ~ 5425 4625
Connection ~ 5425 5475
Wire Wire Line
	4150 2325 4600 2325
Connection ~ 4600 2575
Wire Wire Line
	3950 2325 3450 2325
Connection ~ 3450 2575
Wire Wire Line
	3025 3950 3025 3625
Wire Wire Line
	3025 3125 3025 3425
Wire Wire Line
	2675 3125 2675 3325
Connection ~ 3025 3125
Wire Wire Line
	2675 3625 2675 3950
Wire Wire Line
	5100 3950 5650 3950
Wire Wire Line
	5650 3950 5650 3325
Wire Wire Line
	5350 3450 5350 3225
Connection ~ 5350 3225
Wire Wire Line
	5350 3650 5350 3950
Connection ~ 5350 3950
Wire Wire Line
	2500 3125 3125 3125
Connection ~ 2675 3125
Wire Wire Line
	5425 4950 5425 5150
Wire Wire Line
	2175 3125 2300 3125
Connection ~ 3025 3950
Wire Wire Line
	2625 3950 2750 3950
Connection ~ 2675 3950
Wire Wire Line
	2425 3950 2325 3950
Connection ~ 4700 5050
Connection ~ 5900 3225
Wire Wire Line
	7875 3575 8350 3575
Connection ~ 7875 3575
Wire Wire Line
	8350 3575 8350 3700
Connection ~ 8350 3575
Wire Wire Line
	3450 3125 3325 3125
Wire Wire Line
	3450 3325 3600 3325
Connection ~ 3450 3125
Wire Wire Line
	3600 3125 3600 3950
Connection ~ 3350 4600
Wire Wire Line
	3350 4600 3350 4650
Wire Wire Line
	3875 5875 3875 6000
Connection ~ 3875 4600
Wire Wire Line
	4075 4950 4075 5150
Wire Wire Line
	3875 4600 3875 4650
Wire Wire Line
	3875 5050 3875 5150
Wire Wire Line
	3525 5350 3575 5350
Wire Wire Line
	3875 5550 3875 5675
Connection ~ 3875 5650
Wire Wire Line
	3975 5100 3975 5150
Wire Wire Line
	3875 5100 4175 5100
Connection ~ 3875 5100
Connection ~ 3975 5100
Wire Wire Line
	4175 5100 4175 5150
Connection ~ 4075 5100
Wire Wire Line
	4075 4600 4075 4750
Wire Wire Line
	1800 4600 4075 4600
Wire Wire Line
	3125 5350 3325 5350
Connection ~ 3175 5350
Wire Wire Line
	2575 5400 2675 5400
Wire Wire Line
	1850 5650 2575 5650
Wire Wire Line
	2575 5550 2575 5675
Wire Wire Line
	2175 5450 2175 5600
Wire Wire Line
	2175 5600 2325 5600
Wire Wire Line
	2325 5600 2325 6000
Wire Wire Line
	3875 6000 1825 6000
Wire Wire Line
	2325 5200 2325 4600
Wire Wire Line
	2875 4600 2875 5200
Connection ~ 2325 4600
Connection ~ 2875 4600
Wire Wire Line
	2075 5350 2175 5350
Wire Wire Line
	2675 5300 2675 5300
Wire Wire Line
	2675 5300 2675 5650
Connection ~ 2325 6000
Connection ~ 2575 5650
Wire Wire Line
	2575 5875 2575 6000
Connection ~ 2575 6000
Wire Wire Line
	2675 5650 3325 5650
Wire Wire Line
	3525 5650 3875 5650
Connection ~ 3175 5650
Wire Wire Line
	2875 5500 2875 6000
Connection ~ 2875 6000
Connection ~ 2075 5350
Connection ~ 2075 6000
Wire Wire Line
	2075 5350 2075 5700
Connection ~ 2325 5600
Wire Wire Line
	3350 4850 3350 4875
$Comp
L R_Small R13
U 1 1 562D4930
P 3425 5650
F 0 "R13" V 3500 5600 50  0000 L CNN
F 1 "2K" V 3350 5575 50  0000 L CNN
F 2 "Resistors_SMD:R_0805_HandSoldering" H 3425 5650 60  0001 C CNN
F 3 "" H 3425 5650 60  0000 C CNN
F 4 "Value" H 3425 5650 60  0001 C CNN "manf#"
	1    3425 5650
	0    -1   -1   0   
$EndComp
$Comp
L R_Small R11
U 1 1 562D4F2F
P 2575 5775
F 0 "R11" V 2650 5725 50  0000 L CNN
F 1 "100K" V 2500 5700 50  0000 L CNN
F 2 "Resistors_SMD:R_0805_HandSoldering" H 2575 5775 60  0001 C CNN
F 3 "" H 2575 5775 60  0000 C CNN
F 4 "Value" H 2575 5775 60  0001 C CNN "manf#"
	1    2575 5775
	1    0    0    -1  
$EndComp
Wire Wire Line
	1875 5350 1775 5350
$Comp
L C_Small C11
U 1 1 562D635E
P 2075 5800
F 0 "C11" H 2085 5870 50  0000 L CNN
F 1 "0.1u" H 2085 5720 50  0000 L CNN
F 2 "Capacitors_SMD:C_0805_HandSoldering" H 2075 5800 60  0001 C CNN
F 3 "" H 2075 5800 60  0000 C CNN
	1    2075 5800
	1    0    0    -1  
$EndComp
Wire Wire Line
	2075 5900 2075 6000
$Comp
L C_Small C12
U 1 1 562D7022
P 3175 5500
F 0 "C12" H 3185 5570 50  0000 L CNN
F 1 "22p" H 3185 5420 50  0000 L CNN
F 2 "Capacitors_SMD:C_0805_HandSoldering" H 3175 5500 60  0001 C CNN
F 3 "" H 3175 5500 60  0000 C CNN
	1    3175 5500
	1    0    0    -1  
$EndComp
Wire Wire Line
	3175 5400 3175 5350
Wire Wire Line
	3175 5600 3175 5650
$Comp
L R_Small R4
U 1 1 56157DDB
P 1975 5350
F 0 "R4" V 2050 5300 50  0000 L CNN
F 1 "100" V 1900 5275 50  0000 L CNN
F 2 "Resistors_SMD:R_0805_HandSoldering" H 1975 5350 60  0001 C CNN
F 3 "" H 1975 5350 60  0000 C CNN
F 4 "Value" H 1975 5350 60  0001 C CNN "manf#"
	1    1975 5350
	0    -1   -1   0   
$EndComp
Text GLabel 7875 3675 2    40   Input ~ 0
ACT
$Comp
L C_Small C13
U 1 1 561EB561
P 3175 4750
F 0 "C13" H 3250 4800 50  0000 L CNN
F 1 "10u" H 3185 4670 50  0000 L CNN
F 2 "Capacitors_SMD:C_0805_HandSoldering" H 3175 4750 60  0001 C CNN
F 3 "" H 3175 4750 60  0000 C CNN
	1    3175 4750
	1    0    0    -1  
$EndComp
Wire Wire Line
	3175 4650 3175 4600
Connection ~ 3175 4600
$Comp
L GND #PWR015
U 1 1 561EBCBB
P 3175 4875
F 0 "#PWR015" H 3175 4625 50  0001 C CNN
F 1 "GND" H 3175 4725 50  0000 C CNN
F 2 "" H 3175 4875 60  0000 C CNN
F 3 "" H 3175 4875 60  0000 C CNN
	1    3175 4875
	1    0    0    -1  
$EndComp
Wire Wire Line
	3175 4850 3175 4875
$Comp
L C_Small C14
U 1 1 561EDD88
P 3025 4750
F 0 "C14" H 3100 4800 50  0000 L CNN
F 1 "10u" H 3035 4670 50  0000 L CNN
F 2 "Capacitors_SMD:C_0805_HandSoldering" H 3025 4750 60  0001 C CNN
F 3 "" H 3025 4750 60  0000 C CNN
	1    3025 4750
	1    0    0    -1  
$EndComp
Wire Wire Line
	3025 4650 3025 4600
$Comp
L GND #PWR016
U 1 1 561EDD8F
P 3025 4875
F 0 "#PWR016" H 3025 4625 50  0001 C CNN
F 1 "GND" H 3025 4725 50  0000 C CNN
F 2 "" H 3025 4875 60  0000 C CNN
F 3 "" H 3025 4875 60  0000 C CNN
	1    3025 4875
	1    0    0    -1  
$EndComp
Wire Wire Line
	3025 4850 3025 4875
Connection ~ 3025 4600
$Comp
L DG4157DL-T1-E3 U3
U 1 1 562C6F63
P 2375 5400
F 0 "U3" H 2475 5300 30  0000 L CNN
F 1 "DG4157DL-T1-E3" H 2225 5500 30  0000 L CNN
F 2 "w_smd_trans:sc70-6" H 2375 5400 60  0001 C CNN
F 3 "http://www.vishay.com/docs/68800/dg4157.pdf" H 2325 5450 10  0001 C CNN
F 4 "0.542" H 2375 5400 60  0001 C CNN "price10"
F 5 "0.2175" H 2375 5400 60  0001 C CNN "price3000"
	1    2375 5400
	-1   0    0    -1  
$EndComp
Text Label 5375 3225 0    60   ~ 0
ADC-input
$EndSCHEMATC
