G04 #@! TF.FileFunction,Paste,Bot*
%FSLAX46Y46*%
G04 Gerber Fmt 4.6, Leading zero omitted, Abs format (unit mm)*
G04 Created by KiCad (PCBNEW (2016-07-20 BZR 6990, Git 78e4787)-product) date 08/12/16 17:08:12*
%MOMM*%
%LPD*%
G01*
G04 APERTURE LIST*
%ADD10C,0.100000*%
%ADD11R,0.400000X1.000000*%
%ADD12R,1.000000X2.500000*%
%ADD13R,2.500000X1.000000*%
G04 APERTURE END LIST*
D10*
D11*
X246456000Y-93977000D03*
X246456000Y-92377000D03*
X245806000Y-93977000D03*
X247106000Y-93977000D03*
X247106000Y-92377000D03*
X245806000Y-92377000D03*
D12*
X74630000Y-80560000D03*
X64200000Y-80560000D03*
D13*
X76230000Y-82750000D03*
X76230000Y-96250000D03*
X76230000Y-97750000D03*
X76230000Y-100750000D03*
X62630000Y-100750000D03*
X62630000Y-99250000D03*
X62630000Y-84250000D03*
X62630000Y-82750000D03*
M02*
