EESchema Schematic File Version 2
LIBS:power
LIBS:device
LIBS:transistors
LIBS:conn
LIBS:linear
LIBS:regul
LIBS:74xx
LIBS:cmos4000
LIBS:adc-dac
LIBS:memory
LIBS:xilinx
LIBS:microcontrollers
LIBS:dsp
LIBS:microchip
LIBS:analog_switches
LIBS:motorola
LIBS:texas
LIBS:intel
LIBS:audio
LIBS:interface
LIBS:digital-audio
LIBS:philips
LIBS:display
LIBS:cypress
LIBS:siliconi
LIBS:opto
LIBS:atmel
LIBS:contrib
LIBS:valves
LIBS:det-pulse-cache
EELAYER 25 0
EELAYER END
$Descr A 11000 8500
encoding utf-8
Sheet 1 1
Title "detector/pulser prototype"
Date ""
Rev ""
Comp "Jon Zeeff"
Comment1 ""
Comment2 ""
Comment3 ""
Comment4 ""
$EndDescr
$Comp
L GND #PWR01
U 1 1 56157DB6
P 5000 3975
F 0 "#PWR01" H 5000 3725 50  0001 C CNN
F 1 "GND" H 5000 3825 50  0000 C CNN
F 2 "" H 5000 3975 60  0000 C CNN
F 3 "" H 5000 3975 60  0000 C CNN
	1    5000 3975
	1    0    0    -1  
$EndComp
$Comp
L R_Small R5
U 1 1 56157DB9
P 4025 3550
F 0 "R5" V 4100 3500 50  0000 L CNN
F 1 "1000" V 3950 3475 50  0000 L CNN
F 2 "Resistors_SMD:R_0805_HandSoldering" H 4025 3550 60  0001 C CNN
F 3 "" H 4025 3550 60  0000 C CNN
F 4 "Value" H 4025 3550 60  0001 C CNN "manf#"
	1    4025 3550
	-1   0    0    1   
$EndComp
$Comp
L GND #PWR02
U 1 1 56157DBA
P 5700 5075
F 0 "#PWR02" H 5700 4825 50  0001 C CNN
F 1 "GND" H 5700 4925 50  0000 C CNN
F 2 "" H 5700 5075 60  0000 C CNN
F 3 "" H 5700 5075 60  0000 C CNN
	1    5700 5075
	1    0    0    -1  
$EndComp
Text GLabel 6525 4650 2    60   Output ~ 0
+5V
Text GLabel 6525 5500 2    60   Output ~ 0
-10V
$Comp
L C_Small C4
U 1 1 56157DBB
P 6075 4775
F 0 "C4" H 6085 4845 50  0000 L CNN
F 1 "10u" H 6085 4695 50  0000 L CNN
F 2 "Capacitors_SMD:C_0805_HandSoldering" H 6075 4775 60  0001 C CNN
F 3 "" H 6075 4775 60  0000 C CNN
F 4 "Value" H 6075 4775 60  0001 C CNN "manf#"
	1    6075 4775
	1    0    0    -1  
$EndComp
$Comp
L C_Small C5
U 1 1 56157DBC
P 6075 5300
F 0 "C5" H 6085 5370 50  0000 L CNN
F 1 "10u" H 6085 5220 50  0000 L CNN
F 2 "Capacitors_SMD:C_0805_HandSoldering" H 6075 5300 60  0001 C CNN
F 3 "" H 6075 5300 60  0000 C CNN
F 4 "Value" H 6075 5300 60  0001 C CNN "manf#"
	1    6075 5300
	1    0    0    -1  
$EndComp
$Comp
L C_Small C2
U 1 1 56157DBD
P 4225 3150
F 0 "C2" V 4100 3100 50  0000 L CNN
F 1 "50n" V 4350 3125 50  0000 L CNN
F 2 "Capacitors_SMD:C_0805_HandSoldering" H 4225 3150 60  0001 C CNN
F 3 "" H 4225 3150 60  0000 C CNN
F 4 "Value" H 4225 3150 60  0001 C CNN "manf#"
	1    4225 3150
	0    1    1    0   
$EndComp
$Comp
L PWR_FLAG #FLG03
U 1 1 56157DBF
P 6275 4650
F 0 "#FLG03" H 6275 4745 50  0001 C CNN
F 1 "PWR_FLAG" H 6275 4830 50  0000 C CNN
F 2 "" H 6275 4650 60  0000 C CNN
F 3 "" H 6275 4650 60  0000 C CNN
	1    6275 4650
	1    0    0    -1  
$EndComp
$Comp
L PWR_FLAG #FLG04
U 1 1 56157DC0
P 6275 5500
F 0 "#FLG04" H 6275 5595 50  0001 C CNN
F 1 "PWR_FLAG" H 6275 5680 50  0000 C CNN
F 2 "" H 6275 5500 60  0000 C CNN
F 3 "" H 6275 5500 60  0000 C CNN
	1    6275 5500
	-1   0    0    1   
$EndComp
$Comp
L PWR_FLAG #FLG05
U 1 1 56157DC1
P 5700 5075
F 0 "#FLG05" H 5700 5170 50  0001 C CNN
F 1 "PWR_FLAG" H 5700 5255 50  0000 C CNN
F 2 "" H 5700 5075 60  0000 C CNN
F 3 "" H 5700 5075 60  0000 C CNN
	1    5700 5075
	1    0    0    -1  
$EndComp
$Comp
L GND #PWR06
U 1 1 56157DC2
P 7775 4325
F 0 "#PWR06" H 7775 4075 50  0001 C CNN
F 1 "GND" H 7775 4175 50  0000 C CNN
F 2 "" H 7775 4325 60  0000 C CNN
F 3 "" H 7775 4325 60  0000 C CNN
	1    7775 4325
	1    0    0    -1  
$EndComp
Text GLabel 8775 2675 2    60   Input ~ 0
+5V
$Comp
L C_Small C7
U 1 1 56157DC3
P 7350 2850
F 0 "C7" H 7360 2920 50  0000 L CNN
F 1 "10u" H 7360 2770 50  0000 L CNN
F 2 "Capacitors_SMD:C_0805_HandSoldering" H 7350 2850 60  0001 C CNN
F 3 "" H 7350 2850 60  0000 C CNN
F 4 "Value" H 7350 2850 60  0001 C CNN "manf#"
	1    7350 2850
	1    0    0    -1  
$EndComp
$Comp
L GND #PWR07
U 1 1 56157DC4
P 7350 2950
F 0 "#PWR07" H 7350 2700 50  0001 C CNN
F 1 "GND" H 7350 2800 50  0000 C CNN
F 2 "" H 7350 2950 60  0000 C CNN
F 3 "" H 7350 2950 60  0000 C CNN
	1    7350 2950
	1    0    0    -1  
$EndComp
$Comp
L C_Small C9
U 1 1 56157DC5
P 8775 2875
F 0 "C9" H 8785 2945 50  0000 L CNN
F 1 "10u" H 8785 2795 50  0000 L CNN
F 2 "Capacitors_SMD:C_0805_HandSoldering" H 8775 2875 60  0001 C CNN
F 3 "" H 8775 2875 60  0000 C CNN
F 4 "Value" H 8775 2875 60  0001 C CNN "manf#"
	1    8775 2875
	1    0    0    -1  
$EndComp
$Comp
L GND #PWR08
U 1 1 56157DC6
P 8775 2975
F 0 "#PWR08" H 8775 2725 50  0001 C CNN
F 1 "GND" H 8775 2825 50  0000 C CNN
F 2 "" H 8775 2975 60  0000 C CNN
F 3 "" H 8775 2975 60  0000 C CNN
	1    8775 2975
	1    0    0    -1  
$EndComp
$Comp
L C_Small C8
U 1 1 56157DC7
P 8425 2900
F 0 "C8" H 8435 2970 50  0000 L CNN
F 1 "100n" H 8435 2820 50  0000 L CNN
F 2 "Capacitors_SMD:C_0805_HandSoldering" H 8425 2900 60  0001 C CNN
F 3 "" H 8425 2900 60  0000 C CNN
F 4 "Value" H 8425 2900 60  0001 C CNN "manf#"
	1    8425 2900
	1    0    0    -1  
$EndComp
$Comp
L GND #PWR09
U 1 1 56157DC8
P 8425 3000
F 0 "#PWR09" H 8425 2750 50  0001 C CNN
F 1 "GND" H 8425 2850 50  0000 C CNN
F 2 "" H 8425 3000 60  0000 C CNN
F 3 "" H 8425 3000 60  0000 C CNN
	1    8425 3000
	1    0    0    -1  
$EndComp
Text Notes 8475 4025 0    60   ~ 0
teensy
$Comp
L PWR_FLAG #FLG010
U 1 1 56157DC9
P 9125 3400
F 0 "#FLG010" H 9125 3495 50  0001 C CNN
F 1 "PWR_FLAG" H 9125 3580 50  0000 C CNN
F 2 "" H 9125 3400 60  0000 C CNN
F 3 "" H 9125 3400 60  0000 C CNN
	1    9125 3400
	1    0    0    -1  
$EndComp
Text Notes 5600 4700 0    60   ~ 0
caps at \nop amp
$Comp
L CONN_02X04 P6
U 1 1 56157DCB
P 8625 3650
F 0 "P6" H 8600 3750 50  0000 C CNN
F 1 "CONN_02X04" H 8625 3400 50  0001 C CNN
F 2 "Pin_Headers:Pin_Header_Straight_2x04" H 8625 2450 60  0001 C CNN
F 3 "" H 8625 2450 60  0000 C CNN
F 4 "Value" H 8625 3650 60  0001 C CNN "manf#"
	1    8625 3650
	1    0    0    -1  
$EndComp
$Comp
L C_Small C10
U 1 1 56157DCC
P 9350 3500
F 0 "C10" H 9360 3570 50  0000 L CNN
F 1 "10u" H 9360 3420 50  0000 L CNN
F 2 "Capacitors_SMD:C_0805_HandSoldering" H 9350 3500 60  0001 C CNN
F 3 "" H 9350 3500 60  0000 C CNN
F 4 "Value" H 9350 3500 60  0001 C CNN "manf#"
	1    9350 3500
	1    0    0    -1  
$EndComp
$Comp
L GND #PWR011
U 1 1 56157DCD
P 9350 3725
F 0 "#PWR011" H 9350 3475 50  0001 C CNN
F 1 "GND" H 9350 3575 50  0000 C CNN
F 2 "" H 9350 3725 60  0000 C CNN
F 3 "" H 9350 3725 60  0000 C CNN
	1    9350 3725
	1    0    0    -1  
$EndComp
Text Notes 9250 3350 0    60   ~ 0
3.3V
$Comp
L AD7699 U2
U 1 1 56157DCE
P 7775 3600
F 0 "U2" H 7575 3700 50  0000 L CNN
F 1 "AD7699" H 7575 3525 50  0000 L CNN
F 2 "Housings_DFN_QFN:QFN-20-1EP_4x4mm_Pitch0.5mm" H 7775 3600 50  0001 C CNN
F 3 "" H 7775 3600 50  0000 C CNN
F 4 "Value" H 7775 3600 60  0001 C CNN "manf#"
	1    7775 3600
	1    0    0    -1  
$EndComp
$Comp
L PhotoD D1
U 1 1 56157DCF
P 3675 3500
F 0 "D1" H 3775 3600 50  0000 C CNN
F 1 "PhotoD" H 3675 3400 50  0000 C CNN
F 2 "Handheld board:Pin_diode_SIP_down" H 3675 3500 60  0001 C CNN
F 3 "S6775-01" H 3675 3500 60  0001 C CNN
F 4 "Value" H 3675 3500 60  0001 C CNN "manf#"
F 5 "Value" H 3675 3500 60  0001 C CNN "S6775-01"
	1    3675 3500
	0    1    1    0   
$EndComp
Text GLabel 3325 3975 0    60   Input ~ 0
-10V
$Comp
L CONN_01X02 P3
U 1 1 56157DD5
P 6625 4925
F 0 "P3" H 6625 5075 50  0000 C CNN
F 1 "CONN_01X02" V 6725 4925 50  0001 C CNN
F 2 "Connect:PINHEAD1-2" H 6625 4925 60  0001 C CNN
F 3 "" H 6625 4925 60  0000 C CNN
F 4 "Value" H 6625 4925 60  0001 C CNN "manf#"
	1    6625 4925
	1    0    0    -1  
$EndComp
$Comp
L CONN_01X02 P4
U 1 1 56157DD6
P 6625 5225
F 0 "P4" H 6625 5375 50  0000 C CNN
F 1 "CONN_01X02" V 6725 5225 50  0001 C CNN
F 2 "Connect:PINHEAD1-2" H 6625 5225 60  0001 C CNN
F 3 "" H 6625 5225 60  0000 C CNN
F 4 "Value" H 6625 5225 60  0001 C CNN "manf#"
	1    6625 5225
	1    0    0    -1  
$EndComp
$Comp
L R_Small R3
U 1 1 56157DDF
P 3850 3975
F 0 "R3" V 3925 3925 50  0000 L CNN
F 1 "0" V 3775 3900 50  0000 L CNN
F 2 "Resistors_SMD:R_0805_HandSoldering" H 3850 3975 60  0001 C CNN
F 3 "" H 3850 3975 60  0000 C CNN
F 4 "Value" H 3850 3975 60  0001 C CNN "manf#"
	1    3850 3975
	0    -1   -1   0   
$EndComp
$Comp
L R_Small R2
U 1 1 56157DE0
P 3525 3975
F 0 "R2" V 3600 3925 50  0000 L CNN
F 1 "0" V 3450 3900 50  0000 L CNN
F 2 "Resistors_SMD:R_0805_HandSoldering" H 3525 3975 60  0001 C CNN
F 3 "" H 3525 3975 60  0000 C CNN
F 4 "Value" H 3525 3975 60  0001 C CNN "manf#"
	1    3525 3975
	0    -1   -1   0   
$EndComp
Text Notes 4175 3550 0    60   ~ 0
DC\nfilter
Text Notes 3325 4300 0    60   ~ 0
optional\nreverse bias
$Comp
L CONN_01X01 P5
U 1 1 56157DE1
P 6900 3050
F 0 "P5" H 6900 3150 50  0000 C CNN
F 1 "CONN_01X01" V 7000 3050 50  0001 C CNN
F 2 "Connect:PINTST" H 6900 3050 60  0001 C CNN
F 3 "" H 6900 3050 60  0000 C CNN
F 4 "Value" H 6900 3050 60  0001 C CNN "manf#"
	1    6900 3050
	0    -1   -1   0   
$EndComp
Text GLabel 4900 3625 0    60   Input ~ 0
S1
Text GLabel 8875 3800 2    60   Output ~ 0
S1
$Comp
L IVC102 U1
U 1 1 56180E22
P 5150 3000
F 0 "U1" H 5100 3150 50  0000 L CNN
F 1 "IVC102" H 5025 3000 50  0000 L CNN
F 2 "Housings_SOIC:SOIC-14_3.9x8.7mm_Pitch1.27mm" H 5150 3000 60  0001 C CNN
F 3 "" H 5150 3000 60  0000 C CNN
F 4 "Value" H 5150 3000 60  0001 C CNN "manf#"
	1    5150 3000
	1    0    0    -1  
$EndComp
Text GLabel 5850 2725 2    60   Input ~ 0
+5V
Text GLabel 5000 3625 2    60   Input ~ 0
S2
Text GLabel 5850 3250 2    60   Input ~ 0
-10V
Text GLabel 8875 3700 2    60   Output ~ 0
S2
$Comp
L R_Small R8
U 1 1 5618295C
P 6375 3100
F 0 "R8" V 6450 3050 50  0000 L CNN
F 1 "1K" V 6300 3025 50  0000 L CNN
F 2 "Resistors_SMD:R_0805_HandSoldering" H 6375 3100 60  0001 C CNN
F 3 "" H 6375 3100 60  0000 C CNN
F 4 "Value" H 6375 3100 60  0001 C CNN "manf#"
	1    6375 3100
	0    -1   -1   0   
$EndComp
Connection ~ 5000 3975
Wire Wire Line
	3950 3975 6650 3975
Wire Wire Line
	5700 5075 6425 5075
Wire Wire Line
	6425 4650 6425 4875
Wire Wire Line
	6425 5500 6425 5275
Wire Wire Line
	6075 4650 6525 4650
Wire Wire Line
	6075 4650 6075 4675
Wire Wire Line
	6075 4875 6075 5200
Wire Wire Line
	6075 5400 6075 5500
Wire Wire Line
	6075 5500 6525 5500
Connection ~ 6075 5075
Connection ~ 6425 5075
Connection ~ 6275 4650
Connection ~ 6275 5500
Wire Wire Line
	7025 4150 7875 4150
Connection ~ 7775 4150
Wire Wire Line
	7775 4150 7775 4325
Wire Wire Line
	7875 3050 7775 3050
Wire Wire Line
	7875 2675 7875 3050
Connection ~ 7875 3050
Wire Wire Line
	7675 3050 7675 2675
Wire Wire Line
	7675 2675 7350 2675
Wire Wire Line
	7350 2675 7350 2750
Wire Wire Line
	7875 2675 8775 2675
Wire Wire Line
	8775 2675 8775 2775
Connection ~ 7875 4150
Wire Wire Line
	8425 2800 7975 2800
Wire Wire Line
	7975 2800 7975 3050
Wire Wire Line
	8375 3400 9350 3400
Connection ~ 7675 4150
Wire Wire Line
	6650 3350 7225 3350
Wire Wire Line
	7125 3450 7025 3450
Wire Wire Line
	7025 3450 7025 4150
Connection ~ 7025 4150
Wire Wire Line
	7125 3750 7025 3750
Connection ~ 7025 3750
Wire Wire Line
	7225 3850 7025 3850
Connection ~ 7025 3850
Wire Wire Line
	7325 3950 7025 3950
Connection ~ 7025 3950
Connection ~ 7025 3650
Connection ~ 7025 3550
Connection ~ 9125 3400
Wire Wire Line
	8875 3500 8875 3400
Connection ~ 8875 3400
Connection ~ 6425 4650
Connection ~ 6425 5500
Wire Wire Line
	4025 3975 4025 3650
Wire Wire Line
	4025 3150 4025 3450
Wire Wire Line
	3675 3150 3675 3350
Connection ~ 4025 3150
Wire Wire Line
	3675 3650 3675 3975
Wire Wire Line
	6650 3975 6650 3350
Wire Wire Line
	6425 4975 6425 5175
Connection ~ 4025 3975
Wire Wire Line
	3625 3975 3750 3975
Connection ~ 3675 3975
Wire Wire Line
	3425 3975 3325 3975
Connection ~ 5700 5075
Connection ~ 6900 3250
Wire Wire Line
	8875 3600 9350 3600
Wire Wire Line
	9350 3600 9350 3725
Connection ~ 9350 3600
Wire Wire Line
	4450 3150 4325 3150
Wire Wire Line
	4450 2400 4450 3050
Connection ~ 4450 2950
Connection ~ 4450 2850
Wire Wire Line
	4450 3250 4450 3975
Connection ~ 4450 3975
Wire Wire Line
	5475 3500 5475 3975
Connection ~ 5475 3975
Wire Wire Line
	6650 3100 6650 3250
Wire Wire Line
	6650 3250 7325 3250
Wire Wire Line
	4900 3625 4900 3500
Wire Wire Line
	5000 3625 5000 3500
Wire Wire Line
	3675 3150 4125 3150
Wire Wire Line
	6650 3100 6475 3100
Wire Wire Line
	6275 3100 5850 3100
$Comp
L C_Small C3
U 1 1 561846D2
P 5125 2400
F 0 "C3" H 5135 2470 50  0000 L CNN
F 1 "1n" H 5135 2320 50  0000 L CNN
F 2 "Capacitors_SMD:C_0805_HandSoldering" H 5125 2400 60  0001 C CNN
F 3 "" H 5125 2400 60  0000 C CNN
F 4 "Value" H 5125 2400 60  0001 C CNN "manf#"
	1    5125 2400
	0    1    1    0   
$EndComp
Wire Wire Line
	4450 2400 5025 2400
Connection ~ 4450 2750
Wire Wire Line
	5225 2400 6175 2400
Wire Wire Line
	6175 2400 6175 3100
Connection ~ 6175 3100
Wire Wire Line
	5125 3500 5475 3500
Connection ~ 5225 3500
Connection ~ 5475 3500
$EndSCHEMATC
