EESchema Schematic File Version 2
LIBS:power
LIBS:device
LIBS:transistors
LIBS:conn
LIBS:linear
LIBS:regul
LIBS:74xx
LIBS:cmos4000
LIBS:adc-dac
LIBS:memory
LIBS:xilinx
LIBS:special
LIBS:microcontrollers
LIBS:dsp
LIBS:microchip
LIBS:analog_switches
LIBS:motorola
LIBS:texas
LIBS:intel
LIBS:audio
LIBS:interface
LIBS:digital-audio
LIBS:philips
LIBS:display
LIBS:cypress
LIBS:siliconi
LIBS:opto
LIBS:atmel
LIBS:contrib
LIBS:valves
LIBS:soilEC-cache
EELAYER 27 0
EELAYER END
$Descr A3 16535 11693
encoding utf-8
Sheet 1 1
Title "soilEC"
Date "25 mar 2015"
Rev "1"
Comp "Photosynq"
Comment1 "Zegarac Robert"
Comment2 ""
Comment3 ""
Comment4 ""
$EndDescr
NoConn ~ 16100 5325
$Comp
L HTU21D U111
U 1 1 51E06B99
P 12550 1975
F 0 "U111" H 12550 1725 60  0000 C CNN
F 1 "HTU21D" H 12550 2175 60  0000 C CNN
F 2 "dfn6" H 12550 1975 10  0000 C CNN
F 3 "HPP828E031" H 12550 1825 20  0000 C CNN
F 4 "9.653" H 12550 1975 60  0001 C CNN "Price10"
F 5 "6.864" H 12550 1975 60  0001 C CNN "Price100"
	1    12550 1975
	1    0    0    -1  
$EndComp
$Comp
L GND #PWR12
U 1 1 53458E47
P 12350 2475
F 0 "#PWR12" H 12350 2475 30  0001 C CNN
F 1 "GND" H 12350 2405 30  0001 C CNN
F 2 "" H 12350 2475 60  0000 C CNN
F 3 "" H 12350 2475 60  0000 C CNN
	1    12350 2475
	-1   0    0    -1  
$EndComp
Text GLabel 12225 2075 0    40   BiDi ~ 0
SDA
Text GLabel 12875 2075 2    40   Input ~ 0
SCL
Text GLabel 12875 1975 2    40   Input ~ 0
3.3Vdd
Text Notes 12100 1700 0    40   ~ 0
Temperature&Humidity\n
Text GLabel 11550 850  3    40   Input ~ 0
+5V
$Comp
L PWR_FLAG #FLG1
U 1 1 53474327
P 11550 750
F 0 "#FLG1" H 11550 845 30  0001 C CNN
F 1 "PWR_FLAG" H 11550 930 30  0000 C CNN
F 2 "" H 11550 750 60  0000 C CNN
F 3 "" H 11550 750 60  0000 C CNN
	1    11550 750 
	-1   0    0    -1  
$EndComp
$Comp
L C C116
U 1 1 549868CB
P 12550 2375
F 0 "C116" V 12600 2450 50  0000 L CNN
F 1 "10u" V 12600 2200 50  0000 L CNN
F 2 "SM0805" H 12550 2375 10  0000 C CNN
F 3 "C0805C106M4PACTU" H 12550 2375 10  0000 C CNN
F 4 "0.24" V 12550 2375 60  0001 C CNN "Price10"
F 5 "0.0705" V 12550 2375 60  0001 C CNN "Price1000"
	1    12550 2375
	0    -1   -1   0   
$EndComp
$Comp
L CONN_14 P4
U 1 1 551189D4
P 11250 2600
F 0 "P4" V 11220 2600 60  0000 C CNN
F 1 "CONN_14" V 11330 2600 60  0000 C CNN
F 2 "~" H 11250 2600 60  0000 C CNN
F 3 "~" H 11250 2600 60  0000 C CNN
	1    11250 2600
	1    0    0    -1  
$EndComp
$Comp
L CONN_14 P3
U 1 1 551189E1
P 8550 2600
F 0 "P3" V 8520 2600 60  0000 C CNN
F 1 "CONN_14" V 8630 2600 60  0000 C CNN
F 2 "~" H 8550 2600 60  0000 C CNN
F 3 "~" H 8550 2600 60  0000 C CNN
	1    8550 2600
	-1   0    0    -1  
$EndComp
$Comp
L CONN_5 P118
U 1 1 55118A7D
P 9900 4050
F 0 "P118" V 9850 4050 50  0000 C CNN
F 1 "CONN_5" V 9950 4050 50  0000 C CNN
F 2 "~" H 9900 4050 60  0000 C CNN
F 3 "~" H 9900 4050 60  0000 C CNN
	1    9900 4050
	0    1    1    0   
$EndComp
$Comp
L CONN_3 K101
U 1 1 551191D4
P 10100 1300
F 0 "K101" V 10050 1300 50  0000 C CNN
F 1 "CONN_3" V 10150 1300 40  0000 C CNN
F 2 "~" H 10100 1300 60  0000 C CNN
F 3 "~" H 10100 1300 60  0000 C CNN
	1    10100 1300
	1    0    0    1   
$EndComp
$Comp
L THERMISTOR TH104
U 1 1 551193B4
P 13950 5000
F 0 "TH104" V 14050 5050 50  0000 C CNN
F 1 "THERMISTOR" V 13850 5000 50  0000 C CNN
F 2 "~" H 13950 5000 60  0000 C CNN
F 3 "~" H 13950 5000 60  0000 C CNN
	1    13950 5000
	1    0    0    -1  
$EndComp
$Comp
L THERMISTOR TH101
U 1 1 551193C1
P 12550 4050
F 0 "TH101" V 12650 4100 50  0000 C CNN
F 1 "THERMISTOR" V 12450 4050 50  0000 C CNN
F 2 "~" H 12550 4050 60  0000 C CNN
F 3 "~" H 12550 4050 60  0000 C CNN
	1    12550 4050
	1    0    0    -1  
$EndComp
$Comp
L THERMISTOR TH102
U 1 1 551193C7
P 13950 4050
F 0 "TH102" V 14050 4100 50  0000 C CNN
F 1 "THERMISTOR" V 13850 4050 50  0000 C CNN
F 2 "~" H 13950 4050 60  0000 C CNN
F 3 "~" H 13950 4050 60  0000 C CNN
	1    13950 4050
	1    0    0    -1  
$EndComp
$Comp
L THERMISTOR TH103
U 1 1 551193CD
P 12550 5000
F 0 "TH103" V 12650 5050 50  0000 C CNN
F 1 "THERMISTOR" V 12450 5000 50  0000 C CNN
F 2 "~" H 12550 5000 60  0000 C CNN
F 3 "~" H 12550 5000 60  0000 C CNN
	1    12550 5000
	1    0    0    -1  
$EndComp
$Comp
L R R101
U 1 1 55119406
P 6650 2050
F 0 "R101" V 6730 2050 40  0000 C CNN
F 1 "100K" V 6657 2051 40  0000 C CNN
F 2 "SM0805" V 6650 1950 10  0000 C CNN
F 3 "~" H 6650 2050 30  0000 C CNN
	1    6650 2050
	0    -1   -1   0   
$EndComp
$Comp
L CONN_1 P127
U 1 1 55119D59
P 12350 4750
F 0 "P127" H 12430 4750 40  0000 L CNN
F 1 "CONN_1" H 12350 4805 30  0001 C CNN
F 2 "~" H 12350 4750 60  0000 C CNN
F 3 "~" H 12350 4750 60  0000 C CNN
	1    12350 4750
	-1   0    0    1   
$EndComp
$Comp
L R R105
U 1 1 55119D84
P 12850 3800
F 0 "R105" V 12930 3800 40  0000 C CNN
F 1 "10K" V 12857 3801 40  0000 C CNN
F 2 "SM0805" V 12780 3800 10  0000 C CNN
F 3 "~" H 12850 3800 30  0000 C CNN
	1    12850 3800
	0    -1   -1   0   
$EndComp
$Comp
L GND #PWR16
U 1 1 5511A00F
P 13950 5300
F 0 "#PWR16" H 13950 5300 30  0001 C CNN
F 1 "GND" H 13950 5230 30  0001 C CNN
F 2 "" H 13950 5300 60  0000 C CNN
F 3 "" H 13950 5300 60  0000 C CNN
	1    13950 5300
	-1   0    0    -1  
$EndComp
$Comp
L GND #PWR14
U 1 1 5511A060
P 12550 5300
F 0 "#PWR14" H 12550 5300 30  0001 C CNN
F 1 "GND" H 12550 5230 30  0001 C CNN
F 2 "" H 12550 5300 60  0000 C CNN
F 3 "" H 12550 5300 60  0000 C CNN
	1    12550 5300
	-1   0    0    -1  
$EndComp
$Comp
L GND #PWR13
U 1 1 5511A066
P 12550 4350
F 0 "#PWR13" H 12550 4350 30  0001 C CNN
F 1 "GND" H 12550 4280 30  0001 C CNN
F 2 "" H 12550 4350 60  0000 C CNN
F 3 "" H 12550 4350 60  0000 C CNN
	1    12550 4350
	-1   0    0    -1  
$EndComp
$Comp
L GND #PWR15
U 1 1 5511A06C
P 13950 4350
F 0 "#PWR15" H 13950 4350 30  0001 C CNN
F 1 "GND" H 13950 4280 30  0001 C CNN
F 2 "" H 13950 4350 60  0000 C CNN
F 3 "" H 13950 4350 60  0000 C CNN
	1    13950 4350
	-1   0    0    -1  
$EndComp
$Comp
L GND #PWR9
U 1 1 5511A15B
P 9100 1800
F 0 "#PWR9" H 9100 1800 30  0001 C CNN
F 1 "GND" H 9100 1730 30  0001 C CNN
F 2 "" H 9100 1800 60  0000 C CNN
F 3 "" H 9100 1800 60  0000 C CNN
	1    9100 1800
	-1   0    0    -1  
$EndComp
$Comp
L CONN_1 P122
U 1 1 5511A209
P 13100 4300
F 0 "P122" H 13180 4300 40  0000 L CNN
F 1 "CONN_1" H 13100 4355 30  0001 C CNN
F 2 "~" H 13100 4300 60  0000 C CNN
F 3 "~" H 13100 4300 60  0000 C CNN
	1    13100 4300
	-1   0    0    1   
$EndComp
$Comp
L CONN_1 P114
U 1 1 5511A26D
P 12350 3800
F 0 "P114" H 12430 3800 40  0000 L CNN
F 1 "CONN_1" H 12350 3855 30  0001 C CNN
F 2 "~" H 12350 3800 60  0000 C CNN
F 3 "~" H 12350 3800 60  0000 C CNN
	1    12350 3800
	-1   0    0    1   
$EndComp
$Comp
L CONN_1 P115
U 1 1 5511A2C9
P 14150 3800
F 0 "P115" H 14230 3800 40  0000 L CNN
F 1 "CONN_1" H 14150 3855 30  0001 C CNN
F 2 "~" H 14150 3800 60  0000 C CNN
F 3 "~" H 14150 3800 60  0000 C CNN
	1    14150 3800
	1    0    0    -1  
$EndComp
$Comp
L CONN_1 P128
U 1 1 5511A2CF
P 14150 4750
F 0 "P128" H 14230 4750 40  0000 L CNN
F 1 "CONN_1" H 14150 4805 30  0001 C CNN
F 2 "~" H 14150 4750 60  0000 C CNN
F 3 "~" H 14150 4750 60  0000 C CNN
	1    14150 4750
	1    0    0    -1  
$EndComp
$Comp
L GND #PWR10
U 1 1 5511A50B
P 10800 1800
F 0 "#PWR10" H 10800 1800 30  0001 C CNN
F 1 "GND" H 10800 1730 30  0001 C CNN
F 2 "" H 10800 1800 60  0000 C CNN
F 3 "" H 10800 1800 60  0000 C CNN
	1    10800 1800
	-1   0    0    -1  
$EndComp
Text GLabel 10450 1600 1    40   Input ~ 0
3.3Vdd
Text GLabel 11500 2750 2    40   BiDi ~ 0
SDA
Text GLabel 11500 2650 2    40   Input ~ 0
SCL
$Comp
L C C101
U 1 1 5511A699
P 9900 1650
F 0 "C101" V 9950 1725 50  0000 L CNN
F 1 "10u" V 9950 1475 50  0000 L CNN
F 2 "SM0805" H 9900 1650 10  0000 C CNN
F 3 "C0805C106M4PACTU" H 9900 1650 10  0000 C CNN
F 4 "0.24" V 9900 1650 60  0001 C CNN "Price10"
F 5 "0.0705" V 9900 1650 60  0001 C CNN "Price1000"
	1    9900 1650
	0    -1   -1   0   
$EndComp
$Comp
L R R110
U 1 1 5511A7FD
P 12850 4750
F 0 "R110" V 12930 4750 40  0000 C CNN
F 1 "10K" V 12857 4751 40  0000 C CNN
F 2 "SM0805" V 12780 4750 10  0000 C CNN
F 3 "~" H 12850 4750 30  0000 C CNN
	1    12850 4750
	0    -1   -1   0   
$EndComp
$Comp
L R R106
U 1 1 5511A803
P 13550 3800
F 0 "R106" V 13630 3800 40  0000 C CNN
F 1 "10K" V 13557 3801 40  0000 C CNN
F 2 "SM0805" V 13480 3800 10  0000 C CNN
F 3 "~" H 13550 3800 30  0000 C CNN
	1    13550 3800
	0    -1   -1   0   
$EndComp
$Comp
L R R111
U 1 1 5511A809
P 13550 4750
F 0 "R111" V 13630 4750 40  0000 C CNN
F 1 "10K" V 13557 4751 40  0000 C CNN
F 2 "SM0805" V 13480 4750 10  0000 C CNN
F 3 "~" H 13550 4750 30  0000 C CNN
	1    13550 4750
	0    -1   -1   0   
$EndComp
$Comp
L GND #PWR11
U 1 1 5511A8DC
P 10900 4000
F 0 "#PWR11" H 10900 4000 30  0001 C CNN
F 1 "GND" H 10900 3930 30  0001 C CNN
F 2 "" H 10900 4000 60  0000 C CNN
F 3 "" H 10900 4000 60  0000 C CNN
	1    10900 4000
	-1   0    0    -1  
$EndComp
$Comp
L CONN_1 P120
U 1 1 5511A900
P 10700 3850
F 0 "P120" H 10780 3850 40  0000 L CNN
F 1 "CONN_1" H 10700 3905 30  0001 C CNN
F 2 "~" H 10700 3850 60  0000 C CNN
F 3 "~" H 10700 3850 60  0000 C CNN
	1    10700 3850
	-1   0    0    1   
$EndComp
$Comp
L CONN_1 P121
U 1 1 5511A906
P 10700 3950
F 0 "P121" H 10780 3950 40  0000 L CNN
F 1 "CONN_1" H 10700 4005 30  0001 C CNN
F 2 "~" H 10700 3950 60  0000 C CNN
F 3 "~" H 10700 3950 60  0000 C CNN
	1    10700 3950
	-1   0    0    1   
$EndComp
$Comp
L CONN_1 P136
U 1 1 5511AB95
P 10700 3600
F 0 "P136" H 10780 3600 40  0000 L CNN
F 1 "CONN_1" H 10700 3655 30  0001 C CNN
F 2 "~" H 10700 3600 60  0000 C CNN
F 3 "~" H 10700 3600 60  0000 C CNN
	1    10700 3600
	-1   0    0    1   
$EndComp
$Comp
L CONN_1 P137
U 1 1 5511AB9B
P 10700 3700
F 0 "P137" H 10780 3700 40  0000 L CNN
F 1 "CONN_1" H 10700 3755 30  0001 C CNN
F 2 "~" H 10700 3700 60  0000 C CNN
F 3 "~" H 10700 3700 60  0000 C CNN
	1    10700 3700
	-1   0    0    1   
$EndComp
Text GLabel 10950 3700 2    40   Input ~ 0
+5V
Text GLabel 10900 1750 2    40   Input ~ 0
+5V
$Comp
L CONN_8 P2
U 1 1 5511940E
P 8000 2400
F 0 "P2" V 7950 2400 60  0000 C CNN
F 1 "CONN_8" V 8050 2400 60  0000 C CNN
F 2 "~" H 8000 2400 60  0000 C CNN
F 3 "~" H 8000 2400 60  0000 C CNN
	1    8000 2400
	1    0    0    -1  
$EndComp
$Comp
L DIODE D101
U 1 1 5511AE7D
P 6150 2050
F 0 "D101" H 6150 2150 40  0000 C CNN
F 1 "DIODE" H 6150 1950 40  0000 C CNN
F 2 "~" H 6150 2050 60  0000 C CNN
F 3 "~" H 6150 2050 60  0000 C CNN
	1    6150 2050
	-1   0    0    1   
$EndComp
$Comp
L C C102
U 1 1 5511AE8C
P 5900 2250
F 0 "C102" H 5900 2350 40  0000 L CNN
F 1 "10n" H 5906 2165 40  0000 L CNN
F 2 "SM0805" H 5938 2100 10  0000 C CNN
F 3 "~" H 5900 2250 60  0000 C CNN
	1    5900 2250
	1    0    0    -1  
$EndComp
$Comp
L GND #PWR1
U 1 1 5511AEA3
P 5700 2600
F 0 "#PWR1" H 5700 2600 30  0001 C CNN
F 1 "GND" H 5700 2530 30  0001 C CNN
F 2 "" H 5700 2600 60  0000 C CNN
F 3 "" H 5700 2600 60  0000 C CNN
	1    5700 2600
	-1   0    0    -1  
$EndComp
$Comp
L R R102
U 1 1 5511B11E
P 5700 2300
F 0 "R102" V 5780 2300 40  0000 C CNN
F 1 "100K" V 5707 2301 40  0000 C CNN
F 2 "SM0805" V 5700 2200 10  0000 C CNN
F 3 "~" H 5700 2300 30  0000 C CNN
	1    5700 2300
	-1   0    0    1   
$EndComp
Text GLabel 6950 2050 2    40   Input ~ 0
AC1
Text GLabel 5650 2050 0    40   Input ~ 0
DC-SC1
$Comp
L R R103
U 1 1 5511B61E
P 6650 2950
F 0 "R103" V 6730 2950 40  0000 C CNN
F 1 "100K" V 6657 2951 40  0000 C CNN
F 2 "SM0805" V 6650 2850 10  0000 C CNN
F 3 "~" H 6650 2950 30  0000 C CNN
	1    6650 2950
	0    -1   -1   0   
$EndComp
$Comp
L DIODE D102
U 1 1 5511B630
P 6150 2950
F 0 "D102" H 6150 3050 40  0000 C CNN
F 1 "DIODE" H 6150 2850 40  0000 C CNN
F 2 "~" H 6150 2950 60  0000 C CNN
F 3 "~" H 6150 2950 60  0000 C CNN
	1    6150 2950
	-1   0    0    1   
$EndComp
$Comp
L C C103
U 1 1 5511B636
P 5900 3150
F 0 "C103" H 5900 3250 40  0000 L CNN
F 1 "10n" H 5906 3065 40  0000 L CNN
F 2 "SM0805" H 5938 3000 10  0000 C CNN
F 3 "~" H 5900 3150 60  0000 C CNN
	1    5900 3150
	1    0    0    -1  
$EndComp
$Comp
L GND #PWR2
U 1 1 5511B63C
P 5700 3500
F 0 "#PWR2" H 5700 3500 30  0001 C CNN
F 1 "GND" H 5700 3430 30  0001 C CNN
F 2 "" H 5700 3500 60  0000 C CNN
F 3 "" H 5700 3500 60  0000 C CNN
	1    5700 3500
	-1   0    0    -1  
$EndComp
$Comp
L R R104
U 1 1 5511B645
P 5700 3200
F 0 "R104" V 5780 3200 40  0000 C CNN
F 1 "100K" V 5707 3201 40  0000 C CNN
F 2 "SM0805" V 5700 3100 10  0000 C CNN
F 3 "~" H 5700 3200 30  0000 C CNN
	1    5700 3200
	-1   0    0    1   
$EndComp
$Comp
L R R107
U 1 1 5511B654
P 6650 3850
F 0 "R107" V 6730 3850 40  0000 C CNN
F 1 "100K" V 6657 3851 40  0000 C CNN
F 2 "SM0805" V 6650 3750 10  0000 C CNN
F 3 "~" H 6650 3850 30  0000 C CNN
	1    6650 3850
	0    -1   -1   0   
$EndComp
$Comp
L DIODE D103
U 1 1 5511B666
P 6150 3850
F 0 "D103" H 6150 3950 40  0000 C CNN
F 1 "DIODE" H 6150 3750 40  0000 C CNN
F 2 "~" H 6150 3850 60  0000 C CNN
F 3 "~" H 6150 3850 60  0000 C CNN
	1    6150 3850
	-1   0    0    1   
$EndComp
$Comp
L C C104
U 1 1 5511B66C
P 5900 4050
F 0 "C104" H 5900 4150 40  0000 L CNN
F 1 "10n" H 5906 3965 40  0000 L CNN
F 2 "SM0805" H 5938 3900 10  0000 C CNN
F 3 "~" H 5900 4050 60  0000 C CNN
	1    5900 4050
	1    0    0    -1  
$EndComp
$Comp
L GND #PWR3
U 1 1 5511B672
P 5700 4400
F 0 "#PWR3" H 5700 4400 30  0001 C CNN
F 1 "GND" H 5700 4330 30  0001 C CNN
F 2 "" H 5700 4400 60  0000 C CNN
F 3 "" H 5700 4400 60  0000 C CNN
	1    5700 4400
	-1   0    0    -1  
$EndComp
$Comp
L R R108
U 1 1 5511B67B
P 5700 4100
F 0 "R108" V 5780 4100 40  0000 C CNN
F 1 "100K" V 5707 4101 40  0000 C CNN
F 2 "SM0805" V 5700 4000 10  0000 C CNN
F 3 "~" H 5700 4100 30  0000 C CNN
	1    5700 4100
	-1   0    0    1   
$EndComp
$Comp
L R R109
U 1 1 5511B68A
P 6650 4750
F 0 "R109" V 6730 4750 40  0000 C CNN
F 1 "100K" V 6657 4751 40  0000 C CNN
F 2 "SM0805" V 6650 4650 10  0000 C CNN
F 3 "~" H 6650 4750 30  0000 C CNN
	1    6650 4750
	0    -1   -1   0   
$EndComp
$Comp
L DIODE D104
U 1 1 5511B69C
P 6150 4750
F 0 "D104" H 6150 4850 40  0000 C CNN
F 1 "DIODE" H 6150 4650 40  0000 C CNN
F 2 "~" H 6150 4750 60  0000 C CNN
F 3 "~" H 6150 4750 60  0000 C CNN
	1    6150 4750
	-1   0    0    1   
$EndComp
$Comp
L C C105
U 1 1 5511B6A2
P 5900 4950
F 0 "C105" H 5900 5050 40  0000 L CNN
F 1 "10n" H 5906 4865 40  0000 L CNN
F 2 "SM0805" H 5938 4800 10  0000 C CNN
F 3 "~" H 5900 4950 60  0000 C CNN
	1    5900 4950
	1    0    0    -1  
$EndComp
$Comp
L GND #PWR4
U 1 1 5511B6A8
P 5700 5300
F 0 "#PWR4" H 5700 5300 30  0001 C CNN
F 1 "GND" H 5700 5230 30  0001 C CNN
F 2 "" H 5700 5300 60  0000 C CNN
F 3 "" H 5700 5300 60  0000 C CNN
	1    5700 5300
	-1   0    0    -1  
$EndComp
$Comp
L R R112
U 1 1 5511B6B1
P 5700 5000
F 0 "R112" V 5780 5000 40  0000 C CNN
F 1 "100K" V 5707 5001 40  0000 C CNN
F 2 "SM0805" V 5700 4900 10  0000 C CNN
F 3 "~" H 5700 5000 30  0000 C CNN
	1    5700 5000
	-1   0    0    1   
$EndComp
$Comp
L R R113
U 1 1 5511B6C0
P 6650 5650
F 0 "R113" V 6730 5650 40  0000 C CNN
F 1 "100K" V 6657 5651 40  0000 C CNN
F 2 "SM0805" V 6650 5550 10  0000 C CNN
F 3 "~" H 6650 5650 30  0000 C CNN
	1    6650 5650
	0    -1   -1   0   
$EndComp
$Comp
L DIODE D105
U 1 1 5511B6D2
P 6150 5650
F 0 "D105" H 6150 5750 40  0000 C CNN
F 1 "DIODE" H 6150 5550 40  0000 C CNN
F 2 "~" H 6150 5650 60  0000 C CNN
F 3 "~" H 6150 5650 60  0000 C CNN
	1    6150 5650
	-1   0    0    1   
$EndComp
$Comp
L C C106
U 1 1 5511B6D8
P 5900 5850
F 0 "C106" H 5900 5950 40  0000 L CNN
F 1 "10n" H 5906 5765 40  0000 L CNN
F 2 "SM0805" H 5938 5700 10  0000 C CNN
F 3 "~" H 5900 5850 60  0000 C CNN
	1    5900 5850
	1    0    0    -1  
$EndComp
$Comp
L GND #PWR5
U 1 1 5511B6DE
P 5700 6200
F 0 "#PWR5" H 5700 6200 30  0001 C CNN
F 1 "GND" H 5700 6130 30  0001 C CNN
F 2 "" H 5700 6200 60  0000 C CNN
F 3 "" H 5700 6200 60  0000 C CNN
	1    5700 6200
	-1   0    0    -1  
$EndComp
$Comp
L R R114
U 1 1 5511B6E7
P 5700 5900
F 0 "R114" V 5780 5900 40  0000 C CNN
F 1 "100K" V 5707 5901 40  0000 C CNN
F 2 "SM0805" V 5700 5800 10  0000 C CNN
F 3 "~" H 5700 5900 30  0000 C CNN
	1    5700 5900
	-1   0    0    1   
$EndComp
$Comp
L R R115
U 1 1 5511B6F6
P 6650 6550
F 0 "R115" V 6730 6550 40  0000 C CNN
F 1 "100K" V 6657 6551 40  0000 C CNN
F 2 "SM0805" V 6650 6450 10  0000 C CNN
F 3 "~" H 6650 6550 30  0000 C CNN
	1    6650 6550
	0    -1   -1   0   
$EndComp
$Comp
L DIODE D106
U 1 1 5511B708
P 6150 6550
F 0 "D106" H 6150 6650 40  0000 C CNN
F 1 "DIODE" H 6150 6450 40  0000 C CNN
F 2 "~" H 6150 6550 60  0000 C CNN
F 3 "~" H 6150 6550 60  0000 C CNN
	1    6150 6550
	-1   0    0    1   
$EndComp
$Comp
L C C107
U 1 1 5511B70E
P 5900 6750
F 0 "C107" H 5900 6850 40  0000 L CNN
F 1 "10n" H 5906 6665 40  0000 L CNN
F 2 "SM0805" H 5938 6600 10  0000 C CNN
F 3 "~" H 5900 6750 60  0000 C CNN
	1    5900 6750
	1    0    0    -1  
$EndComp
$Comp
L GND #PWR6
U 1 1 5511B714
P 5700 7100
F 0 "#PWR6" H 5700 7100 30  0001 C CNN
F 1 "GND" H 5700 7030 30  0001 C CNN
F 2 "" H 5700 7100 60  0000 C CNN
F 3 "" H 5700 7100 60  0000 C CNN
	1    5700 7100
	-1   0    0    -1  
$EndComp
$Comp
L R R116
U 1 1 5511B71D
P 5700 6800
F 0 "R116" V 5780 6800 40  0000 C CNN
F 1 "100K" V 5707 6801 40  0000 C CNN
F 2 "SM0805" V 5700 6700 10  0000 C CNN
F 3 "~" H 5700 6800 30  0000 C CNN
	1    5700 6800
	-1   0    0    1   
$EndComp
$Comp
L R R117
U 1 1 5511B72C
P 6650 7450
F 0 "R117" V 6730 7450 40  0000 C CNN
F 1 "100K" V 6657 7451 40  0000 C CNN
F 2 "SM0805" V 6650 7350 10  0000 C CNN
F 3 "~" H 6650 7450 30  0000 C CNN
	1    6650 7450
	0    -1   -1   0   
$EndComp
$Comp
L CONN_1 P107
U 1 1 5511B732
P 6350 7250
F 0 "P107" H 6430 7250 40  0000 L CNN
F 1 "CONN_1" H 6350 7305 30  0001 C CNN
F 2 "~" H 6350 7250 60  0000 C CNN
F 3 "~" H 6350 7250 60  0000 C CNN
	1    6350 7250
	0    -1   -1   0   
$EndComp
$Comp
L DIODE D107
U 1 1 5511B73E
P 6150 7450
F 0 "D107" H 6150 7550 40  0000 C CNN
F 1 "DIODE" H 6150 7350 40  0000 C CNN
F 2 "~" H 6150 7450 60  0000 C CNN
F 3 "~" H 6150 7450 60  0000 C CNN
	1    6150 7450
	-1   0    0    1   
$EndComp
$Comp
L C C108
U 1 1 5511B744
P 5900 7650
F 0 "C108" H 5900 7750 40  0000 L CNN
F 1 "10n" H 5906 7565 40  0000 L CNN
F 2 "SM0805" H 5938 7500 10  0000 C CNN
F 3 "~" H 5900 7650 60  0000 C CNN
	1    5900 7650
	1    0    0    -1  
$EndComp
$Comp
L GND #PWR7
U 1 1 5511B74A
P 5700 8000
F 0 "#PWR7" H 5700 8000 30  0001 C CNN
F 1 "GND" H 5700 7930 30  0001 C CNN
F 2 "" H 5700 8000 60  0000 C CNN
F 3 "" H 5700 8000 60  0000 C CNN
	1    5700 8000
	-1   0    0    -1  
$EndComp
$Comp
L R R118
U 1 1 5511B753
P 5700 7700
F 0 "R118" V 5780 7700 40  0000 C CNN
F 1 "100K" V 5707 7701 40  0000 C CNN
F 2 "SM0805" V 5700 7600 10  0000 C CNN
F 3 "~" H 5700 7700 30  0000 C CNN
	1    5700 7700
	-1   0    0    1   
$EndComp
$Comp
L R R119
U 1 1 5511B762
P 6650 8350
F 0 "R119" V 6730 8350 40  0000 C CNN
F 1 "100K" V 6657 8351 40  0000 C CNN
F 2 "SM0805" V 6650 8250 10  0000 C CNN
F 3 "~" H 6650 8350 30  0000 C CNN
	1    6650 8350
	0    -1   -1   0   
$EndComp
$Comp
L CONN_1 P108
U 1 1 5511B768
P 6350 8150
F 0 "P108" H 6430 8150 40  0000 L CNN
F 1 "CONN_1" H 6350 8205 30  0001 C CNN
F 2 "~" H 6350 8150 60  0000 C CNN
F 3 "~" H 6350 8150 60  0000 C CNN
	1    6350 8150
	0    -1   -1   0   
$EndComp
$Comp
L DIODE D108
U 1 1 5511B774
P 6150 8350
F 0 "D108" H 6150 8450 40  0000 C CNN
F 1 "DIODE" H 6150 8250 40  0000 C CNN
F 2 "~" H 6150 8350 60  0000 C CNN
F 3 "~" H 6150 8350 60  0000 C CNN
	1    6150 8350
	-1   0    0    1   
$EndComp
$Comp
L C C109
U 1 1 5511B77A
P 5900 8550
F 0 "C109" H 5900 8650 40  0000 L CNN
F 1 "10n" H 5906 8465 40  0000 L CNN
F 2 "SM0805" H 5938 8400 10  0000 C CNN
F 3 "~" H 5900 8550 60  0000 C CNN
	1    5900 8550
	1    0    0    -1  
$EndComp
$Comp
L GND #PWR8
U 1 1 5511B780
P 5700 8900
F 0 "#PWR8" H 5700 8900 30  0001 C CNN
F 1 "GND" H 5700 8830 30  0001 C CNN
F 2 "" H 5700 8900 60  0000 C CNN
F 3 "" H 5700 8900 60  0000 C CNN
	1    5700 8900
	-1   0    0    -1  
$EndComp
$Comp
L R R120
U 1 1 5511B789
P 5700 8600
F 0 "R120" V 5780 8600 40  0000 C CNN
F 1 "100K" V 5707 8601 40  0000 C CNN
F 2 "SM0805" V 5700 8500 10  0000 C CNN
F 3 "~" H 5700 8600 30  0000 C CNN
	1    5700 8600
	-1   0    0    1   
$EndComp
Text GLabel 6950 2950 2    40   Input ~ 0
AC2
Text GLabel 6950 3850 2    40   Input ~ 0
AC3
Text GLabel 6950 4750 2    40   Input ~ 0
AC4
Text GLabel 6950 5650 2    40   Input ~ 0
AC5
Text GLabel 6950 6550 2    40   Input ~ 0
AC6
Text GLabel 6950 7450 2    40   Input ~ 0
AC7
Text GLabel 6950 8350 2    40   Input ~ 0
AC8
Text GLabel 5650 2950 0    40   Input ~ 0
DC-SC2
Text GLabel 5650 3850 0    40   Input ~ 0
DC-SC3
Text GLabel 5650 4750 0    40   Input ~ 0
DC-SC4
Text GLabel 5650 5650 0    40   Input ~ 0
DC-SC5
Text GLabel 5650 6550 0    40   Input ~ 0
DC-SC6
Text GLabel 5650 7450 0    40   Input ~ 0
DC-SC7
Text GLabel 5650 8350 0    40   Input ~ 0
DC-SC8
Text GLabel 9100 2100 2    40   Input ~ 0
AC1
Text GLabel 9100 2200 2    40   Input ~ 0
AC2
Text GLabel 9100 2300 2    40   Input ~ 0
AC3
Text GLabel 9100 2400 2    40   Input ~ 0
AC4
Text GLabel 9100 2500 2    40   Input ~ 0
AC5
Text GLabel 9100 2600 2    40   Input ~ 0
AC6
Text GLabel 9100 2700 2    40   Input ~ 0
AC7
Text GLabel 9100 2800 2    40   Input ~ 0
AC8
Text GLabel 10600 2300 2    40   Input ~ 0
DC-SC1
Text GLabel 10600 2500 2    40   Input ~ 0
DC-SC3
Text GLabel 10600 2600 2    40   Input ~ 0
DC-SC4
Text GLabel 10600 2900 2    40   Input ~ 0
DC-SC5
Text GLabel 10600 3000 2    40   Input ~ 0
DC-SC6
Text GLabel 10600 3100 2    40   Input ~ 0
DC-SC7
Text GLabel 10600 3200 2    40   Input ~ 0
DC-SC8
Text GLabel 10600 2400 2    40   Input ~ 0
DC-SC2
Text GLabel 7600 2050 0    40   Input ~ 0
AC1
Text GLabel 7600 2150 0    40   Input ~ 0
AC2
Text GLabel 7600 2250 0    40   Input ~ 0
AC3
Text GLabel 7600 2350 0    40   Input ~ 0
AC4
Text GLabel 7600 2450 0    40   Input ~ 0
AC5
Text GLabel 7600 2550 0    40   Input ~ 0
AC6
Text GLabel 7600 2650 0    40   Input ~ 0
AC7
Text GLabel 7600 2750 0    40   Input ~ 0
AC8
$Comp
L CONN_8 P1
U 1 1 5511C642
P 4300 2400
F 0 "P1" V 4250 2400 60  0000 C CNN
F 1 "CONN_8" V 4350 2400 60  0000 C CNN
F 2 "~" H 4300 2400 60  0000 C CNN
F 3 "~" H 4300 2400 60  0000 C CNN
	1    4300 2400
	-1   0    0    -1  
$EndComp
Text GLabel 4700 2050 2    40   Input ~ 0
DC-SC1
Text GLabel 4700 2150 2    40   Input ~ 0
DC-SC2
Text GLabel 4700 2250 2    40   Input ~ 0
DC-SC3
Text GLabel 4700 2350 2    40   Input ~ 0
DC-SC4
Text GLabel 4700 2450 2    40   Input ~ 0
DC-SC5
Text GLabel 4700 2550 2    40   Input ~ 0
DC-SC6
Text GLabel 4700 2650 2    40   Input ~ 0
DC-SC7
Text GLabel 4700 2750 2    40   Input ~ 0
DC-SC8
$Comp
L CONN_7 P132
U 1 1 5511C86E
P 10700 4850
F 0 "P132" V 10670 4850 60  0000 C CNN
F 1 "CONN_7" V 10770 4850 60  0000 C CNN
F 2 "~" H 10700 4850 60  0000 C CNN
F 3 "~" H 10700 4850 60  0000 C CNN
	1    10700 4850
	1    0    0    -1  
$EndComp
$Comp
L CONN_7 P130
U 1 1 5511CA9D
P 9100 4850
F 0 "P130" V 9070 4850 60  0000 C CNN
F 1 "CONN_7" V 9170 4850 60  0000 C CNN
F 2 "~" H 9100 4850 60  0000 C CNN
F 3 "~" H 9100 4850 60  0000 C CNN
	1    9100 4850
	-1   0    0    -1  
$EndComp
Text GLabel 9100 3300 2    40   Input ~ 0
TH-exc
Text GLabel 13400 4300 2    40   Input ~ 0
TH-exc
Text GLabel 13950 3750 1    40   Input ~ 0
TH-O1
Text GLabel 12550 3750 1    40   Input ~ 0
TH-O2
Text GLabel 12550 4700 1    40   Input ~ 0
TH-O3
Text GLabel 13950 4700 1    40   Input ~ 0
TH-O4
Text GLabel 9450 4250 0    40   Input ~ 0
TH-O2
Text GLabel 9450 4350 0    40   Input ~ 0
TH-O3
Text GLabel 10350 4250 2    40   Input ~ 0
TH-O4
Text GLabel 10350 4350 2    40   Input ~ 0
TH-O1
$Comp
L TEENSY3.1FULL U101
U 1 1 5511EC87
P 9900 2600
F 0 "U101" H 9900 3300 60  0000 C CNN
F 1 "TEENSY3.1FULL" H 9900 3400 60  0000 C CNN
F 2 "~" H 9900 2600 60  0000 C CNN
F 3 "~" H 9900 2600 60  0000 C CNN
	1    9900 2600
	1    0    0    -1  
$EndComp
Text GLabel 9850 2550 0    40   Input ~ 0
c1
Text GLabel 9850 2650 0    40   Input ~ 0
c2
Text GLabel 9850 2750 0    40   Input ~ 0
c3
Text GLabel 9850 2850 0    40   Input ~ 0
c4
Text GLabel 9850 2950 0    40   Input ~ 0
c5
Text GLabel 9850 3050 0    40   Input ~ 0
c6
Text GLabel 9850 3150 0    40   Input ~ 0
c7
Text GLabel 10100 2550 2    40   Input ~ 0
d1
Text GLabel 10100 2650 2    40   Input ~ 0
d2
Text GLabel 10100 2750 2    40   Input ~ 0
d3
Text GLabel 10100 2850 2    40   Input ~ 0
d4
Text GLabel 10100 2950 2    40   Input ~ 0
d5
Text GLabel 10100 3050 2    40   Input ~ 0
d6
Text GLabel 10100 3150 2    40   Input ~ 0
d7
Text GLabel 9500 4550 2    40   Input ~ 0
c1
Text GLabel 9500 4650 2    40   Input ~ 0
c2
Text GLabel 9500 4750 2    40   Input ~ 0
c3
Text GLabel 9500 4850 2    40   Input ~ 0
c4
Text GLabel 9500 4950 2    40   Input ~ 0
c5
Text GLabel 9500 5050 2    40   Input ~ 0
c6
Text GLabel 9500 5150 2    40   Input ~ 0
c7
Text GLabel 10300 4550 0    40   Input ~ 0
d1
Text GLabel 10300 4650 0    40   Input ~ 0
d2
Text GLabel 10300 4750 0    40   Input ~ 0
d3
Text GLabel 10300 4850 0    40   Input ~ 0
d4
Text GLabel 10300 4950 0    40   Input ~ 0
d5
Text GLabel 10300 5050 0    40   Input ~ 0
d6
Text GLabel 10300 5150 0    40   Input ~ 0
d7
$Comp
L CONN_1 P106
U 1 1 5511B6FC
P 6350 6350
F 0 "P106" H 6430 6350 40  0000 L CNN
F 1 "CONN_1" H 6350 6405 30  0001 C CNN
F 2 "~" H 6350 6350 60  0000 C CNN
F 3 "~" H 6350 6350 60  0000 C CNN
	1    6350 6350
	0    -1   -1   0   
$EndComp
$Comp
L CONN_1 P105
U 1 1 5511B6C6
P 6350 5450
F 0 "P105" H 6430 5450 40  0000 L CNN
F 1 "CONN_1" H 6350 5505 30  0001 C CNN
F 2 "~" H 6350 5450 60  0000 C CNN
F 3 "~" H 6350 5450 60  0000 C CNN
	1    6350 5450
	0    -1   -1   0   
$EndComp
$Comp
L CONN_1 P104
U 1 1 5511B690
P 6350 4550
F 0 "P104" H 6430 4550 40  0000 L CNN
F 1 "CONN_1" H 6350 4605 30  0001 C CNN
F 2 "~" H 6350 4550 60  0000 C CNN
F 3 "~" H 6350 4550 60  0000 C CNN
	1    6350 4550
	0    -1   -1   0   
$EndComp
$Comp
L CONN_1 P103
U 1 1 5511B65A
P 6350 3650
F 0 "P103" H 6430 3650 40  0000 L CNN
F 1 "CONN_1" H 6350 3705 30  0001 C CNN
F 2 "~" H 6350 3650 60  0000 C CNN
F 3 "~" H 6350 3650 60  0000 C CNN
	1    6350 3650
	0    -1   -1   0   
$EndComp
$Comp
L CONN_1 P102
U 1 1 5511B624
P 6350 2750
F 0 "P102" H 6430 2750 40  0000 L CNN
F 1 "CONN_1" H 6350 2805 30  0001 C CNN
F 2 "~" H 6350 2750 60  0000 C CNN
F 3 "~" H 6350 2750 60  0000 C CNN
	1    6350 2750
	0    -1   -1   0   
$EndComp
$Comp
L CONN_1 P101
U 1 1 551194B0
P 6350 1850
F 0 "P101" H 6430 1850 40  0000 L CNN
F 1 "CONN_1" H 6350 1905 30  0001 C CNN
F 2 "~" H 6350 1850 60  0000 C CNN
F 3 "~" H 6350 1850 60  0000 C CNN
	1    6350 1850
	0    -1   -1   0   
$EndComp
Text GLabel 13550 2100 0    40   BiDi ~ 0
SDA
Text GLabel 13850 2100 2    40   Input ~ 0
SCL
Text GLabel 13850 1600 2    40   Input ~ 0
3.3Vdd
$Comp
L R R1
U 1 1 55131491
P 13600 1850
F 0 "R1" V 13680 1850 40  0000 C CNN
F 1 "4K7" V 13607 1851 40  0000 C CNN
F 2 "SM0805" V 13600 1750 10  0000 C CNN
F 3 "~" H 13600 1850 30  0000 C CNN
	1    13600 1850
	-1   0    0    1   
$EndComp
$Comp
L R R2
U 1 1 5513149B
P 13750 1850
F 0 "R2" V 13830 1850 40  0000 C CNN
F 1 "4.7K" V 13757 1851 40  0000 C CNN
F 2 "SM0805" V 13750 1750 10  0000 C CNN
F 3 "~" H 13750 1850 30  0000 C CNN
	1    13750 1850
	-1   0    0    1   
$EndComp
Wire Wire Line
	11550 750  11550 850 
Connection ~ 12850 1975
Wire Wire Line
	12225 2075 12300 2075
Wire Wire Line
	12875 2075 12800 2075
Wire Wire Line
	12850 2375 12750 2375
Wire Wire Line
	12850 1975 12850 2375
Wire Wire Line
	12800 1975 12875 1975
Wire Wire Line
	12350 2375 12350 2475
Wire Wire Line
	12250 2375 12350 2375
Wire Wire Line
	12250 1975 12250 2375
Wire Wire Line
	12300 1975 12250 1975
Wire Wire Line
	8900 1950 9350 1950
Wire Wire Line
	8900 2050 9350 2050
Wire Wire Line
	8900 2150 9350 2150
Wire Wire Line
	8900 2250 9350 2250
Wire Wire Line
	8900 2350 9350 2350
Wire Wire Line
	8900 2450 9350 2450
Wire Wire Line
	8900 2550 9350 2550
Wire Wire Line
	8900 2650 9350 2650
Wire Wire Line
	8900 2750 9350 2750
Wire Wire Line
	8900 2850 9350 2850
Wire Wire Line
	8900 2950 9350 2950
Wire Wire Line
	8900 3050 9350 3050
Wire Wire Line
	8900 3150 9350 3150
Wire Wire Line
	8900 3250 9350 3250
Wire Wire Line
	10400 1950 10900 1950
Wire Wire Line
	10400 2050 10900 2050
Wire Wire Line
	10400 2150 10900 2150
Wire Wire Line
	10400 2250 10900 2250
Wire Wire Line
	10400 2350 10900 2350
Wire Wire Line
	10400 2450 10900 2450
Wire Wire Line
	10400 2550 10900 2550
Wire Wire Line
	10400 2650 10900 2650
Wire Wire Line
	10400 2750 10900 2750
Wire Wire Line
	10400 2850 10900 2850
Wire Wire Line
	10400 2950 10900 2950
Wire Wire Line
	10400 3050 10900 3050
Wire Wire Line
	10400 3150 10900 3150
Wire Wire Line
	10400 3250 10900 3250
Wire Wire Line
	9700 3500 9700 3650
Wire Wire Line
	9800 3500 9800 3650
Wire Wire Line
	9900 3650 9900 3500
Wire Wire Line
	10000 3500 10000 3650
Wire Wire Line
	10100 3500 10100 3650
Wire Wire Line
	7600 2050 7650 2050
Wire Wire Line
	7600 2150 7650 2150
Wire Wire Line
	7600 2250 7650 2250
Wire Wire Line
	7600 2350 7650 2350
Wire Wire Line
	7600 2450 7650 2450
Wire Wire Line
	7600 2550 7650 2550
Wire Wire Line
	7600 2650 7650 2650
Wire Wire Line
	7600 2750 7650 2750
Wire Wire Line
	12500 3800 12600 3800
Wire Wire Line
	12500 4750 12600 4750
Wire Wire Line
	13100 3800 13300 3800
Wire Wire Line
	13300 3800 13300 4750
Wire Wire Line
	13300 4750 13100 4750
Wire Wire Line
	13800 3800 14000 3800
Wire Wire Line
	13800 4750 14000 4750
Wire Wire Line
	13950 5300 13950 5250
Wire Wire Line
	13950 4350 13950 4300
Wire Wire Line
	12550 4350 12550 4300
Wire Wire Line
	12550 5250 12550 5300
Wire Wire Line
	9100 1800 9100 1750
Wire Wire Line
	9100 1750 9200 1750
Wire Wire Line
	9200 1650 9200 1950
Connection ~ 9200 1950
Wire Wire Line
	13250 4300 13400 4300
Connection ~ 13300 4300
Connection ~ 13950 4750
Connection ~ 13950 3800
Connection ~ 12550 3800
Connection ~ 12550 4750
Wire Wire Line
	10650 2050 10650 1750
Wire Wire Line
	10650 1750 10800 1750
Wire Wire Line
	10800 1750 10800 1800
Connection ~ 10650 2050
Wire Wire Line
	10450 1600 10450 2150
Connection ~ 10450 2150
Wire Wire Line
	10850 2750 10850 2700
Wire Wire Line
	10850 2700 11450 2700
Wire Wire Line
	11450 2700 11450 2750
Wire Wire Line
	11450 2750 11500 2750
Connection ~ 10850 2750
Wire Wire Line
	11500 2650 11450 2650
Wire Wire Line
	11450 2650 11450 2600
Wire Wire Line
	11450 2600 10850 2600
Wire Wire Line
	10850 2600 10850 2650
Connection ~ 10850 2650
Wire Wire Line
	9700 1650 9200 1650
Connection ~ 9200 1750
Wire Wire Line
	10100 1650 10550 1650
Wire Wire Line
	10550 1650 10550 1950
Connection ~ 10550 1950
Wire Wire Line
	10850 3950 10900 3950
Connection ~ 10900 3950
Wire Wire Line
	10850 3850 10900 3850
Wire Wire Line
	10850 3700 10950 3700
Connection ~ 10900 3700
Wire Wire Line
	10900 1750 10850 1750
Wire Wire Line
	10850 1750 10850 1950
Connection ~ 10850 1950
Wire Wire Line
	5900 2450 5900 2550
Wire Wire Line
	6350 2050 6400 2050
Connection ~ 5900 2050
Wire Wire Line
	5700 2550 5700 2600
Wire Wire Line
	5900 2550 5700 2550
Wire Wire Line
	5650 2050 5950 2050
Connection ~ 5700 2050
Wire Wire Line
	6950 2050 6900 2050
Wire Wire Line
	5900 3350 5900 3450
Wire Wire Line
	6350 2950 6400 2950
Wire Wire Line
	6350 2900 6350 2950
Connection ~ 5900 2950
Wire Wire Line
	5700 3450 5700 3500
Wire Wire Line
	5900 3450 5700 3450
Wire Wire Line
	5650 2950 5950 2950
Connection ~ 5700 2950
Wire Wire Line
	6950 2950 6900 2950
Wire Wire Line
	5900 4250 5900 4350
Wire Wire Line
	6350 3850 6400 3850
Wire Wire Line
	6350 3800 6350 3850
Connection ~ 5900 3850
Wire Wire Line
	5700 4350 5700 4400
Wire Wire Line
	5900 4350 5700 4350
Wire Wire Line
	5650 3850 5950 3850
Connection ~ 5700 3850
Wire Wire Line
	6950 3850 6900 3850
Wire Wire Line
	5900 5150 5900 5250
Wire Wire Line
	6350 4750 6400 4750
Wire Wire Line
	6350 4700 6350 4750
Connection ~ 5900 4750
Wire Wire Line
	5700 5250 5700 5300
Wire Wire Line
	5900 5250 5700 5250
Wire Wire Line
	5650 4750 5950 4750
Connection ~ 5700 4750
Wire Wire Line
	6950 4750 6900 4750
Wire Wire Line
	5900 6050 5900 6150
Wire Wire Line
	6350 5650 6400 5650
Wire Wire Line
	6350 5600 6350 5650
Connection ~ 5900 5650
Wire Wire Line
	5700 6150 5700 6200
Wire Wire Line
	5900 6150 5700 6150
Wire Wire Line
	5650 5650 5950 5650
Connection ~ 5700 5650
Wire Wire Line
	6950 5650 6900 5650
Wire Wire Line
	5900 6950 5900 7050
Wire Wire Line
	6350 6550 6400 6550
Wire Wire Line
	6350 6500 6350 6550
Connection ~ 5900 6550
Wire Wire Line
	5700 7050 5700 7100
Wire Wire Line
	5900 7050 5700 7050
Wire Wire Line
	5650 6550 5950 6550
Connection ~ 5700 6550
Wire Wire Line
	6950 6550 6900 6550
Wire Wire Line
	5900 7850 5900 7950
Wire Wire Line
	6350 7450 6400 7450
Wire Wire Line
	6350 7400 6350 7450
Connection ~ 5900 7450
Wire Wire Line
	5700 7950 5700 8000
Wire Wire Line
	5900 7950 5700 7950
Wire Wire Line
	5650 7450 5950 7450
Connection ~ 5700 7450
Wire Wire Line
	6950 7450 6900 7450
Wire Wire Line
	5900 8750 5900 8850
Wire Wire Line
	6350 8350 6400 8350
Wire Wire Line
	6350 8300 6350 8350
Connection ~ 5900 8350
Wire Wire Line
	5700 8850 5700 8900
Wire Wire Line
	5900 8850 5700 8850
Wire Wire Line
	5650 8350 5950 8350
Connection ~ 5700 8350
Wire Wire Line
	6950 8350 6900 8350
Wire Wire Line
	9100 2100 9050 2100
Wire Wire Line
	9050 2100 9050 2050
Connection ~ 9050 2050
Wire Wire Line
	9100 2200 9050 2200
Wire Wire Line
	9050 2200 9050 2150
Connection ~ 9050 2150
Wire Wire Line
	9100 2300 9050 2300
Wire Wire Line
	9050 2300 9050 2250
Connection ~ 9050 2250
Connection ~ 9050 2350
Connection ~ 9050 2450
Connection ~ 9050 2550
Connection ~ 9050 2650
Connection ~ 9050 2750
Wire Wire Line
	9050 2350 9050 2400
Wire Wire Line
	9050 2400 9100 2400
Wire Wire Line
	9050 2500 9100 2500
Wire Wire Line
	9050 2600 9100 2600
Wire Wire Line
	9050 2700 9100 2700
Wire Wire Line
	9050 2800 9100 2800
Wire Wire Line
	9050 2500 9050 2450
Wire Wire Line
	9050 2600 9050 2550
Wire Wire Line
	9050 2700 9050 2650
Wire Wire Line
	9050 2800 9050 2750
Wire Wire Line
	10600 2900 10550 2900
Wire Wire Line
	10600 3000 10550 3000
Wire Wire Line
	10600 3100 10550 3100
Wire Wire Line
	10600 3200 10550 3200
Connection ~ 10550 2850
Connection ~ 10550 2950
Connection ~ 10550 3050
Connection ~ 10550 3150
Wire Wire Line
	10550 2900 10550 2850
Wire Wire Line
	10550 3000 10550 2950
Wire Wire Line
	10550 3100 10550 3050
Wire Wire Line
	10550 3200 10550 3150
Wire Wire Line
	10600 2500 10550 2500
Wire Wire Line
	10550 2500 10550 2450
Connection ~ 10550 2450
Wire Wire Line
	10600 2400 10550 2400
Wire Wire Line
	10550 2400 10550 2350
Connection ~ 10550 2350
Wire Wire Line
	10600 2600 10550 2600
Wire Wire Line
	10550 2600 10550 2550
Connection ~ 10550 2550
Wire Wire Line
	10550 2250 10550 2300
Wire Wire Line
	10550 2300 10600 2300
Connection ~ 10550 2250
Wire Wire Line
	4650 2050 4700 2050
Wire Wire Line
	4650 2150 4700 2150
Wire Wire Line
	4650 2250 4700 2250
Wire Wire Line
	4650 2350 4700 2350
Wire Wire Line
	4650 2450 4700 2450
Wire Wire Line
	4650 2550 4700 2550
Wire Wire Line
	4650 2650 4700 2650
Wire Wire Line
	4650 2750 4700 2750
Wire Wire Line
	10300 4550 10350 4550
Wire Wire Line
	10300 4650 10350 4650
Wire Wire Line
	10300 4750 10350 4750
Wire Wire Line
	10300 4850 10350 4850
Wire Wire Line
	10300 4950 10350 4950
Wire Wire Line
	10300 5050 10350 5050
Wire Wire Line
	10300 5150 10350 5150
Wire Wire Line
	9450 4550 9500 4550
Wire Wire Line
	9450 4650 9500 4650
Wire Wire Line
	9450 4750 9500 4750
Wire Wire Line
	9450 4850 9500 4850
Wire Wire Line
	9450 4950 9500 4950
Wire Wire Line
	9450 5050 9500 5050
Wire Wire Line
	9450 5150 9500 5150
Wire Wire Line
	9050 3250 9050 3300
Wire Wire Line
	9050 3300 9100 3300
Connection ~ 9050 3250
Wire Wire Line
	13950 4700 13950 4750
Wire Wire Line
	12550 4700 12550 4750
Wire Wire Line
	12550 3750 12550 3800
Wire Wire Line
	13950 3750 13950 3800
Wire Wire Line
	9450 4350 9450 4550
Wire Wire Line
	9450 4250 9550 4250
Wire Wire Line
	9550 4250 9550 4600
Wire Wire Line
	9550 4600 9500 4600
Wire Wire Line
	9500 4600 9500 4650
Wire Wire Line
	10350 4550 10350 4450
Wire Wire Line
	10350 4450 10300 4450
Wire Wire Line
	10300 4450 10300 4350
Wire Wire Line
	10300 4350 10350 4350
Wire Wire Line
	10350 4250 10250 4250
Wire Wire Line
	10250 4250 10250 4600
Wire Wire Line
	10250 4600 10300 4600
Wire Wire Line
	10300 4600 10300 4650
Wire Wire Line
	9750 1400 9750 2250
Wire Wire Line
	9750 2250 10100 2250
Wire Wire Line
	10100 2350 9700 2350
Wire Wire Line
	9700 2350 9700 1300
Wire Wire Line
	9700 1300 9750 1300
Wire Wire Line
	10100 2450 9650 2450
Wire Wire Line
	9650 2450 9650 1200
Wire Wire Line
	9650 1200 9750 1200
Wire Wire Line
	9850 2550 9900 2550
Wire Wire Line
	9850 2650 9900 2650
Wire Wire Line
	9850 2750 9900 2750
Wire Wire Line
	9850 2850 9900 2850
Wire Wire Line
	9850 2950 9900 2950
Wire Wire Line
	9850 3050 9900 3050
Wire Wire Line
	9850 3150 9900 3150
Wire Wire Line
	10100 2550 10050 2550
Wire Wire Line
	10100 2650 10050 2650
Wire Wire Line
	10100 2750 10050 2750
Wire Wire Line
	10100 2850 10050 2850
Wire Wire Line
	10100 2950 10050 2950
Wire Wire Line
	10100 3050 10050 3050
Wire Wire Line
	10100 3150 10050 3150
Wire Wire Line
	6350 2000 6350 2050
Wire Wire Line
	10900 3850 10900 4000
Wire Wire Line
	10900 3600 10900 3700
Wire Wire Line
	10900 3600 10850 3600
Wire Wire Line
	13600 1600 13850 1600
Wire Wire Line
	13750 2100 13850 2100
Wire Wire Line
	13600 2100 13550 2100
Connection ~ 13750 1600
NoConn ~ 12800 1875
NoConn ~ 12300 1875
$EndSCHEMATC
