(kicad_pcb (version 4) (host pcbnew 4.0.7-e2-6376~58~ubuntu14.04.1)

  (general
    (links 18)
    (no_connects 0)
    (area 123.45919 84.125999 153.729 103.569001)
    (thickness 1.6)
    (drawings 5)
    (tracks 86)
    (zones 0)
    (modules 4)
    (nets 9)
  )

  (page A4)
  (layers
    (0 F.Cu signal)
    (31 B.Cu signal)
    (32 B.Adhes user)
    (33 F.Adhes user)
    (34 B.Paste user)
    (35 F.Paste user)
    (36 B.SilkS user)
    (37 F.SilkS user)
    (38 B.Mask user hide)
    (39 F.Mask user)
    (40 Dwgs.User user hide)
    (41 Cmts.User user hide)
    (42 Eco1.User user hide)
    (43 Eco2.User user hide)
    (44 Edge.Cuts user)
    (45 Margin user hide)
    (46 B.CrtYd user hide)
    (47 F.CrtYd user)
    (48 B.Fab user hide)
    (49 F.Fab user hide)
  )

  (setup
    (last_trace_width 0.25)
    (trace_clearance 0.2)
    (zone_clearance 0.2)
    (zone_45_only no)
    (trace_min 0.2)
    (segment_width 0.2)
    (edge_width 0.15)
    (via_size 0.6)
    (via_drill 0.4)
    (via_min_size 0.4)
    (via_min_drill 0.3)
    (uvia_size 0.3)
    (uvia_drill 0.1)
    (uvias_allowed no)
    (uvia_min_size 0)
    (uvia_min_drill 0)
    (pcb_text_width 0.3)
    (pcb_text_size 1.5 1.5)
    (mod_edge_width 0.15)
    (mod_text_size 1 1)
    (mod_text_width 0.15)
    (pad_size 1.524 1.524)
    (pad_drill 0.762)
    (pad_to_mask_clearance 0.2)
    (aux_axis_origin 0 0)
    (visible_elements 7FFFFFFF)
    (pcbplotparams
      (layerselection 0x010f0_80000001)
      (usegerberextensions false)
      (excludeedgelayer true)
      (linewidth 0.100000)
      (plotframeref false)
      (viasonmask false)
      (mode 1)
      (useauxorigin false)
      (hpglpennumber 1)
      (hpglpenspeed 20)
      (hpglpendiameter 15)
      (hpglpenoverlay 2)
      (psnegative false)
      (psa4output false)
      (plotreference true)
      (plotvalue true)
      (plotinvisibletext false)
      (padsonsilk false)
      (subtractmaskfromsilk false)
      (outputformat 1)
      (mirror false)
      (drillshape 0)
      (scaleselection 1)
      (outputdirectory gerbers/))
  )

  (net 0 "")
  (net 1 "Net-(C1-Pad1)")
  (net 2 GND)
  (net 3 "Net-(IC1-Pad25)")
  (net 4 "Net-(IC1-Pad10)")
  (net 5 "Net-(IC1-Pad15)")
  (net 6 "Net-(IC1-Pad16)")
  (net 7 "Net-(IC1-Pad17)")
  (net 8 "Net-(IC1-Pad18)")

  (net_class Default "This is the default net class."
    (clearance 0.2)
    (trace_width 0.25)
    (via_dia 0.6)
    (via_drill 0.4)
    (uvia_dia 0.3)
    (uvia_drill 0.1)
    (add_net GND)
    (add_net "Net-(C1-Pad1)")
    (add_net "Net-(IC1-Pad10)")
    (add_net "Net-(IC1-Pad15)")
    (add_net "Net-(IC1-Pad16)")
    (add_net "Net-(IC1-Pad17)")
    (add_net "Net-(IC1-Pad18)")
    (add_net "Net-(IC1-Pad25)")
  )

  (module Capacitors_SMD:C_0805_HandSoldering (layer F.Cu) (tedit 59B05B9C) (tstamp 564E1A25)
    (at 129.794 92.075 270)
    (descr "Capacitor SMD 0805, hand soldering")
    (tags "capacitor 0805")
    (path /56269A96)
    (attr smd)
    (fp_text reference C1 (at 3.429 0.127 360) (layer F.SilkS)
      (effects (font (size 1 1) (thickness 0.15)))
    )
    (fp_text value "10 uF" (at 0 2.1 270) (layer F.Fab)
      (effects (font (size 1 1) (thickness 0.15)))
    )
    (fp_line (start -2.3 -1) (end 2.3 -1) (layer F.CrtYd) (width 0.05))
    (fp_line (start -2.3 1) (end 2.3 1) (layer F.CrtYd) (width 0.05))
    (fp_line (start -2.3 -1) (end -2.3 1) (layer F.CrtYd) (width 0.05))
    (fp_line (start 2.3 -1) (end 2.3 1) (layer F.CrtYd) (width 0.05))
    (fp_line (start 0.5 -0.85) (end -0.5 -0.85) (layer F.SilkS) (width 0.15))
    (fp_line (start -0.5 0.85) (end 0.5 0.85) (layer F.SilkS) (width 0.15))
    (pad 1 smd rect (at -1.25 0 270) (size 1.5 1.25) (layers F.Cu F.Paste F.Mask)
      (net 1 "Net-(C1-Pad1)"))
    (pad 2 smd rect (at 1.25 0 270) (size 1.5 1.25) (layers F.Cu F.Paste F.Mask)
      (net 2 GND))
    (model Capacitors_SMD.3dshapes/C_0805_HandSoldering.wrl
      (at (xyz 0 0 0))
      (scale (xyz 1 1 1))
      (rotate (xyz 0 0 0))
    )
  )

  (module photosynq:header_2x5_.050 (layer F.Cu) (tedit 59B064E6) (tstamp 564E1A34)
    (at 144.653 90.932 90)
    (path /562679E0)
    (fp_text reference P1 (at 4.572 2.794 360) (layer F.SilkS)
      (effects (font (size 1 1) (thickness 0.15)))
    )
    (fp_text value CONN_02X05 (at 0.381 8.001 90) (layer F.Fab) hide
      (effects (font (size 1 1) (thickness 0.15)))
    )
    (fp_text user 1 (at -3.81 3.81 90) (layer F.SilkS)
      (effects (font (size 1 1) (thickness 0.15)))
    )
    (pad 1 thru_hole circle (at -2.54 3.81 90) (size 1 1) (drill 0.7) (layers *.Cu *.Mask F.SilkS)
      (net 1 "Net-(C1-Pad1)"))
    (pad 2 thru_hole circle (at -2.54 2.54 90) (size 1 1) (drill 0.7) (layers *.Cu *.Mask F.SilkS)
      (net 5 "Net-(IC1-Pad15)"))
    (pad 3 thru_hole circle (at -1.27 3.81 90) (size 1 1) (drill 0.7) (layers *.Cu *.Mask F.SilkS)
      (net 2 GND))
    (pad 4 thru_hole circle (at -1.27 2.54 90) (size 1 1) (drill 0.7) (layers *.Cu *.Mask F.SilkS)
      (net 6 "Net-(IC1-Pad16)"))
    (pad 5 thru_hole circle (at 0 3.81 90) (size 1 1) (drill 0.7) (layers *.Cu *.Mask F.SilkS)
      (net 2 GND))
    (pad 6 thru_hole circle (at 0 2.54 90) (size 1 1) (drill 0.7) (layers *.Cu *.Mask F.SilkS)
      (net 7 "Net-(IC1-Pad17)"))
    (pad 7 thru_hole circle (at 1.27 3.81 90) (size 1 1) (drill 0.7) (layers *.Cu *.Mask F.SilkS))
    (pad 8 thru_hole circle (at 1.27 2.54 90) (size 1 1) (drill 0.7) (layers *.Cu *.Mask F.SilkS)
      (net 4 "Net-(IC1-Pad10)"))
    (pad 9 thru_hole circle (at 2.54 3.81 90) (size 1 1) (drill 0.7) (layers *.Cu *.Mask F.SilkS)
      (net 2 GND))
    (pad 10 thru_hole circle (at 2.54 2.54 90) (size 1 1) (drill 0.7) (layers *.Cu *.Mask F.SilkS)
      (net 3 "Net-(IC1-Pad25)"))
  )

  (module Housings_QFP:TQFP-32_7x7mm_Pitch0.8mm (layer F.Cu) (tedit 59B05C12) (tstamp 564E3A38)
    (at 136.779 91.313)
    (descr "32-Lead Plastic Thin Quad Flatpack (PT) - 7x7x1.0 mm Body, 2.00 mm [TQFP] (see Microchip Packaging Specification 00000049BS.pdf)")
    (tags "QFP 0.8")
    (path /56268BFB)
    (attr smd)
    (fp_text reference IC1 (at -1.651 -2.286) (layer F.SilkS)
      (effects (font (size 1 1) (thickness 0.15)))
    )
    (fp_text value MKL04Z32_TQFP32 (at -6.096 6.35) (layer F.Fab) hide
      (effects (font (size 1 1) (thickness 0.15)))
    )
    (fp_line (start -5.3 -5.3) (end -5.3 5.3) (layer F.CrtYd) (width 0.05))
    (fp_line (start 5.3 -5.3) (end 5.3 5.3) (layer F.CrtYd) (width 0.05))
    (fp_line (start -5.3 -5.3) (end 5.3 -5.3) (layer F.CrtYd) (width 0.05))
    (fp_line (start -5.3 5.3) (end 5.3 5.3) (layer F.CrtYd) (width 0.05))
    (fp_line (start -3.625 -3.625) (end -3.625 -3.3) (layer F.SilkS) (width 0.15))
    (fp_line (start 3.625 -3.625) (end 3.625 -3.3) (layer F.SilkS) (width 0.15))
    (fp_line (start 3.625 3.625) (end 3.625 3.3) (layer F.SilkS) (width 0.15))
    (fp_line (start -3.625 3.625) (end -3.625 3.3) (layer F.SilkS) (width 0.15))
    (fp_line (start -3.625 -3.625) (end -3.3 -3.625) (layer F.SilkS) (width 0.15))
    (fp_line (start -3.625 3.625) (end -3.3 3.625) (layer F.SilkS) (width 0.15))
    (fp_line (start 3.625 3.625) (end 3.3 3.625) (layer F.SilkS) (width 0.15))
    (fp_line (start 3.625 -3.625) (end 3.3 -3.625) (layer F.SilkS) (width 0.15))
    (fp_line (start -3.625 -3.3) (end -5.05 -3.3) (layer F.SilkS) (width 0.15))
    (pad 1 smd rect (at -4.25 -2.8) (size 1.6 0.55) (layers F.Cu F.Paste F.Mask))
    (pad 2 smd rect (at -4.25 -2) (size 1.6 0.55) (layers F.Cu F.Paste F.Mask))
    (pad 3 smd rect (at -4.25 -1.2) (size 1.6 0.55) (layers F.Cu F.Paste F.Mask)
      (net 1 "Net-(C1-Pad1)"))
    (pad 4 smd rect (at -4.25 -0.4) (size 1.6 0.55) (layers F.Cu F.Paste F.Mask)
      (net 1 "Net-(C1-Pad1)"))
    (pad 5 smd rect (at -4.25 0.4) (size 1.6 0.55) (layers F.Cu F.Paste F.Mask)
      (net 2 GND))
    (pad 6 smd rect (at -4.25 1.2) (size 1.6 0.55) (layers F.Cu F.Paste F.Mask)
      (net 2 GND))
    (pad 7 smd rect (at -4.25 2) (size 1.6 0.55) (layers F.Cu F.Paste F.Mask))
    (pad 8 smd rect (at -4.25 2.8) (size 1.6 0.55) (layers F.Cu F.Paste F.Mask)
      (net 3 "Net-(IC1-Pad25)"))
    (pad 9 smd rect (at -2.8 4.25 90) (size 1.6 0.55) (layers F.Cu F.Paste F.Mask))
    (pad 10 smd rect (at -2 4.25 90) (size 1.6 0.55) (layers F.Cu F.Paste F.Mask)
      (net 4 "Net-(IC1-Pad10)"))
    (pad 11 smd rect (at -1.2 4.25 90) (size 1.6 0.55) (layers F.Cu F.Paste F.Mask))
    (pad 12 smd rect (at -0.4 4.25 90) (size 1.6 0.55) (layers F.Cu F.Paste F.Mask))
    (pad 13 smd rect (at 0.4 4.25 90) (size 1.6 0.55) (layers F.Cu F.Paste F.Mask))
    (pad 14 smd rect (at 1.2 4.25 90) (size 1.6 0.55) (layers F.Cu F.Paste F.Mask))
    (pad 15 smd rect (at 2 4.25 90) (size 1.6 0.55) (layers F.Cu F.Paste F.Mask)
      (net 5 "Net-(IC1-Pad15)"))
    (pad 16 smd rect (at 2.8 4.25 90) (size 1.6 0.55) (layers F.Cu F.Paste F.Mask)
      (net 6 "Net-(IC1-Pad16)"))
    (pad 17 smd rect (at 4.25 2.8) (size 1.6 0.55) (layers F.Cu F.Paste F.Mask)
      (net 7 "Net-(IC1-Pad17)"))
    (pad 18 smd rect (at 4.25 2) (size 1.6 0.55) (layers F.Cu F.Paste F.Mask)
      (net 8 "Net-(IC1-Pad18)"))
    (pad 19 smd rect (at 4.25 1.2) (size 1.6 0.55) (layers F.Cu F.Paste F.Mask))
    (pad 20 smd rect (at 4.25 0.4) (size 1.6 0.55) (layers F.Cu F.Paste F.Mask))
    (pad 21 smd rect (at 4.25 -0.4) (size 1.6 0.55) (layers F.Cu F.Paste F.Mask))
    (pad 22 smd rect (at 4.25 -1.2) (size 1.6 0.55) (layers F.Cu F.Paste F.Mask))
    (pad 23 smd rect (at 4.25 -2) (size 1.6 0.55) (layers F.Cu F.Paste F.Mask))
    (pad 24 smd rect (at 4.25 -2.8) (size 1.6 0.55) (layers F.Cu F.Paste F.Mask))
    (pad 25 smd rect (at 2.8 -4.25 90) (size 1.6 0.55) (layers F.Cu F.Paste F.Mask)
      (net 3 "Net-(IC1-Pad25)"))
    (pad 26 smd rect (at 2 -4.25 90) (size 1.6 0.55) (layers F.Cu F.Paste F.Mask))
    (pad 27 smd rect (at 1.2 -4.25 90) (size 1.6 0.55) (layers F.Cu F.Paste F.Mask))
    (pad 28 smd rect (at 0.4 -4.25 90) (size 1.6 0.55) (layers F.Cu F.Paste F.Mask))
    (pad 29 smd rect (at -0.4 -4.25 90) (size 1.6 0.55) (layers F.Cu F.Paste F.Mask))
    (pad 30 smd rect (at -1.2 -4.25 90) (size 1.6 0.55) (layers F.Cu F.Paste F.Mask))
    (pad 31 smd rect (at -2 -4.25 90) (size 1.6 0.55) (layers F.Cu F.Paste F.Mask))
    (pad 32 smd rect (at -2.8 -4.25 90) (size 1.6 0.55) (layers F.Cu F.Paste F.Mask))
    (model Housings_QFP.3dshapes/TQFP-32_7x7mm_Pitch0.8mm.wrl
      (at (xyz 0 0 0))
      (scale (xyz 1 1 1))
      (rotate (xyz 0 0 0))
    )
  )

  (module multispeq:SW_PB_RA (layer F.Cu) (tedit 565DEEEA) (tstamp 59B06017)
    (at 141.478 101.219)
    (descr http://industrial.panasonic.com/www-cgi/jvcr13pz.cgi?E+PZ+2+ATK0020+0+4+WW)
    (tags "Pshbutton, switch, right angle")
    (path /562698DD)
    (fp_text reference SW1 (at -1.931 -1.635) (layer F.SilkS)
      (effects (font (size 0.5 0.5) (thickness 0.125)))
    )
    (fp_text value SW_PUSH (at 1.625 -1.635) (layer F.SilkS)
      (effects (font (size 0.5 0.5) (thickness 0.125)))
    )
    (fp_line (start -0.3 1.65) (end 0.35 1.65) (layer F.SilkS) (width 0.1))
    (fp_line (start -0.3 1.65) (end -0.3 1.85) (layer F.SilkS) (width 0.1))
    (fp_line (start -0.3 1.85) (end 0.35 1.85) (layer F.SilkS) (width 0.1))
    (fp_line (start 0.35 1.85) (end 0.35 1.65) (layer F.SilkS) (width 0.1))
    (fp_line (start -0.85 1.45) (end -0.85 2.1) (layer F.SilkS) (width 0.1))
    (fp_line (start -0.85 2.1) (end 0.85 2.1) (layer F.SilkS) (width 0.1))
    (fp_line (start 0.85 2.1) (end 0.85 1.45) (layer F.SilkS) (width 0.1))
    (fp_line (start -1.95 -1.45) (end 1.95 -1.45) (layer F.SilkS) (width 0.1))
    (fp_line (start 1.95 -1.45) (end 1.95 1.45) (layer F.SilkS) (width 0.1))
    (fp_line (start 1.95 1.45) (end -1.95 1.45) (layer F.SilkS) (width 0.1))
    (fp_line (start -1.95 1.45) (end -1.95 -1.45) (layer F.SilkS) (width 0.1))
    (pad 1 smd rect (at -1.8 -0.725) (size 1.4 1.05) (layers F.Cu F.Paste F.Mask)
      (net 8 "Net-(IC1-Pad18)"))
    (pad 2 smd rect (at -1.8 0.725) (size 1.4 1.05) (layers F.Cu F.Paste F.Mask)
      (net 2 GND))
    (pad 1 smd rect (at 1.8 -0.725) (size 1.4 1.05) (layers F.Cu F.Paste F.Mask)
      (net 8 "Net-(IC1-Pad18)"))
    (pad 2 smd rect (at 1.8 0.725) (size 1.4 1.05) (layers F.Cu F.Paste F.Mask)
      (net 2 GND))
    (pad "" np_thru_hole circle (at 0 -0.8) (size 0.71 0.71) (drill 0.7) (layers *.Cu *.Mask F.SilkS))
    (pad "" np_thru_hole circle (at 0 0.8) (size 0.71 0.71) (drill 0.7) (layers *.Cu *.Mask F.SilkS))
  )

  (gr_text 1 (at 148.463 94.996 90) (layer B.SilkS)
    (effects (font (size 1 1) (thickness 0.15)) (justify mirror))
  )
  (gr_line (start 127.635 102.997) (end 127.635 84.201) (angle 90) (layer Edge.Cuts) (width 0.15))
  (gr_line (start 151.638 102.997) (end 127.635 102.997) (angle 90) (layer Edge.Cuts) (width 0.15))
  (gr_line (start 151.638 84.201) (end 151.638 102.997) (angle 90) (layer Edge.Cuts) (width 0.15))
  (gr_line (start 127.635 84.201) (end 151.638 84.201) (angle 90) (layer Edge.Cuts) (width 0.15))

  (segment (start 131.699 85.344) (end 148.59 85.344) (width 0.25) (layer F.Cu) (net 1))
  (segment (start 131.064 85.979) (end 131.699 85.344) (width 0.25) (layer F.Cu) (net 1) (tstamp 564E3B9E))
  (segment (start 131.134 90.113) (end 131.064 90.043) (width 0.25) (layer F.Cu) (net 1) (tstamp 564E3B97))
  (segment (start 131.064 90.043) (end 131.064 85.979) (width 0.25) (layer F.Cu) (net 1) (tstamp 564E3B98))
  (segment (start 132.529 90.113) (end 131.134 90.113) (width 0.25) (layer F.Cu) (net 1) (status 10))
  (segment (start 149.606 93.472) (end 148.463 93.472) (width 0.25) (layer F.Cu) (net 1) (tstamp 564E3F3D) (status 20))
  (segment (start 150.622 92.456) (end 149.606 93.472) (width 0.25) (layer F.Cu) (net 1) (tstamp 564E3F3A))
  (segment (start 150.622 87.376) (end 150.622 92.456) (width 0.25) (layer F.Cu) (net 1) (tstamp 564E3F37))
  (segment (start 148.59 85.344) (end 150.622 87.376) (width 0.25) (layer F.Cu) (net 1) (tstamp 564E3F31))
  (segment (start 132.529 90.113) (end 134.436 90.113) (width 0.25) (layer F.Cu) (net 1) (status 10))
  (segment (start 134.131 90.913) (end 132.529 90.913) (width 0.25) (layer F.Cu) (net 1) (tstamp 564E3C0A) (status 20))
  (segment (start 134.62 90.424) (end 134.131 90.913) (width 0.25) (layer F.Cu) (net 1) (tstamp 564E3C02))
  (segment (start 134.747 90.424) (end 134.62 90.424) (width 0.25) (layer F.Cu) (net 1) (tstamp 564E3BFE))
  (segment (start 134.436 90.113) (end 134.747 90.424) (width 0.25) (layer F.Cu) (net 1) (tstamp 564E3BF5))
  (segment (start 129.794 90.825) (end 132.441 90.825) (width 0.25) (layer F.Cu) (net 1) (status 30))
  (segment (start 132.441 90.825) (end 132.529 90.913) (width 0.25) (layer F.Cu) (net 1) (tstamp 564E3AE6) (status 30))
  (segment (start 139.7288 101.8424) (end 140.499 101.8424) (width 0.25) (layer F.Cu) (net 2) (status 10))
  (segment (start 142.0368 101.219) (end 142.6602 101.8424) (width 0.25) (layer F.Cu) (net 2) (tstamp 5666BE51) (status 20))
  (segment (start 141.1224 101.219) (end 142.0368 101.219) (width 0.25) (layer F.Cu) (net 2) (tstamp 5666BE50))
  (segment (start 140.499 101.8424) (end 141.1224 101.219) (width 0.25) (layer F.Cu) (net 2) (tstamp 5666BE4F))
  (segment (start 142.6602 101.8424) (end 143.3288 101.8424) (width 0.25) (layer F.Cu) (net 2) (tstamp 5666BE52) (status 30))
  (segment (start 143.3288 101.8424) (end 144.95135 101.8424) (width 0.25) (layer F.Cu) (net 2) (status 10))
  (segment (start 144.95135 101.8424) (end 146.20743 100.58632) (width 0.25) (layer F.Cu) (net 2) (tstamp 5666BE4B) (status 20))
  (segment (start 146.20743 100.58632) (end 146.20743 98.52157) (width 0.25) (layer F.Cu) (net 2) (status 10))
  (segment (start 149.733 93.472) (end 148.463 92.202) (width 0.25) (layer B.Cu) (net 2) (tstamp 564E408B) (status 20))
  (segment (start 149.733 93.98) (end 149.733 93.472) (width 0.25) (layer B.Cu) (net 2) (tstamp 564E4087))
  (segment (start 150.241 94.488) (end 149.733 93.98) (width 0.25) (layer B.Cu) (net 2) (tstamp 564E4086))
  (via (at 150.241 94.488) (size 0.6) (drill 0.4) (layers F.Cu B.Cu) (net 2))
  (segment (start 146.20743 98.52157) (end 150.241 94.488) (width 0.25) (layer F.Cu) (net 2) (tstamp 564E4078))
  (segment (start 148.463 88.392) (end 148.971 88.392) (width 0.25) (layer F.Cu) (net 2) (status 10))
  (segment (start 149.352 90.932) (end 148.463 90.932) (width 0.25) (layer F.Cu) (net 2) (tstamp 564E404F) (status 20))
  (segment (start 149.606 90.678) (end 149.352 90.932) (width 0.25) (layer F.Cu) (net 2) (tstamp 564E404D))
  (segment (start 149.606 89.027) (end 149.606 90.678) (width 0.25) (layer F.Cu) (net 2) (tstamp 564E4049))
  (segment (start 148.971 88.392) (end 149.606 89.027) (width 0.25) (layer F.Cu) (net 2) (tstamp 564E4046))
  (segment (start 148.463 90.932) (end 148.463 92.202) (width 0.25) (layer F.Cu) (net 2) (tstamp 564E4051) (status 30))
  (segment (start 132.529 91.713) (end 134.131 91.713) (width 0.25) (layer F.Cu) (net 2) (status 10))
  (segment (start 148.463 87.63) (end 148.463 88.392) (width 0.25) (layer B.Cu) (net 2) (tstamp 564E4007) (status 20))
  (segment (start 148.082 87.249) (end 148.463 87.63) (width 0.25) (layer B.Cu) (net 2) (tstamp 564E4004))
  (segment (start 139.065 87.249) (end 148.082 87.249) (width 0.25) (layer B.Cu) (net 2) (tstamp 564E3FFD))
  (segment (start 134.366 91.948) (end 139.065 87.249) (width 0.25) (layer B.Cu) (net 2) (tstamp 564E3FFC))
  (via (at 134.366 91.948) (size 0.6) (drill 0.4) (layers F.Cu B.Cu) (net 2))
  (segment (start 134.131 91.713) (end 134.366 91.948) (width 0.25) (layer F.Cu) (net 2) (tstamp 564E3FEC))
  (segment (start 132.529 91.713) (end 133.877 91.713) (width 0.25) (layer F.Cu) (net 2) (status 10))
  (segment (start 133.547 92.513) (end 132.529 92.513) (width 0.25) (layer F.Cu) (net 2) (tstamp 564E3C23) (status 20))
  (segment (start 133.985 92.075) (end 133.547 92.513) (width 0.25) (layer F.Cu) (net 2) (tstamp 564E3C20))
  (segment (start 134.239 92.075) (end 133.985 92.075) (width 0.25) (layer F.Cu) (net 2) (tstamp 564E3C1C))
  (segment (start 133.877 91.713) (end 134.239 92.075) (width 0.25) (layer F.Cu) (net 2) (tstamp 564E3C17))
  (segment (start 129.794 93.325) (end 130.576 93.325) (width 0.25) (layer F.Cu) (net 2) (status 10))
  (segment (start 131.388 92.513) (end 132.529 92.513) (width 0.25) (layer F.Cu) (net 2) (tstamp 564E3AEF) (status 20))
  (segment (start 130.576 93.325) (end 131.388 92.513) (width 0.25) (layer F.Cu) (net 2) (tstamp 564E3AED))
  (segment (start 139.579 87.063) (end 145.864 87.063) (width 0.25) (layer F.Cu) (net 3) (status 10))
  (segment (start 145.864 87.063) (end 147.193 88.392) (width 0.25) (layer F.Cu) (net 3) (tstamp 564E3FD6) (status 20))
  (segment (start 132.529 94.113) (end 133.979 94.113) (width 0.25) (layer F.Cu) (net 3) (status 10))
  (segment (start 139.579 88.513) (end 139.579 87.063) (width 0.25) (layer F.Cu) (net 3) (tstamp 564E3F60) (status 20))
  (segment (start 133.979 94.113) (end 139.579 88.513) (width 0.25) (layer F.Cu) (net 3) (tstamp 564E3F57))
  (segment (start 134.779 95.563) (end 134.779 94.266) (width 0.25) (layer F.Cu) (net 4) (status 10))
  (segment (start 139.319 89.662) (end 147.193 89.662) (width 0.25) (layer B.Cu) (net 4) (tstamp 564E3FA1) (status 20))
  (segment (start 134.747 94.234) (end 139.319 89.662) (width 0.25) (layer B.Cu) (net 4) (tstamp 564E3FA0))
  (via (at 134.747 94.234) (size 0.6) (drill 0.4) (layers F.Cu B.Cu) (net 4))
  (segment (start 134.779 94.266) (end 134.747 94.234) (width 0.25) (layer F.Cu) (net 4) (tstamp 564E3F98))
  (segment (start 138.779 95.563) (end 138.779 96.996) (width 0.25) (layer F.Cu) (net 5) (status 10))
  (segment (start 143.764 96.901) (end 147.193 93.472) (width 0.25) (layer F.Cu) (net 5) (tstamp 564E410A) (status 20))
  (segment (start 138.874 96.901) (end 143.764 96.901) (width 0.25) (layer F.Cu) (net 5) (tstamp 564E4104))
  (segment (start 138.779 96.996) (end 138.874 96.901) (width 0.25) (layer F.Cu) (net 5) (tstamp 564E4100))
  (segment (start 139.579 95.563) (end 142.816 95.563) (width 0.25) (layer F.Cu) (net 6) (status 10))
  (segment (start 146.177 92.202) (end 147.193 92.202) (width 0.25) (layer F.Cu) (net 6) (tstamp 564E40F6) (status 20))
  (segment (start 142.816 95.563) (end 146.177 92.202) (width 0.25) (layer F.Cu) (net 6) (tstamp 564E40EF))
  (segment (start 141.029 94.113) (end 142.742 94.113) (width 0.25) (layer F.Cu) (net 7) (status 10))
  (segment (start 145.796 90.932) (end 147.193 90.932) (width 0.25) (layer F.Cu) (net 7) (tstamp 564E40D2) (status 20))
  (segment (start 145.542 91.186) (end 145.796 90.932) (width 0.25) (layer F.Cu) (net 7) (tstamp 564E40CE))
  (segment (start 145.542 91.313) (end 145.542 91.186) (width 0.25) (layer F.Cu) (net 7) (tstamp 564E40C9))
  (segment (start 142.742 94.113) (end 145.542 91.313) (width 0.25) (layer F.Cu) (net 7) (tstamp 564E40C7))
  (segment (start 139.7288 100.3924) (end 139.7288 100.1996) (width 0.25) (layer F.Cu) (net 8) (status 30))
  (segment (start 139.7288 100.1996) (end 140.462 99.4664) (width 0.25) (layer F.Cu) (net 8) (tstamp 5666BE55) (status 10))
  (segment (start 140.462 99.4664) (end 142.4028 99.4664) (width 0.25) (layer F.Cu) (net 8) (tstamp 5666BE56))
  (segment (start 142.4028 99.4664) (end 143.3288 100.3924) (width 0.25) (layer F.Cu) (net 8) (tstamp 5666BE57) (status 20))
  (segment (start 137.00257 100.58168) (end 139.53952 100.58168) (width 0.25) (layer F.Cu) (net 8) (status 30))
  (segment (start 139.53952 100.58168) (end 139.7288 100.3924) (width 0.25) (layer F.Cu) (net 8) (tstamp 5666BE48) (status 30))
  (segment (start 137.00257 100.58168) (end 137.00257 99.85243) (width 0.25) (layer F.Cu) (net 8) (status 30))
  (segment (start 137.00257 99.85243) (end 137.922 98.933) (width 0.25) (layer F.Cu) (net 8) (tstamp 564E436F) (status 10))
  (via (at 137.922 98.933) (size 0.6) (drill 0.4) (layers F.Cu B.Cu) (net 8))
  (segment (start 137.922 98.933) (end 139.573 97.282) (width 0.25) (layer B.Cu) (net 8) (tstamp 564E4376))
  (segment (start 139.573 97.282) (end 139.573 93.726) (width 0.25) (layer B.Cu) (net 8) (tstamp 564E4377))
  (via (at 139.573 93.726) (size 0.6) (drill 0.4) (layers F.Cu B.Cu) (net 8))
  (segment (start 139.573 93.726) (end 139.986 93.313) (width 0.25) (layer F.Cu) (net 8) (tstamp 564E4383))
  (segment (start 139.986 93.313) (end 141.029 93.313) (width 0.25) (layer F.Cu) (net 8) (tstamp 564E4384) (status 20))

  (zone (net 2) (net_name GND) (layer F.Cu) (tstamp 564E421E) (hatch edge 0.508)
    (connect_pads (clearance 0.2))
    (min_thickness 0.254)
    (fill yes (arc_segments 16) (thermal_gap 0.508) (thermal_bridge_width 0.508))
    (polygon
      (pts
        (xy 151.638 84.328) (xy 151.638 102.87) (xy 127.635 102.997) (xy 127.635 84.201)
      )
    )
    (filled_polygon
      (pts
        (xy 151.236 102.595) (xy 144.613 102.595) (xy 144.613 102.22975) (xy 144.45425 102.071) (xy 143.405 102.071)
        (xy 143.405 102.091) (xy 143.151 102.091) (xy 143.151 102.071) (xy 143.131 102.071) (xy 143.131 101.817)
        (xy 143.151 101.817) (xy 143.151 101.797) (xy 143.405 101.797) (xy 143.405 101.817) (xy 144.45425 101.817)
        (xy 144.613 101.65825) (xy 144.613 101.29269) (xy 144.516327 101.059301) (xy 144.337698 100.880673) (xy 144.311406 100.869782)
        (xy 144.311406 99.969) (xy 144.288605 99.847821) (xy 144.216988 99.736526) (xy 144.107714 99.661862) (xy 143.978 99.635594)
        (xy 143.211218 99.635594) (xy 142.722412 99.146788) (xy 142.575773 99.048806) (xy 142.4028 99.0144) (xy 140.462 99.0144)
        (xy 140.289027 99.048806) (xy 140.142387 99.146788) (xy 139.653582 99.635594) (xy 138.978 99.635594) (xy 138.856821 99.658395)
        (xy 138.745526 99.730012) (xy 138.670862 99.839286) (xy 138.644594 99.969) (xy 138.644594 100.12968) (xy 137.45457 100.12968)
        (xy 137.45457 100.039654) (xy 137.934214 99.560011) (xy 138.046171 99.560109) (xy 138.276703 99.464855) (xy 138.453235 99.288631)
        (xy 138.548891 99.058265) (xy 138.549109 98.808829) (xy 138.453855 98.578297) (xy 138.277631 98.401765) (xy 138.047265 98.306109)
        (xy 137.797829 98.305891) (xy 137.567297 98.401145) (xy 137.390765 98.577369) (xy 137.295109 98.807735) (xy 137.29501 98.920765)
        (xy 136.682958 99.532818) (xy 136.584976 99.679457) (xy 136.55057 99.85243) (xy 136.55057 100.58168) (xy 136.584976 100.754653)
        (xy 136.682958 100.901292) (xy 136.829597 100.999274) (xy 137.00257 101.03368) (xy 138.465294 101.03368) (xy 138.439673 101.059301)
        (xy 138.343 101.29269) (xy 138.343 101.65825) (xy 138.50175 101.817) (xy 139.551 101.817) (xy 139.551 101.797)
        (xy 139.805 101.797) (xy 139.805 101.817) (xy 139.825 101.817) (xy 139.825 102.071) (xy 139.805 102.071)
        (xy 139.805 102.091) (xy 139.551 102.091) (xy 139.551 102.071) (xy 138.50175 102.071) (xy 138.343 102.22975)
        (xy 138.343 102.595) (xy 128.037 102.595) (xy 128.037 93.61075) (xy 128.534 93.61075) (xy 128.534 94.201309)
        (xy 128.630673 94.434698) (xy 128.809301 94.613327) (xy 129.04269 94.71) (xy 129.50825 94.71) (xy 129.667 94.55125)
        (xy 129.667 93.452) (xy 129.921 93.452) (xy 129.921 94.55125) (xy 130.07975 94.71) (xy 130.54531 94.71)
        (xy 130.778699 94.613327) (xy 130.957327 94.434698) (xy 131.054 94.201309) (xy 131.054 93.61075) (xy 130.89525 93.452)
        (xy 129.921 93.452) (xy 129.667 93.452) (xy 128.69275 93.452) (xy 128.534 93.61075) (xy 128.037 93.61075)
        (xy 128.037 92.448691) (xy 128.534 92.448691) (xy 128.534 93.03925) (xy 128.69275 93.198) (xy 129.667 93.198)
        (xy 129.667 92.09875) (xy 129.921 92.09875) (xy 129.921 93.198) (xy 130.89525 93.198) (xy 131.054 93.03925)
        (xy 131.054 92.448691) (xy 130.957327 92.215302) (xy 130.778699 92.036673) (xy 130.687145 91.99875) (xy 131.094 91.99875)
        (xy 131.094 92.22725) (xy 131.173861 92.307111) (xy 131.190673 92.347699) (xy 131.369302 92.526327) (xy 131.602691 92.623)
        (xy 132.24325 92.623) (xy 132.402 92.46425) (xy 132.402 91.76175) (xy 132.656 91.76175) (xy 132.656 92.46425)
        (xy 132.81475 92.623) (xy 133.455309 92.623) (xy 133.688698 92.526327) (xy 133.867327 92.347699) (xy 133.884139 92.307111)
        (xy 133.964 92.22725) (xy 133.964 91.99875) (xy 133.884139 91.918889) (xy 133.867327 91.878301) (xy 133.688698 91.699673)
        (xy 133.455309 91.603) (xy 132.81475 91.603) (xy 132.656 91.76175) (xy 132.402 91.76175) (xy 132.24325 91.603)
        (xy 131.602691 91.603) (xy 131.369302 91.699673) (xy 131.190673 91.878301) (xy 131.173861 91.918889) (xy 131.094 91.99875)
        (xy 130.687145 91.99875) (xy 130.54531 91.94) (xy 130.07975 91.94) (xy 129.921 92.09875) (xy 129.667 92.09875)
        (xy 129.50825 91.94) (xy 129.04269 91.94) (xy 128.809301 92.036673) (xy 128.630673 92.215302) (xy 128.534 92.448691)
        (xy 128.037 92.448691) (xy 128.037 90.075) (xy 128.835594 90.075) (xy 128.835594 91.575) (xy 128.858395 91.696179)
        (xy 128.930012 91.807474) (xy 129.039286 91.882138) (xy 129.169 91.908406) (xy 130.419 91.908406) (xy 130.540179 91.885605)
        (xy 130.651474 91.813988) (xy 130.726138 91.704714) (xy 130.752406 91.575) (xy 130.752406 91.277) (xy 131.108369 91.277)
        (xy 131.094 91.31169) (xy 131.094 91.42725) (xy 131.25275 91.586) (xy 132.402 91.586) (xy 132.402 91.566)
        (xy 132.656 91.566) (xy 132.656 91.586) (xy 133.80525 91.586) (xy 133.964 91.42725) (xy 133.964 91.365)
        (xy 134.131 91.365) (xy 134.303973 91.330594) (xy 134.450612 91.232612) (xy 134.822178 90.861046) (xy 134.919973 90.841594)
        (xy 135.066612 90.743612) (xy 135.164594 90.596973) (xy 135.199 90.424) (xy 135.164594 90.251027) (xy 135.150875 90.230495)
        (xy 135.066612 90.104387) (xy 134.755612 89.793388) (xy 134.608973 89.695406) (xy 134.436 89.661) (xy 133.647623 89.661)
        (xy 133.662406 89.588) (xy 133.662406 89.038) (xy 133.639605 88.916821) (xy 133.637105 88.912937) (xy 133.662406 88.788)
        (xy 133.662406 88.238) (xy 133.652622 88.186002) (xy 133.704 88.196406) (xy 134.254 88.196406) (xy 134.375179 88.173605)
        (xy 134.379063 88.171105) (xy 134.504 88.196406) (xy 135.054 88.196406) (xy 135.175179 88.173605) (xy 135.179063 88.171105)
        (xy 135.304 88.196406) (xy 135.854 88.196406) (xy 135.975179 88.173605) (xy 135.979063 88.171105) (xy 136.104 88.196406)
        (xy 136.654 88.196406) (xy 136.775179 88.173605) (xy 136.779063 88.171105) (xy 136.904 88.196406) (xy 137.454 88.196406)
        (xy 137.575179 88.173605) (xy 137.579063 88.171105) (xy 137.704 88.196406) (xy 138.254 88.196406) (xy 138.375179 88.173605)
        (xy 138.379063 88.171105) (xy 138.504 88.196406) (xy 139.054 88.196406) (xy 139.127 88.18267) (xy 139.127 88.325776)
        (xy 133.791776 93.661) (xy 133.647623 93.661) (xy 133.662406 93.588) (xy 133.662406 93.337218) (xy 133.688698 93.326327)
        (xy 133.867327 93.147699) (xy 133.964 92.91431) (xy 133.964 92.79875) (xy 133.80525 92.64) (xy 132.656 92.64)
        (xy 132.656 92.66) (xy 132.402 92.66) (xy 132.402 92.64) (xy 131.25275 92.64) (xy 131.094 92.79875)
        (xy 131.094 92.91431) (xy 131.190673 93.147699) (xy 131.369302 93.326327) (xy 131.395594 93.337218) (xy 131.395594 93.588)
        (xy 131.418395 93.709179) (xy 131.420895 93.713063) (xy 131.395594 93.838) (xy 131.395594 94.388) (xy 131.418395 94.509179)
        (xy 131.490012 94.620474) (xy 131.599286 94.695138) (xy 131.729 94.721406) (xy 133.329 94.721406) (xy 133.380998 94.711622)
        (xy 133.370594 94.763) (xy 133.370594 96.363) (xy 133.393395 96.484179) (xy 133.465012 96.595474) (xy 133.574286 96.670138)
        (xy 133.704 96.696406) (xy 134.254 96.696406) (xy 134.375179 96.673605) (xy 134.379063 96.671105) (xy 134.504 96.696406)
        (xy 135.054 96.696406) (xy 135.175179 96.673605) (xy 135.179063 96.671105) (xy 135.304 96.696406) (xy 135.854 96.696406)
        (xy 135.975179 96.673605) (xy 135.979063 96.671105) (xy 136.104 96.696406) (xy 136.654 96.696406) (xy 136.775179 96.673605)
        (xy 136.779063 96.671105) (xy 136.904 96.696406) (xy 137.454 96.696406) (xy 137.575179 96.673605) (xy 137.579063 96.671105)
        (xy 137.704 96.696406) (xy 138.254 96.696406) (xy 138.327 96.68267) (xy 138.327 96.996) (xy 138.361406 97.168973)
        (xy 138.459388 97.315612) (xy 138.606027 97.413594) (xy 138.779 97.448) (xy 138.951973 97.413594) (xy 139.042657 97.353)
        (xy 143.764 97.353) (xy 143.936973 97.318594) (xy 144.083612 97.220612) (xy 147.011943 94.292281) (xy 147.027778 94.298856)
        (xy 147.356779 94.299143) (xy 147.660846 94.173505) (xy 147.828088 94.006555) (xy 147.99393 94.172688) (xy 148.297778 94.298856)
        (xy 148.626779 94.299143) (xy 148.930846 94.173505) (xy 149.163688 93.94107) (xy 149.170776 93.924) (xy 149.606 93.924)
        (xy 149.778973 93.889594) (xy 149.925612 93.791612) (xy 150.941612 92.775612) (xy 151.039594 92.628973) (xy 151.074 92.456)
        (xy 151.074 87.376) (xy 151.039594 87.203027) (xy 150.941612 87.056388) (xy 148.909612 85.024388) (xy 148.762973 84.926406)
        (xy 148.59 84.892) (xy 131.699 84.892) (xy 131.526027 84.926406) (xy 131.379388 85.024387) (xy 130.744388 85.659388)
        (xy 130.646406 85.806027) (xy 130.612 85.979) (xy 130.612 89.811104) (xy 130.548714 89.767862) (xy 130.419 89.741594)
        (xy 129.169 89.741594) (xy 129.047821 89.764395) (xy 128.936526 89.836012) (xy 128.861862 89.945286) (xy 128.835594 90.075)
        (xy 128.037 90.075) (xy 128.037 84.603) (xy 151.236 84.603)
      )
    )
    (filled_polygon
      (pts
        (xy 150.17 87.563224) (xy 150.17 92.268776) (xy 149.418776 93.02) (xy 149.171052 93.02) (xy 149.164505 93.004154)
        (xy 148.93207 92.771312) (xy 148.796352 92.714957) (xy 148.463 92.381605) (xy 148.448858 92.395748) (xy 148.269253 92.216143)
        (xy 148.283395 92.202) (xy 148.269253 92.187858) (xy 148.381496 92.075614) (xy 148.533724 92.064834) (xy 148.656748 92.187858)
        (xy 148.642605 92.202) (xy 149.253104 92.812499) (xy 149.468217 92.775352) (xy 149.611112 92.347028) (xy 149.579217 91.896625)
        (xy 149.468217 91.628648) (xy 149.312338 91.60173) (xy 149.277608 91.567) (xy 149.312338 91.53227) (xy 149.468217 91.505352)
        (xy 149.611112 91.077028) (xy 149.579217 90.626625) (xy 149.468217 90.358648) (xy 149.253104 90.321501) (xy 148.642605 90.932)
        (xy 148.656748 90.946143) (xy 148.544504 91.058386) (xy 148.392276 91.069166) (xy 148.269253 90.946143) (xy 148.283395 90.932)
        (xy 148.269253 90.917858) (xy 148.448858 90.738253) (xy 148.463 90.752395) (xy 148.796294 90.419101) (xy 148.930846 90.363505)
        (xy 149.163688 90.13107) (xy 149.289856 89.827222) (xy 149.290143 89.498221) (xy 149.164505 89.194154) (xy 148.93207 88.961312)
        (xy 148.796352 88.904957) (xy 148.463 88.571605) (xy 148.448858 88.585748) (xy 148.269253 88.406143) (xy 148.283395 88.392)
        (xy 148.642605 88.392) (xy 149.253104 89.002499) (xy 149.468217 88.965352) (xy 149.611112 88.537028) (xy 149.579217 88.086625)
        (xy 149.468217 87.818648) (xy 149.253104 87.781501) (xy 148.642605 88.392) (xy 148.283395 88.392) (xy 147.950101 88.058706)
        (xy 147.894505 87.924154) (xy 147.66207 87.691312) (xy 147.446732 87.601896) (xy 147.852501 87.601896) (xy 148.463 88.212395)
        (xy 149.073499 87.601896) (xy 149.036352 87.386783) (xy 148.608028 87.243888) (xy 148.157625 87.275783) (xy 147.889648 87.386783)
        (xy 147.852501 87.601896) (xy 147.446732 87.601896) (xy 147.358222 87.565144) (xy 147.029221 87.564857) (xy 147.012139 87.571915)
        (xy 146.183612 86.743388) (xy 146.036973 86.645406) (xy 145.864 86.611) (xy 140.187406 86.611) (xy 140.187406 86.263)
        (xy 140.164605 86.141821) (xy 140.092988 86.030526) (xy 139.983714 85.955862) (xy 139.854 85.929594) (xy 139.304 85.929594)
        (xy 139.182821 85.952395) (xy 139.178937 85.954895) (xy 139.054 85.929594) (xy 138.504 85.929594) (xy 138.382821 85.952395)
        (xy 138.378937 85.954895) (xy 138.254 85.929594) (xy 137.704 85.929594) (xy 137.582821 85.952395) (xy 137.578937 85.954895)
        (xy 137.454 85.929594) (xy 136.904 85.929594) (xy 136.782821 85.952395) (xy 136.778937 85.954895) (xy 136.654 85.929594)
        (xy 136.104 85.929594) (xy 135.982821 85.952395) (xy 135.978937 85.954895) (xy 135.854 85.929594) (xy 135.304 85.929594)
        (xy 135.182821 85.952395) (xy 135.178937 85.954895) (xy 135.054 85.929594) (xy 134.504 85.929594) (xy 134.382821 85.952395)
        (xy 134.378937 85.954895) (xy 134.254 85.929594) (xy 133.704 85.929594) (xy 133.582821 85.952395) (xy 133.471526 86.024012)
        (xy 133.396862 86.133286) (xy 133.370594 86.263) (xy 133.370594 87.863) (xy 133.380378 87.914998) (xy 133.329 87.904594)
        (xy 131.729 87.904594) (xy 131.607821 87.927395) (xy 131.516 87.986481) (xy 131.516 86.166224) (xy 131.886225 85.796)
        (xy 148.402776 85.796)
      )
    )
    (filled_polygon
      (pts
        (xy 140.900166 100.032174) (xy 140.796119 100.282747) (xy 140.795882 100.554063) (xy 140.899492 100.804817) (xy 141.091174 100.996834)
        (xy 141.341747 101.100881) (xy 141.613063 101.101118) (xy 141.863817 100.997508) (xy 142.055834 100.805826) (xy 142.159881 100.555253)
        (xy 142.160118 100.283937) (xy 142.056508 100.033183) (xy 141.941925 99.9184) (xy 142.215576 99.9184) (xy 142.248228 99.951052)
        (xy 142.244594 99.969) (xy 142.244594 100.869782) (xy 142.218302 100.880673) (xy 142.039673 101.059301) (xy 141.943 101.29269)
        (xy 141.943 101.519477) (xy 141.864826 101.441166) (xy 141.614253 101.337119) (xy 141.342937 101.336882) (xy 141.092183 101.440492)
        (xy 141.013 101.519537) (xy 141.013 101.29269) (xy 140.916327 101.059301) (xy 140.737698 100.880673) (xy 140.711406 100.869782)
        (xy 140.711406 99.969) (xy 140.701885 99.9184) (xy 141.014139 99.9184)
      )
    )
  )
  (zone (net 2) (net_name GND) (layer B.Cu) (tstamp 564E42C0) (hatch edge 0.508)
    (connect_pads (clearance 0.2))
    (min_thickness 0.254)
    (fill yes (arc_segments 16) (thermal_gap 0.508) (thermal_bridge_width 0.508))
    (polygon
      (pts
        (xy 127.635 84.201) (xy 151.638 84.328) (xy 151.638 102.997) (xy 127.635 102.87)
      )
    )
    (filled_polygon
      (pts
        (xy 151.236 102.595) (xy 141.866329 102.595) (xy 142.055834 102.405826) (xy 142.159881 102.155253) (xy 142.160118 101.883937)
        (xy 142.056508 101.633183) (xy 141.864826 101.441166) (xy 141.614253 101.337119) (xy 141.342937 101.336882) (xy 141.092183 101.440492)
        (xy 140.900166 101.632174) (xy 140.796119 101.882747) (xy 140.795882 102.154063) (xy 140.899492 102.404817) (xy 141.089343 102.595)
        (xy 128.037 102.595) (xy 128.037 100.554063) (xy 140.795882 100.554063) (xy 140.899492 100.804817) (xy 141.091174 100.996834)
        (xy 141.341747 101.100881) (xy 141.613063 101.101118) (xy 141.863817 100.997508) (xy 142.055834 100.805826) (xy 142.159881 100.555253)
        (xy 142.160118 100.283937) (xy 142.056508 100.033183) (xy 141.864826 99.841166) (xy 141.614253 99.737119) (xy 141.342937 99.736882)
        (xy 141.092183 99.840492) (xy 140.900166 100.032174) (xy 140.796119 100.282747) (xy 140.795882 100.554063) (xy 128.037 100.554063)
        (xy 128.037 99.057171) (xy 137.294891 99.057171) (xy 137.390145 99.287703) (xy 137.566369 99.464235) (xy 137.796735 99.559891)
        (xy 138.046171 99.560109) (xy 138.276703 99.464855) (xy 138.453235 99.288631) (xy 138.548891 99.058265) (xy 138.54899 98.945234)
        (xy 139.892613 97.601612) (xy 139.990594 97.454973) (xy 140.025 97.282) (xy 140.025 94.160728) (xy 140.104235 94.081631)
        (xy 140.199891 93.851265) (xy 140.200109 93.601829) (xy 140.104855 93.371297) (xy 139.928631 93.194765) (xy 139.698265 93.099109)
        (xy 139.448829 93.098891) (xy 139.218297 93.194145) (xy 139.041765 93.370369) (xy 138.946109 93.600735) (xy 138.945891 93.850171)
        (xy 139.041145 94.080703) (xy 139.121 94.160698) (xy 139.121 97.094775) (xy 137.909787 98.305989) (xy 137.797829 98.305891)
        (xy 137.567297 98.401145) (xy 137.390765 98.577369) (xy 137.295109 98.807735) (xy 137.294891 99.057171) (xy 128.037 99.057171)
        (xy 128.037 94.358171) (xy 134.119891 94.358171) (xy 134.215145 94.588703) (xy 134.391369 94.765235) (xy 134.621735 94.860891)
        (xy 134.871171 94.861109) (xy 135.101703 94.765855) (xy 135.278235 94.589631) (xy 135.373891 94.359265) (xy 135.37399 94.246234)
        (xy 139.506225 90.114) (xy 146.484948 90.114) (xy 146.491495 90.129846) (xy 146.658445 90.297088) (xy 146.492312 90.46293)
        (xy 146.366144 90.766778) (xy 146.365857 91.095779) (xy 146.491495 91.399846) (xy 146.658445 91.567088) (xy 146.492312 91.73293)
        (xy 146.366144 92.036778) (xy 146.365857 92.365779) (xy 146.491495 92.669846) (xy 146.658445 92.837088) (xy 146.492312 93.00293)
        (xy 146.366144 93.306778) (xy 146.365857 93.635779) (xy 146.491495 93.939846) (xy 146.72393 94.172688) (xy 147.027778 94.298856)
        (xy 147.356779 94.299143) (xy 147.660846 94.173505) (xy 147.828088 94.006555) (xy 147.99393 94.172688) (xy 148.297778 94.298856)
        (xy 148.626779 94.299143) (xy 148.930846 94.173505) (xy 149.163688 93.94107) (xy 149.289856 93.637222) (xy 149.290143 93.308221)
        (xy 149.164505 93.004154) (xy 148.93207 92.771312) (xy 148.796352 92.714957) (xy 148.463 92.381605) (xy 148.448858 92.395748)
        (xy 148.269253 92.216143) (xy 148.283395 92.202) (xy 148.269253 92.187858) (xy 148.381496 92.075614) (xy 148.533724 92.064834)
        (xy 148.656748 92.187858) (xy 148.642605 92.202) (xy 149.253104 92.812499) (xy 149.468217 92.775352) (xy 149.611112 92.347028)
        (xy 149.579217 91.896625) (xy 149.468217 91.628648) (xy 149.312338 91.60173) (xy 149.277608 91.567) (xy 149.312338 91.53227)
        (xy 149.468217 91.505352) (xy 149.611112 91.077028) (xy 149.579217 90.626625) (xy 149.468217 90.358648) (xy 149.253104 90.321501)
        (xy 148.642605 90.932) (xy 148.656748 90.946143) (xy 148.544504 91.058386) (xy 148.392276 91.069166) (xy 148.269253 90.946143)
        (xy 148.283395 90.932) (xy 148.269253 90.917858) (xy 148.448858 90.738253) (xy 148.463 90.752395) (xy 148.796294 90.419101)
        (xy 148.930846 90.363505) (xy 149.163688 90.13107) (xy 149.289856 89.827222) (xy 149.290143 89.498221) (xy 149.164505 89.194154)
        (xy 148.93207 88.961312) (xy 148.796352 88.904957) (xy 148.463 88.571605) (xy 148.448858 88.585748) (xy 148.269253 88.406143)
        (xy 148.283395 88.392) (xy 148.642605 88.392) (xy 149.253104 89.002499) (xy 149.468217 88.965352) (xy 149.611112 88.537028)
        (xy 149.579217 88.086625) (xy 149.468217 87.818648) (xy 149.253104 87.781501) (xy 148.642605 88.392) (xy 148.283395 88.392)
        (xy 147.950101 88.058706) (xy 147.894505 87.924154) (xy 147.66207 87.691312) (xy 147.446732 87.601896) (xy 147.852501 87.601896)
        (xy 148.463 88.212395) (xy 149.073499 87.601896) (xy 149.036352 87.386783) (xy 148.608028 87.243888) (xy 148.157625 87.275783)
        (xy 147.889648 87.386783) (xy 147.852501 87.601896) (xy 147.446732 87.601896) (xy 147.358222 87.565144) (xy 147.029221 87.564857)
        (xy 146.725154 87.690495) (xy 146.492312 87.92293) (xy 146.366144 88.226778) (xy 146.365857 88.555779) (xy 146.491495 88.859846)
        (xy 146.658445 89.027088) (xy 146.492312 89.19293) (xy 146.485224 89.21) (xy 139.319 89.21) (xy 139.146027 89.244406)
        (xy 138.999387 89.342388) (xy 134.734787 93.606989) (xy 134.622829 93.606891) (xy 134.392297 93.702145) (xy 134.215765 93.878369)
        (xy 134.120109 94.108735) (xy 134.119891 94.358171) (xy 128.037 94.358171) (xy 128.037 84.603) (xy 151.236 84.603)
      )
    )
  )
)
