G04 #@! TF.FileFunction,Soldermask,Top*
%FSLAX46Y46*%
G04 Gerber Fmt 4.6, Leading zero omitted, Abs format (unit mm)*
G04 Created by KiCad (PCBNEW 4.0.2+dfsg1-stable) date Thu 14 Jul 2016 03:57:17 PM EDT*
%MOMM*%
G01*
G04 APERTURE LIST*
%ADD10C,0.100000*%
%ADD11C,1.100000*%
%ADD12R,1.100000X1.100000*%
%ADD13R,2.500000X1.000000*%
%ADD14R,2.200000X1.100000*%
%ADD15R,2.200000X2.200000*%
%ADD16C,0.381000*%
%ADD17C,1.000000*%
%ADD18R,0.797560X0.797560*%
%ADD19R,1.600000X0.600000*%
%ADD20R,1.600000X0.800000*%
%ADD21R,3.302000X1.800000*%
%ADD22O,3.302000X1.800000*%
%ADD23R,2.500000X2.000000*%
%ADD24R,1.498600X1.498600*%
%ADD25R,0.599440X1.000760*%
%ADD26R,0.910000X1.220000*%
%ADD27R,1.220000X0.910000*%
%ADD28R,1.050000X1.400000*%
%ADD29C,0.760000*%
%ADD30R,2.000000X0.800000*%
%ADD31R,2.400300X1.500000*%
%ADD32R,1.700000X2.200000*%
%ADD33O,1.700000X2.200000*%
%ADD34R,1.399540X2.400300*%
%ADD35R,1.000760X0.599440*%
%ADD36R,1.100000X0.250000*%
%ADD37R,1.570000X1.800000*%
%ADD38C,0.300000*%
%ADD39R,1.600200X1.803400*%
%ADD40R,0.700000X1.300000*%
%ADD41R,1.300000X0.700000*%
%ADD42R,1.300480X1.498600*%
%ADD43R,0.300000X0.730000*%
%ADD44R,0.730000X0.300000*%
%ADD45R,1.250000X1.250000*%
%ADD46C,1.200000*%
%ADD47R,0.406400X0.660400*%
%ADD48R,0.599440X1.998980*%
%ADD49R,1.998980X0.599440*%
%ADD50R,1.000000X0.250000*%
%ADD51R,0.250000X1.000000*%
%ADD52R,1.060000X0.650000*%
%ADD53R,0.700000X0.300000*%
%ADD54C,0.600000*%
%ADD55O,0.650000X0.950000*%
%ADD56C,0.650000*%
%ADD57O,1.400000X0.800000*%
%ADD58O,1.501140X0.899160*%
%ADD59R,1.897380X1.897380*%
%ADD60R,1.550000X1.650000*%
%ADD61R,1.348740X0.398780*%
%ADD62R,1.346200X0.398780*%
%ADD63O,0.950000X1.250000*%
%ADD64O,1.524000X1.000000*%
%ADD65R,0.899160X1.000760*%
%ADD66R,1.000760X0.899160*%
%ADD67R,2.400300X1.399540*%
%ADD68R,1.400000X1.200000*%
%ADD69R,0.230000X0.700000*%
%ADD70R,0.700000X0.230000*%
%ADD71R,0.300000X0.500000*%
%ADD72R,0.235000X0.870000*%
%ADD73R,0.950000X1.510000*%
%ADD74R,0.500000X0.300000*%
%ADD75R,0.870000X0.235000*%
%ADD76R,1.510000X0.950000*%
%ADD77R,1.021080X0.299720*%
%ADD78R,0.299720X1.021080*%
%ADD79R,0.980000X0.880000*%
%ADD80C,0.260000*%
%ADD81R,1.100000X1.900000*%
%ADD82R,0.260000X0.700000*%
%ADD83R,0.650000X0.300000*%
%ADD84R,0.775000X1.240000*%
%ADD85R,1.000000X2.500000*%
%ADD86R,1.500000X1.100000*%
%ADD87R,0.600000X0.400000*%
%ADD88R,0.400000X0.700000*%
%ADD89R,0.400000X0.600000*%
%ADD90R,0.700000X0.400000*%
G04 APERTURE END LIST*
D10*
D11*
X110871000Y-95504000D03*
D12*
X115951000Y-94234000D03*
D11*
X110871000Y-94234000D03*
X115951000Y-95504000D03*
X112141000Y-95504000D03*
X114681000Y-94234000D03*
X112141000Y-94234000D03*
X114681000Y-95504000D03*
X113411000Y-95504000D03*
X113411000Y-94234000D03*
D13*
X73060560Y-79835880D03*
X73060560Y-82835880D03*
D14*
X216994800Y-93898000D03*
D15*
X216994800Y-95980800D03*
D16*
X217261500Y-93644000D03*
X216690000Y-93644000D03*
X216118500Y-93644000D03*
X217261500Y-95104500D03*
X216690000Y-95104500D03*
X217261500Y-95676000D03*
X216690000Y-95676000D03*
X216118500Y-95676000D03*
X216118500Y-95104500D03*
X217261500Y-94215500D03*
X216690000Y-94215500D03*
X216118500Y-94215500D03*
D17*
X236460000Y-96380000D03*
X243610000Y-96390000D03*
X236480000Y-89870000D03*
D13*
X180086000Y-72493000D03*
X180086000Y-69493000D03*
D18*
X71076700Y-72187000D03*
X72575300Y-72187000D03*
D19*
X124976000Y-94957000D03*
X122176000Y-94457000D03*
X124976000Y-93957000D03*
X122176000Y-93457000D03*
X124976000Y-92957000D03*
X122176000Y-92457000D03*
X124976000Y-91957000D03*
X122176000Y-91457000D03*
X124976000Y-90957000D03*
X122176000Y-90457000D03*
X124976000Y-89957000D03*
X122176000Y-89457000D03*
X124976000Y-88957000D03*
X122176000Y-88457000D03*
X124976000Y-87957000D03*
X122176000Y-87457000D03*
X124976000Y-86957000D03*
X122176000Y-86457000D03*
X124976000Y-85957000D03*
X122176000Y-85457000D03*
X124976000Y-84957000D03*
X122176000Y-84457000D03*
X124976000Y-83957000D03*
X122176000Y-83457000D03*
X124976000Y-82957000D03*
X122176000Y-82457000D03*
X124976000Y-81957000D03*
D20*
X122176000Y-95957000D03*
X122176000Y-80457000D03*
D19*
X122176000Y-81457000D03*
D20*
X124976000Y-80457000D03*
X124976000Y-95957000D03*
D21*
X235336000Y-90577000D03*
D22*
X235336000Y-95657000D03*
D23*
X162681920Y-75806320D03*
X162681920Y-69776320D03*
X100855780Y-106568260D03*
X100855780Y-100538260D03*
D24*
X222613520Y-86847000D03*
X219118480Y-86847000D03*
D18*
X65296700Y-69287000D03*
X66795300Y-69287000D03*
D25*
X65003500Y-79633640D03*
X65956000Y-77520360D03*
X66908500Y-79633640D03*
D26*
X81359500Y-80010000D03*
X84629500Y-80010000D03*
D27*
X86931500Y-73898000D03*
X86931500Y-70628000D03*
D28*
X46214400Y-86756800D03*
X44514400Y-86756800D03*
X46214400Y-91906800D03*
X44514400Y-91906800D03*
D29*
X46714400Y-89331800D03*
X44014400Y-89331800D03*
D30*
X63819000Y-103261000D03*
X75119000Y-103261000D03*
X63819000Y-101991000D03*
X75119000Y-101991000D03*
X63819000Y-100721000D03*
X75119000Y-100721000D03*
X63819000Y-99451000D03*
X75119000Y-99451000D03*
X63819000Y-98181000D03*
X75119000Y-98181000D03*
X63819000Y-96911000D03*
X75119000Y-96911000D03*
X63819000Y-95641000D03*
X75119000Y-95641000D03*
X63819000Y-94371000D03*
X75119000Y-94371000D03*
X63819000Y-93101000D03*
X75119000Y-93101000D03*
D31*
X63169800Y-82322920D03*
X63169800Y-86322920D03*
D32*
X59268360Y-76901040D03*
D33*
X57268360Y-76901040D03*
X55268360Y-76901040D03*
X53268360Y-76901040D03*
D34*
X73581260Y-89712800D03*
X70182740Y-89712800D03*
D35*
X213689360Y-80734500D03*
X213689360Y-82639500D03*
X213689360Y-81687000D03*
X215802640Y-82639500D03*
X215796000Y-80737000D03*
X215802640Y-81687000D03*
D36*
X64879000Y-70827000D03*
X64879000Y-71327000D03*
X64879000Y-71827000D03*
X64879000Y-72327000D03*
X64879000Y-72827000D03*
X69179000Y-72827000D03*
X69179000Y-72327000D03*
X69179000Y-71827000D03*
X69179000Y-71327000D03*
X69179000Y-70827000D03*
D37*
X67029000Y-71827000D03*
D38*
X66521000Y-71319000D03*
X67537000Y-71319000D03*
X67537000Y-72335000D03*
X66521000Y-72335000D03*
X67029000Y-71827000D03*
D39*
X235267000Y-98190000D03*
X232473000Y-98190000D03*
X217439000Y-84737000D03*
X220233000Y-84737000D03*
D40*
X100746000Y-89947000D03*
X98846000Y-89947000D03*
D41*
X100648500Y-81009500D03*
X100648500Y-82909500D03*
D25*
X98615500Y-72476360D03*
X97663000Y-74589640D03*
X96710500Y-72476360D03*
D35*
X151332640Y-70934500D03*
X149219360Y-69982000D03*
X151332640Y-69029500D03*
X166240460Y-69362320D03*
X168353740Y-70314820D03*
X166240460Y-71267320D03*
X78242160Y-103390700D03*
X80355440Y-104343200D03*
X78242160Y-105295700D03*
D42*
X156798500Y-106732000D03*
X158703500Y-106732000D03*
X136098500Y-106582000D03*
X138003500Y-106582000D03*
X115663500Y-106307000D03*
X117568500Y-106307000D03*
X93621000Y-97359500D03*
X95526000Y-97359500D03*
X179823500Y-106532000D03*
X181728500Y-106532000D03*
D43*
X133937500Y-88007500D03*
X134437500Y-88007500D03*
X134937500Y-88007500D03*
X135437500Y-88007500D03*
X135937500Y-88007500D03*
D44*
X136902500Y-87042500D03*
X136902500Y-86542500D03*
X136902500Y-86042500D03*
X136902500Y-85542500D03*
X136902500Y-85042500D03*
D43*
X135937500Y-84077500D03*
X135437500Y-84077500D03*
X134937500Y-84077500D03*
X134437500Y-84077500D03*
X133937500Y-84077500D03*
D44*
X132972500Y-85042500D03*
X132972500Y-85542500D03*
X132972500Y-86042500D03*
X132972500Y-86542500D03*
X132972500Y-87042500D03*
D45*
X135562500Y-85417500D03*
X134312500Y-85417500D03*
X135562500Y-86667500D03*
X134312500Y-86667500D03*
D46*
X243826000Y-80127000D03*
X242556000Y-78857000D03*
X241286000Y-80127000D03*
X242556000Y-81397000D03*
D47*
X147740600Y-104048000D03*
X149061400Y-104048000D03*
X148401000Y-104048000D03*
X149061400Y-102016000D03*
X147740600Y-102016000D03*
X148401000Y-102016000D03*
D25*
X152203500Y-102175360D03*
X150298500Y-102175360D03*
X151251000Y-102175360D03*
X150298500Y-104288640D03*
X152203500Y-104288640D03*
D47*
X127090600Y-104173000D03*
X128411400Y-104173000D03*
X127751000Y-104173000D03*
X128411400Y-102141000D03*
X127090600Y-102141000D03*
X127751000Y-102141000D03*
D25*
X131253500Y-102325360D03*
X129348500Y-102325360D03*
X130301000Y-102325360D03*
X129348500Y-104438640D03*
X131253500Y-104438640D03*
D47*
X106418100Y-103910500D03*
X107738900Y-103910500D03*
X107078500Y-103910500D03*
X107738900Y-101878500D03*
X106418100Y-101878500D03*
X107078500Y-101878500D03*
D25*
X110881000Y-102037860D03*
X108976000Y-102037860D03*
X109928500Y-102037860D03*
X108976000Y-104151140D03*
X110881000Y-104151140D03*
D47*
X84403100Y-95045500D03*
X85723900Y-95045500D03*
X85063500Y-95045500D03*
X85723900Y-93013500D03*
X84403100Y-93013500D03*
X85063500Y-93013500D03*
D25*
X88866000Y-93052860D03*
X86961000Y-93052860D03*
X87913500Y-93052860D03*
X86961000Y-95166140D03*
X88866000Y-95166140D03*
D47*
X170665600Y-104073000D03*
X171986400Y-104073000D03*
X171326000Y-104073000D03*
X171986400Y-102041000D03*
X170665600Y-102041000D03*
X171326000Y-102041000D03*
D25*
X175103500Y-102250360D03*
X173198500Y-102250360D03*
X174151000Y-102250360D03*
X173198500Y-104363640D03*
X175103500Y-104363640D03*
X231178500Y-84108640D03*
X233083500Y-84108640D03*
X232131000Y-84108640D03*
X233083500Y-81995360D03*
X231181000Y-82002000D03*
X232131000Y-81995360D03*
D48*
X234359500Y-86924500D03*
X235629500Y-86924500D03*
X236899500Y-86924500D03*
X238169500Y-86924500D03*
X238169500Y-81336500D03*
X236899500Y-81336500D03*
X235629500Y-81336500D03*
X234359500Y-81336500D03*
D49*
X220652000Y-78882000D03*
X220652000Y-80152000D03*
X220652000Y-81422000D03*
X220652000Y-82692000D03*
X226240000Y-82692000D03*
X226240000Y-81422000D03*
X226240000Y-80152000D03*
X226240000Y-78882000D03*
D50*
X103875000Y-80001000D03*
X103875000Y-80501000D03*
X103875000Y-81001000D03*
X103875000Y-81501000D03*
X103875000Y-82001000D03*
X103875000Y-82501000D03*
X103875000Y-83001000D03*
X103875000Y-83501000D03*
X103875000Y-84001000D03*
X103875000Y-84501000D03*
X103875000Y-85001000D03*
X103875000Y-85501000D03*
X103875000Y-86001000D03*
X103875000Y-86501000D03*
X103875000Y-87001000D03*
X103875000Y-87501000D03*
D51*
X105825000Y-89451000D03*
X106325000Y-89451000D03*
X106825000Y-89451000D03*
X107325000Y-89451000D03*
X107825000Y-89451000D03*
X108325000Y-89451000D03*
X108825000Y-89451000D03*
X109325000Y-89451000D03*
X109825000Y-89451000D03*
X110325000Y-89451000D03*
X110825000Y-89451000D03*
X111325000Y-89451000D03*
X111825000Y-89451000D03*
X112325000Y-89451000D03*
X112825000Y-89451000D03*
X113325000Y-89451000D03*
D50*
X115275000Y-87501000D03*
X115275000Y-87001000D03*
X115275000Y-86501000D03*
X115275000Y-86001000D03*
X115275000Y-85501000D03*
X115275000Y-85001000D03*
X115275000Y-84501000D03*
X115275000Y-84001000D03*
X115275000Y-83501000D03*
X115275000Y-83001000D03*
X115275000Y-82501000D03*
X115275000Y-82001000D03*
X115275000Y-81501000D03*
X115275000Y-81001000D03*
X115275000Y-80501000D03*
X115275000Y-80001000D03*
D51*
X113325000Y-78051000D03*
X112825000Y-78051000D03*
X112325000Y-78051000D03*
X111825000Y-78051000D03*
X111325000Y-78051000D03*
X110825000Y-78051000D03*
X110325000Y-78051000D03*
X109825000Y-78051000D03*
X109325000Y-78051000D03*
X108825000Y-78051000D03*
X108325000Y-78051000D03*
X107825000Y-78051000D03*
X107325000Y-78051000D03*
X106825000Y-78051000D03*
X106325000Y-78051000D03*
X105825000Y-78051000D03*
D52*
X86911000Y-81917500D03*
X86911000Y-82867500D03*
X86911000Y-83817500D03*
X89111000Y-83817500D03*
X89111000Y-81917500D03*
D53*
X52846000Y-95977000D03*
X52846000Y-96477000D03*
X52846000Y-96977000D03*
X52846000Y-97477000D03*
X52846000Y-97977000D03*
X52846000Y-98477000D03*
X52846000Y-98977000D03*
X52846000Y-99477000D03*
X52846000Y-99977000D03*
X52846000Y-100477000D03*
X52846000Y-100977000D03*
X52846000Y-101477000D03*
D54*
X51536000Y-101527000D03*
X50836000Y-101127000D03*
X50836000Y-100327000D03*
X51536000Y-99927000D03*
X50836000Y-99527000D03*
X51536000Y-99127000D03*
X51536000Y-98327000D03*
X50836000Y-97927000D03*
X51536000Y-97527000D03*
X50836000Y-97127000D03*
X50836000Y-96327000D03*
X51536000Y-95927000D03*
D55*
X52186000Y-102327000D03*
D56*
X52186000Y-95127000D03*
D57*
X50936000Y-94597000D03*
X50936000Y-102857000D03*
X44986000Y-103217000D03*
X44986000Y-94237000D03*
D58*
X249996000Y-80117000D03*
X249996000Y-78847000D03*
X249996000Y-81387000D03*
D59*
X44924780Y-79961020D03*
X44924780Y-82358780D03*
D60*
X44924780Y-84659900D03*
X44924780Y-77659900D03*
D61*
X47599400Y-79859420D03*
D62*
X47599400Y-80512200D03*
X47599400Y-81159900D03*
X47599400Y-81807600D03*
X47599400Y-82460380D03*
D63*
X47599400Y-83659900D03*
X47599400Y-78659900D03*
D64*
X44924780Y-84659900D03*
X44924780Y-77659900D03*
D65*
X109590840Y-91567000D03*
X108087160Y-91567000D03*
D66*
X117200000Y-81127840D03*
X117200000Y-79624160D03*
X102299500Y-79493160D03*
X102299500Y-80996840D03*
D65*
X100914160Y-84077000D03*
X102417840Y-84077000D03*
X115178840Y-91186000D03*
X113675160Y-91186000D03*
D66*
X100839000Y-78286660D03*
X100839000Y-79790340D03*
X99885500Y-72527160D03*
X99885500Y-74030840D03*
D65*
X98752660Y-75311000D03*
X100256340Y-75311000D03*
D66*
X60325000Y-104637840D03*
X60325000Y-103134160D03*
D65*
X93969840Y-77851000D03*
X92466160Y-77851000D03*
X93969840Y-79324200D03*
X92466160Y-79324200D03*
D66*
X98836000Y-85588840D03*
X98836000Y-84085160D03*
D65*
X77205840Y-73533000D03*
X75702160Y-73533000D03*
X71440040Y-86588600D03*
X69936360Y-86588600D03*
X81353660Y-81851500D03*
X82857340Y-81851500D03*
X82857340Y-83121500D03*
X81353660Y-83121500D03*
D66*
X83502500Y-69098160D03*
X83502500Y-70601840D03*
D65*
X98689160Y-69215000D03*
X100192840Y-69215000D03*
D66*
X100806000Y-88298840D03*
X100806000Y-86795160D03*
D65*
X155121840Y-68950000D03*
X153618160Y-68950000D03*
X172547840Y-70647000D03*
X171044160Y-70647000D03*
D66*
X87486000Y-104975160D03*
X87486000Y-106478840D03*
D34*
X75735180Y-81305400D03*
X79133700Y-81305400D03*
X109268260Y-71120000D03*
X105869740Y-71120000D03*
D67*
X91376500Y-69674740D03*
X91376500Y-73073260D03*
X88646000Y-76659740D03*
X88646000Y-80058260D03*
D66*
X75742800Y-74754740D03*
X75742800Y-76258420D03*
D65*
X102944660Y-89833500D03*
X104448340Y-89833500D03*
D66*
X102125000Y-88302840D03*
X102125000Y-86799160D03*
X61196000Y-69695160D03*
X61196000Y-71198840D03*
D65*
X130058160Y-82042000D03*
X131561840Y-82042000D03*
D66*
X140335000Y-81036160D03*
X140335000Y-82539840D03*
X92826000Y-104975160D03*
X92826000Y-106478840D03*
D65*
X176236160Y-73153000D03*
X177739840Y-73153000D03*
X158091160Y-73863000D03*
X159594840Y-73863000D03*
D66*
X88816000Y-106478840D03*
X88816000Y-104975160D03*
X174936000Y-73298840D03*
X174936000Y-71795160D03*
X156946000Y-74618840D03*
X156946000Y-73115160D03*
X176860000Y-69028160D03*
X176860000Y-70531840D03*
D65*
X155521840Y-70260000D03*
X154018160Y-70260000D03*
D66*
X86918800Y-101559360D03*
X86918800Y-103063040D03*
D65*
X173327840Y-75127000D03*
X171824160Y-75127000D03*
D66*
X155321000Y-77332840D03*
X155321000Y-75829160D03*
D65*
X83022440Y-106578400D03*
X81518760Y-106578400D03*
D66*
X169527220Y-72941180D03*
X169527220Y-71437500D03*
X151003000Y-72781160D03*
X151003000Y-74284840D03*
D65*
X131561840Y-84836000D03*
X130058160Y-84836000D03*
D66*
X228219000Y-81142840D03*
X228219000Y-79639160D03*
X212356000Y-80885160D03*
X212356000Y-82388840D03*
X213196000Y-78145160D03*
X213196000Y-79648840D03*
X217426000Y-81435160D03*
X217426000Y-82938840D03*
X233071000Y-85520160D03*
X233071000Y-87023840D03*
X138938000Y-82539840D03*
X138938000Y-81036160D03*
D65*
X235828840Y-79375000D03*
X234325160Y-79375000D03*
D66*
X239456000Y-85315160D03*
X239456000Y-86818840D03*
D65*
X228356160Y-84074000D03*
X229859840Y-84074000D03*
D66*
X231121000Y-85470160D03*
X231121000Y-86973840D03*
X218746000Y-82938840D03*
X218746000Y-81435160D03*
D65*
X176374160Y-105057000D03*
X177877840Y-105057000D03*
X90031660Y-95879500D03*
X91535340Y-95879500D03*
X111944160Y-104747000D03*
X113447840Y-104747000D03*
X132324160Y-105047000D03*
X133827840Y-105047000D03*
X153374160Y-105007000D03*
X154877840Y-105007000D03*
X122327840Y-72507000D03*
X120824160Y-72507000D03*
D66*
X130583940Y-70881240D03*
X130583940Y-69377560D03*
D65*
X248401840Y-95377000D03*
X246898160Y-95377000D03*
D66*
X129667000Y-86370160D03*
X129667000Y-87873840D03*
X78409800Y-98739960D03*
X78409800Y-100243640D03*
D65*
X124220840Y-69492000D03*
X122717160Y-69492000D03*
X122717160Y-71016000D03*
X124220840Y-71016000D03*
D66*
X121576000Y-70958840D03*
X121576000Y-69455160D03*
X133223000Y-82793840D03*
X133223000Y-81290160D03*
X130937000Y-87873840D03*
X130937000Y-86370160D03*
X135001000Y-90794840D03*
X135001000Y-89291160D03*
X247926000Y-79545160D03*
X247926000Y-81048840D03*
X133696000Y-89445160D03*
X133696000Y-90948840D03*
D65*
X58874160Y-101857000D03*
X60377840Y-101857000D03*
D66*
X101600000Y-74432160D03*
X101600000Y-75935840D03*
X73787000Y-70495160D03*
X73787000Y-71998840D03*
X70846000Y-70698840D03*
X70846000Y-69195160D03*
D65*
X62557840Y-72467000D03*
X61054160Y-72467000D03*
D66*
X62506000Y-69695160D03*
X62506000Y-71198840D03*
X90146000Y-106468840D03*
X90146000Y-104965160D03*
X91466000Y-104975160D03*
X91466000Y-106478840D03*
D65*
X176236160Y-74653000D03*
X177739840Y-74653000D03*
X177739840Y-71853000D03*
X176236160Y-71853000D03*
X158091160Y-75163000D03*
X159594840Y-75163000D03*
X158091160Y-72563000D03*
X159594840Y-72563000D03*
D66*
X88214200Y-103063040D03*
X88214200Y-101559360D03*
D65*
X170515280Y-75125580D03*
X169011600Y-75125580D03*
X152283160Y-75438000D03*
X153786840Y-75438000D03*
X131561840Y-83439000D03*
X130058160Y-83439000D03*
X214554160Y-79617000D03*
X216057840Y-79617000D03*
X221814160Y-83827000D03*
X223317840Y-83827000D03*
X221814160Y-85147000D03*
X223317840Y-85147000D03*
D66*
X137668000Y-82539840D03*
X137668000Y-81036160D03*
X231476000Y-79155160D03*
X231476000Y-80658840D03*
D65*
X231658160Y-92329000D03*
X233161840Y-92329000D03*
D66*
X240776000Y-88318840D03*
X240776000Y-86815160D03*
X234569000Y-93969840D03*
X234569000Y-92466160D03*
D65*
X176094160Y-106717000D03*
X177597840Y-106717000D03*
X174877840Y-105757000D03*
X173374160Y-105757000D03*
D66*
X177751000Y-103683840D03*
X177751000Y-102180160D03*
X169526000Y-102155160D03*
X169526000Y-103658840D03*
D65*
X171058840Y-105410000D03*
X169555160Y-105410000D03*
X89864160Y-97577000D03*
X91367840Y-97577000D03*
X88635340Y-96589500D03*
X87131660Y-96589500D03*
D66*
X91483500Y-94521340D03*
X91483500Y-93017660D03*
X83253500Y-93137660D03*
X83253500Y-94641340D03*
D65*
X84645340Y-96269500D03*
X83141660Y-96269500D03*
X111914160Y-106717000D03*
X113417840Y-106717000D03*
X110705340Y-105594500D03*
X109201660Y-105594500D03*
D66*
X113603500Y-103496340D03*
X113603500Y-101992660D03*
X105303500Y-102017660D03*
X105303500Y-103521340D03*
D65*
X106387840Y-105077000D03*
X104884160Y-105077000D03*
X132314160Y-106787000D03*
X133817840Y-106787000D03*
X131102840Y-105857000D03*
X129599160Y-105857000D03*
D66*
X133941000Y-103773840D03*
X133941000Y-102270160D03*
X125951000Y-102255160D03*
X125951000Y-103758840D03*
D65*
X127377840Y-105432000D03*
X125874160Y-105432000D03*
X153244160Y-106667000D03*
X154747840Y-106667000D03*
X152027840Y-105732000D03*
X150524160Y-105732000D03*
D66*
X154851000Y-103633840D03*
X154851000Y-102130160D03*
X146601000Y-102130160D03*
X146601000Y-103633840D03*
D65*
X148377840Y-105307000D03*
X146874160Y-105307000D03*
D66*
X102870000Y-74432160D03*
X102870000Y-75935840D03*
X176351000Y-103683840D03*
X176351000Y-102180160D03*
D65*
X170499160Y-106732000D03*
X172002840Y-106732000D03*
D66*
X90063500Y-94511340D03*
X90063500Y-93007660D03*
D65*
X84271660Y-97759500D03*
X85775340Y-97759500D03*
D66*
X112153500Y-103496340D03*
X112153500Y-101992660D03*
D65*
X107812840Y-106553000D03*
X106309160Y-106553000D03*
D66*
X132501000Y-103783840D03*
X132501000Y-102280160D03*
D65*
X126799160Y-106882000D03*
X128302840Y-106882000D03*
D66*
X153436000Y-103638840D03*
X153436000Y-102135160D03*
D65*
X147649160Y-106732000D03*
X149152840Y-106732000D03*
X100192840Y-70612000D03*
X98689160Y-70612000D03*
D66*
X68453000Y-89418160D03*
X68453000Y-90921840D03*
X66644520Y-85102700D03*
X66644520Y-86606380D03*
X66629280Y-83771740D03*
X66629280Y-82268060D03*
D65*
X95069660Y-69215000D03*
X96573340Y-69215000D03*
D66*
X68453000Y-88127840D03*
X68453000Y-86624160D03*
X85623400Y-101559360D03*
X85623400Y-103063040D03*
D65*
X85036660Y-69151500D03*
X86540340Y-69151500D03*
D66*
X90614500Y-81925160D03*
X90614500Y-83428840D03*
D65*
X80317340Y-69596000D03*
X78813660Y-69596000D03*
D66*
X77152500Y-72189340D03*
X77152500Y-70685660D03*
D65*
X65001140Y-91485720D03*
X66504820Y-91485720D03*
D68*
X117015080Y-90258800D03*
X119215080Y-90258800D03*
X117015080Y-88658800D03*
X119215080Y-88658800D03*
D66*
X75755500Y-72189340D03*
X75755500Y-70685660D03*
D65*
X81650840Y-77464920D03*
X83154520Y-77464920D03*
X157497840Y-94017000D03*
X155994160Y-94017000D03*
D69*
X120180000Y-69331000D03*
X119780000Y-69331000D03*
X119380000Y-69331000D03*
X118980000Y-69331000D03*
X118580000Y-69331000D03*
X118580000Y-71031000D03*
X118980000Y-71031000D03*
X119380000Y-71031000D03*
X119780000Y-71031000D03*
X120180000Y-71031000D03*
D70*
X126125000Y-69454000D03*
X126125000Y-69854000D03*
X126125000Y-70254000D03*
X126125000Y-70654000D03*
X126125000Y-71054000D03*
X127825000Y-71054000D03*
X127825000Y-70654000D03*
X127825000Y-70254000D03*
X127825000Y-69854000D03*
X127825000Y-69454000D03*
D71*
X180651000Y-104557000D03*
X179351000Y-104557000D03*
X180001000Y-104557000D03*
X179351000Y-102557000D03*
X180651000Y-102557000D03*
X180001000Y-102557000D03*
D72*
X179333500Y-103597000D03*
D73*
X180326000Y-103557000D03*
D71*
X94373500Y-95399500D03*
X93073500Y-95399500D03*
X93723500Y-95399500D03*
X93073500Y-93399500D03*
X94373500Y-93399500D03*
X93723500Y-93399500D03*
D72*
X93056000Y-94439500D03*
D73*
X94048500Y-94399500D03*
D71*
X116296200Y-104251000D03*
X114996200Y-104251000D03*
X115646200Y-104251000D03*
X114996200Y-102251000D03*
X116296200Y-102251000D03*
X115646200Y-102251000D03*
D72*
X114978700Y-103291000D03*
D73*
X115971200Y-103251000D03*
D71*
X136851000Y-104612000D03*
X135551000Y-104612000D03*
X136201000Y-104612000D03*
X135551000Y-102612000D03*
X136851000Y-102612000D03*
X136201000Y-102612000D03*
D72*
X135533500Y-103652000D03*
D73*
X136526000Y-103612000D03*
D71*
X157826000Y-104707000D03*
X156526000Y-104707000D03*
X157176000Y-104707000D03*
X156526000Y-102707000D03*
X157826000Y-102707000D03*
X157176000Y-102707000D03*
D72*
X156508500Y-103747000D03*
D73*
X157501000Y-103707000D03*
D74*
X175586000Y-69357000D03*
X175586000Y-70657000D03*
X175586000Y-70007000D03*
X173586000Y-70657000D03*
X173586000Y-69357000D03*
X173586000Y-70007000D03*
D75*
X174626000Y-70674500D03*
D76*
X174586000Y-69682000D03*
D71*
X91496000Y-102837000D03*
X90196000Y-102837000D03*
X90846000Y-102837000D03*
X90196000Y-100837000D03*
X91496000Y-100837000D03*
X90846000Y-100837000D03*
D72*
X90178500Y-101877000D03*
D73*
X91171000Y-101837000D03*
D74*
X159146000Y-69207000D03*
X159146000Y-70507000D03*
X159146000Y-69857000D03*
X157146000Y-70507000D03*
X157146000Y-69207000D03*
X157146000Y-69857000D03*
D75*
X158186000Y-70524500D03*
D76*
X158146000Y-69532000D03*
D35*
X173142640Y-73939500D03*
X173142640Y-72034500D03*
X173142640Y-72987000D03*
X171029360Y-72034500D03*
X171029360Y-73939500D03*
D25*
X153733500Y-73700640D03*
X155638500Y-73700640D03*
X154686000Y-73700640D03*
X155638500Y-71587360D03*
X153733500Y-71587360D03*
X84403500Y-106563640D03*
X86308500Y-106563640D03*
X85356000Y-106563640D03*
X86308500Y-104450360D03*
X84403500Y-104450360D03*
D17*
X243600000Y-89860000D03*
D77*
X153146760Y-95671640D03*
X153146760Y-96172020D03*
X153146760Y-96672400D03*
X153146760Y-97172780D03*
X153146760Y-97673160D03*
X157749240Y-97673160D03*
X157749240Y-97172780D03*
X157749240Y-96672400D03*
X157749240Y-96172020D03*
X157749240Y-95671640D03*
D78*
X79720440Y-101691440D03*
X80220820Y-101691440D03*
X80721200Y-101691440D03*
X81221580Y-101691440D03*
X81721960Y-101691440D03*
X81721960Y-97088960D03*
X81221580Y-97088960D03*
X80721200Y-97088960D03*
X80220820Y-97088960D03*
X79720440Y-97088960D03*
D35*
X149646640Y-74739500D03*
X147533360Y-73787000D03*
X149646640Y-72834500D03*
X166217600Y-73007220D03*
X168330880Y-73959720D03*
X166217600Y-74912220D03*
X81112360Y-103390700D03*
X83225640Y-104343200D03*
X81112360Y-105295700D03*
D65*
X129783840Y-89154000D03*
X128280160Y-89154000D03*
X129783840Y-90424000D03*
X128280160Y-90424000D03*
D66*
X128524000Y-86370160D03*
X128524000Y-87873840D03*
X132080000Y-91450160D03*
X132080000Y-92953840D03*
X130810000Y-92953840D03*
X130810000Y-91450160D03*
X246176800Y-79585820D03*
X246176800Y-81089500D03*
D25*
X217146000Y-80086820D03*
X217146000Y-77887180D03*
X218746000Y-77887180D03*
X218746000Y-80086820D03*
D35*
X229770820Y-87352000D03*
X227571180Y-87352000D03*
X227571180Y-85552000D03*
X229770820Y-85552000D03*
D74*
X67194000Y-90285000D03*
X67194000Y-89785000D03*
X67194000Y-89285000D03*
X67194000Y-88785000D03*
X65394000Y-88785000D03*
X65394000Y-89285000D03*
X65394000Y-89785000D03*
X65394000Y-90285000D03*
D79*
X66294000Y-89095000D03*
X66294000Y-89975000D03*
D80*
X66294000Y-89955000D03*
X66304000Y-89095000D03*
D25*
X77038200Y-77393800D03*
X77990700Y-75280520D03*
X78943200Y-77393800D03*
D65*
X73568560Y-74772520D03*
X72064880Y-74772520D03*
D74*
X70368920Y-77429120D03*
X70368920Y-76129120D03*
X70368920Y-76779120D03*
X72368920Y-76129120D03*
X72368920Y-77429120D03*
X72368920Y-76779120D03*
D75*
X71328920Y-76111620D03*
D76*
X71368920Y-77104120D03*
D65*
X45661580Y-72608440D03*
X47165260Y-72608440D03*
X146004280Y-98176080D03*
X144500600Y-98176080D03*
X141498160Y-97610000D03*
X143001840Y-97610000D03*
D81*
X104129840Y-92552520D03*
X106669840Y-92552520D03*
D65*
X248965720Y-86850220D03*
X247462040Y-86850220D03*
X248965720Y-85511640D03*
X247462040Y-85511640D03*
D35*
X118539360Y-77034500D03*
X120652640Y-77987000D03*
X118539360Y-78939500D03*
D66*
X62862460Y-77757020D03*
X62862460Y-79260700D03*
X116481860Y-78303120D03*
X116481860Y-76799440D03*
D65*
X47185580Y-74208640D03*
X45681900Y-74208640D03*
D66*
X215813640Y-85234780D03*
X215813640Y-83731100D03*
D82*
X80831500Y-73900000D03*
X80331500Y-73900000D03*
X80831500Y-70880000D03*
D83*
X79031500Y-71390000D03*
X79031500Y-71890000D03*
X79031500Y-72390000D03*
X79031500Y-72890000D03*
X79031500Y-73390000D03*
X82131500Y-73390000D03*
X82131500Y-72890000D03*
X82131500Y-72390000D03*
X82131500Y-71890000D03*
X82131500Y-71390000D03*
D84*
X80969000Y-73010000D03*
X80969000Y-71770000D03*
X80194000Y-73010000D03*
X80194000Y-71770000D03*
D82*
X80331500Y-70880000D03*
D85*
X78906500Y-85788500D03*
X75906500Y-85788500D03*
D13*
X112395000Y-69366000D03*
X112395000Y-72366000D03*
D85*
X75906500Y-89408000D03*
X78906500Y-89408000D03*
D13*
X102997000Y-69366000D03*
X102997000Y-72366000D03*
X225446000Y-87187000D03*
X225446000Y-84187000D03*
X243456000Y-87437000D03*
X243456000Y-84437000D03*
X69659500Y-84748500D03*
X69659500Y-81748500D03*
D86*
X216676000Y-92427000D03*
X216676000Y-90847000D03*
D16*
X216104500Y-92643000D03*
X216676000Y-92643000D03*
X217247500Y-92643000D03*
X216104500Y-91182500D03*
X216676000Y-91182500D03*
X216104500Y-90611000D03*
X216676000Y-90611000D03*
X217247500Y-90611000D03*
X217247500Y-91182500D03*
X216104500Y-92071500D03*
X216676000Y-92071500D03*
X217247500Y-92071500D03*
D86*
X214806000Y-89267000D03*
X214806000Y-90847000D03*
D16*
X215377500Y-89051000D03*
X214806000Y-89051000D03*
X214234500Y-89051000D03*
X215377500Y-90511500D03*
X214806000Y-90511500D03*
X215377500Y-91083000D03*
X214806000Y-91083000D03*
X214234500Y-91083000D03*
X214234500Y-90511500D03*
X215377500Y-89622500D03*
X214806000Y-89622500D03*
X214234500Y-89622500D03*
D86*
X214806000Y-92257000D03*
X214806000Y-93837000D03*
D16*
X215377500Y-92041000D03*
X214806000Y-92041000D03*
X214234500Y-92041000D03*
X215377500Y-93501500D03*
X214806000Y-93501500D03*
X215377500Y-94073000D03*
X214806000Y-94073000D03*
X214234500Y-94073000D03*
X214234500Y-93501500D03*
X215377500Y-92612500D03*
X214806000Y-92612500D03*
X214234500Y-92612500D03*
D86*
X214806000Y-95257000D03*
X214806000Y-96837000D03*
D16*
X215377500Y-95041000D03*
X214806000Y-95041000D03*
X214234500Y-95041000D03*
X215377500Y-96501500D03*
X214806000Y-96501500D03*
X215377500Y-97073000D03*
X214806000Y-97073000D03*
X214234500Y-97073000D03*
X214234500Y-96501500D03*
X215377500Y-95612500D03*
X214806000Y-95612500D03*
X214234500Y-95612500D03*
D87*
X95566000Y-101647000D03*
X95566000Y-102547000D03*
D88*
X95566000Y-102097000D03*
D89*
X103325080Y-107177840D03*
X102425080Y-107177840D03*
D90*
X102875080Y-107177840D03*
D87*
X95821500Y-104820300D03*
X95821500Y-105720300D03*
D88*
X95821500Y-105270300D03*
D89*
X97616000Y-107517000D03*
X96716000Y-107517000D03*
D90*
X97166000Y-107517000D03*
D87*
X94488000Y-106825200D03*
X94488000Y-105925200D03*
D88*
X94488000Y-106375200D03*
D89*
X103330160Y-106456480D03*
X102430160Y-106456480D03*
D90*
X102880160Y-106456480D03*
D87*
X93954600Y-102558000D03*
X93954600Y-101658000D03*
D88*
X93954600Y-102108000D03*
D89*
X99764000Y-104521000D03*
X98864000Y-104521000D03*
D90*
X99314000Y-104521000D03*
D87*
X94146000Y-105717000D03*
X94146000Y-104817000D03*
D88*
X94146000Y-105267000D03*
D89*
X98076000Y-103497000D03*
X97176000Y-103497000D03*
D90*
X97626000Y-103497000D03*
D87*
X94756000Y-101647000D03*
X94756000Y-102547000D03*
D88*
X94756000Y-102097000D03*
D87*
X96376000Y-101647000D03*
X96376000Y-102547000D03*
D88*
X96376000Y-102097000D03*
D89*
X98076000Y-102667000D03*
X97176000Y-102667000D03*
D90*
X97626000Y-102667000D03*
D89*
X103330160Y-105724960D03*
X102430160Y-105724960D03*
D90*
X102880160Y-105724960D03*
D87*
X94970600Y-104833000D03*
X94970600Y-105733000D03*
D88*
X94970600Y-105283000D03*
M02*
