G04 #@! TF.FileFunction,Profile,NP*
%FSLAX46Y46*%
G04 Gerber Fmt 4.6, Leading zero omitted, Abs format (unit mm)*
G04 Created by KiCad (PCBNEW 4.0.2+dfsg1-stable) date Thu 14 Jul 2016 03:57:17 PM EDT*
%MOMM*%
G01*
G04 APERTURE LIST*
%ADD10C,0.100000*%
%ADD11C,0.010000*%
G04 APERTURE END LIST*
D10*
D11*
X45608666Y-52578000D02*
G75*
G03X45608666Y-52578000I-1666666J0D01*
G01*
X41442000Y-52578000D02*
X46442000Y-52578000D01*
X43942000Y-50078000D02*
X43942000Y-55078000D01*
X210266000Y-86807000D02*
G75*
G03X210266000Y-86807000I-1500000J0D01*
G01*
X236056000Y-89432000D02*
X237156000Y-89432000D01*
X236056000Y-96782000D02*
X236056000Y-89432000D01*
X237156000Y-96782000D02*
X236056000Y-96782000D01*
X244006000Y-96782000D02*
X244006000Y-89432000D01*
X237156000Y-96782000D02*
X244006000Y-96782000D01*
X244006000Y-89432000D02*
X237156000Y-89432000D01*
X251475323Y-76908939D02*
X251475323Y-99408939D01*
X187975323Y-71408939D02*
G75*
G03X187975323Y-71408939I-1500000J0D01*
G01*
X194475323Y-99408939D02*
X251475323Y-99408939D01*
X194475323Y-67908939D02*
X194475323Y-76908939D01*
X194475323Y-76908939D02*
X251475323Y-76908939D01*
X43475323Y-67908939D02*
X194475323Y-67908939D01*
X57975323Y-71408939D02*
G75*
G03X57975323Y-71408939I-1500000J0D01*
G01*
X57975323Y-104908939D02*
G75*
G03X57975323Y-104908939I-1500000J0D01*
G01*
X43475323Y-108408939D02*
X43475323Y-67908939D01*
X194475323Y-108408939D02*
X43475323Y-108408939D01*
X194475323Y-99408939D02*
X194475323Y-108408939D01*
X194975323Y-88158939D02*
G75*
G03X194975323Y-88158939I-5500000J0D01*
G01*
X177978612Y-88158939D02*
G75*
G03X177978612Y-88158939I-9503289J0D01*
G01*
X152731272Y-88158939D02*
G75*
G03X152731272Y-88158939I-5255949J0D01*
G01*
X187975323Y-104908939D02*
G75*
G03X187975323Y-104908939I-1500000J0D01*
G01*
M02*
