M48
;DRILL file {KiCad 5.0.2-bee76a0~70~ubuntu18.04.1} date Fri 05 Jun 2020 02:35:24 PM EDT
;FORMAT={-:-/ absolute / inch / decimal}
FMAT,2
INCH,TZ
T1C0.0295
T2C0.0472
%
G90
G05
T1
X4.1875Y-7.4504
X4.1875Y-7.5567
T2
X3.3429Y-7.4367
X3.3429Y-7.5351
X3.5397Y-7.2398
X3.7366Y-7.4367
X3.7366Y-7.5351
T0
M30
