EESchema Schematic File Version 4
LIBS:main-cache
EELAYER 26 0
EELAYER END
$Descr A3 16535 11693
encoding utf-8
Sheet 6 9
Title "Reflectance 1.0"
Date "2017-04-24"
Rev "1.0"
Comp "OurSci"
Comment1 "Jon Zeeff"
Comment2 ""
Comment3 ""
Comment4 ""
$EndDescr
Text Label 4200 2675 0    20   ~ 0
ACT_LED_C
Text HLabel 2925 1550 0    40   Input ~ 0
+5
Text HLabel 2925 2300 0    40   Input ~ 0
PULSE1
Text HLabel 2925 2900 0    40   Input ~ 0
Acto_drive
Text Notes 2825 925  0    60   ~ 0
Note: make use of the fact that the teensy output is 5V tolerant \nand can switch between high impedance and a 0V current sink.
$Comp
L multispec:TT8J13T Q13
U 1 1 595D67FC
P 3850 2300
F 0 "Q13" H 4240 2325 50  0000 R CNN
F 1 "TT8J13T" H 4325 2225 50  0000 R CNN
F 2 "multispeq:tsst8" H 4050 2400 29  0001 C CNN
F 3 "TT8J13TCR" H 3850 2300 12  0000 C CNN
F 4 "TT8J13TCR" H 3850 2300 60  0001 C CNN "manf#"
	1    3850 2300
	1    0    0    1   
$EndComp
Wire Wire Line
	2925 2900 3950 2900
Wire Wire Line
	3600 2075 3600 2300
Wire Wire Line
	3600 1775 3600 1550
Connection ~ 3600 1550
Connection ~ 3600 2300
Wire Wire Line
	3375 2300 3600 2300
Wire Wire Line
	2925 2300 3075 2300
Wire Wire Line
	3950 1550 3950 2100
Wire Wire Line
	2925 1550 3600 1550
$Comp
L multispec:LED_Z D8
U 1 1 595D8465
P 3950 2700
F 0 "D8" H 3950 2800 50  0000 C CNN
F 1 "LED_Z" H 3950 2600 50  0000 C CNN
F 2 "multispeq:2-SMD_no_lead" H 3925 2375 60  0001 C CNN
F 3 "SFH4056" V 3945 2695 12  0000 C CNN
F 4 "SFH4056" H 3950 2700 60  0001 C CNN "manf#"
	1    3950 2700
	0    -1   -1   0   
$EndComp
Wire Wire Line
	4025 2500 3950 2500
$Comp
L main-rescue:R-RESCUE-main R18
U 1 1 595D9C46
P 3600 1925
F 0 "R18" V 3680 1925 50  0000 C CNN
F 1 "2K" V 3600 1925 50  0000 C CNN
F 2 "multispeq:r_0603" H 3600 1925 60  0001 C CNN
F 3 "RC0603JR-072KL" V 3600 1925 12  0001 C CNN
F 4 "RC0603JR-072KL" H 3600 1925 60  0001 C CNN "manf#"
	1    3600 1925
	1    0    0    1   
$EndComp
$Comp
L main-rescue:R-RESCUE-main R12
U 1 1 595DAEBA
P 3225 2300
F 0 "R12" V 3305 2300 50  0000 C CNN
F 1 "150" V 3225 2300 50  0000 C CNN
F 2 "multispeq:r_0603" H 3225 2300 60  0001 C CNN
F 3 "RC0603JR-07150RL" V 3225 2300 12  0001 C CNN
F 4 "RC0603JR-07150RL" H 3225 2300 60  0001 C CNN "manf#"
	1    3225 2300
	0    -1   1    0   
$EndComp
Connection ~ 3950 2500
Text Label 6700 2650 0    20   ~ 0
ACT_LED_C
Text HLabel 5425 1525 0    40   Input ~ 0
+5
Text HLabel 5425 2275 0    40   Input ~ 0
PULSE6
Text HLabel 5425 2875 0    40   Input ~ 0
Acto_drive
$Comp
L multispec:TT8J13T Q15
U 2 1 595DD107
P 6350 2275
F 0 "Q15" H 6750 2300 50  0000 R CNN
F 1 "TT8J13T" H 6825 2200 50  0000 R CNN
F 2 "multispeq:tsst8" H 6550 2375 29  0001 C CNN
F 3 "TT8J13TCR" H 6350 2275 12  0000 C CNN
F 4 "TT8J13TCR" H 6350 2275 60  0001 C CNN "manf#"
	2    6350 2275
	1    0    0    1   
$EndComp
Wire Wire Line
	5425 2875 6450 2875
Wire Wire Line
	6100 2050 6100 2275
Wire Wire Line
	6100 1750 6100 1525
Connection ~ 6100 1525
Connection ~ 6100 2275
Wire Wire Line
	5875 2275 6100 2275
Wire Wire Line
	5425 2275 5575 2275
Wire Wire Line
	6450 1525 6450 2075
Wire Wire Line
	5425 1525 6100 1525
$Comp
L multispec:LED_Z D13
U 1 1 595DD117
P 6450 2675
F 0 "D13" H 6450 2775 50  0000 C CNN
F 1 "LED_Z" H 6450 2575 50  0000 C CNN
F 2 "multispeq:Luxeon_Z+t" H 6425 2350 60  0001 C CNN
F 3 "LXZ1-PM01" H 6450 2675 12  0000 C CNN
F 4 "LXZ1-PM01" H 6450 2675 60  0001 C CNN "manf#"
	1    6450 2675
	0    -1   -1   0   
$EndComp
Wire Wire Line
	6525 2475 6450 2475
$Comp
L main-rescue:R-RESCUE-main R72
U 1 1 595DD121
P 6100 1900
F 0 "R72" V 6180 1900 50  0000 C CNN
F 1 "2K" V 6100 1900 50  0000 C CNN
F 2 "multispeq:r_0603" H 6100 1900 60  0001 C CNN
F 3 "RC0603JR-072KL" V 6100 1900 12  0001 C CNN
F 4 "RC0603JR-072KL" H 6100 1900 60  0001 C CNN "manf#"
	1    6100 1900
	1    0    0    1   
$EndComp
$Comp
L main-rescue:R-RESCUE-main R67
U 1 1 595DD12A
P 5725 2275
F 0 "R67" V 5805 2275 50  0000 C CNN
F 1 "150" V 5725 2275 50  0000 C CNN
F 2 "multispeq:r_0603" H 5725 2275 60  0001 C CNN
F 3 "RC0603JR-07150RL" V 5725 2275 12  0001 C CNN
F 4 "RC0603JR-07150RL" H 5725 2275 60  0001 C CNN "manf#"
	1    5725 2275
	0    -1   1    0   
$EndComp
Connection ~ 6450 2475
Text Label 4225 6800 0    20   ~ 0
ACT_LED_C
Text HLabel 2950 5675 0    40   Input ~ 0
+5
Text HLabel 2950 6425 0    40   Input ~ 0
PULSE3
Text HLabel 2950 7025 0    40   Input ~ 0
Acto_drive
$Comp
L multispec:TT8J13T Q14
U 1 1 595DEE7E
P 3875 6425
F 0 "Q14" H 4175 6475 50  0000 R CNN
F 1 "TT8J13T" H 4350 6350 50  0000 R CNN
F 2 "multispeq:tsst8" H 4075 6525 29  0001 C CNN
F 3 "TT8J13TCR" H 3875 6425 60  0000 C CNN
F 4 "TT8J13TCR" H 3875 6425 60  0001 C CNN "manf#"
	1    3875 6425
	1    0    0    1   
$EndComp
Wire Wire Line
	2950 7025 3975 7025
Wire Wire Line
	3625 6200 3625 6425
Wire Wire Line
	3625 5900 3625 5675
Connection ~ 3625 5675
Connection ~ 3625 6425
Wire Wire Line
	3400 6425 3625 6425
Wire Wire Line
	2950 6425 3100 6425
Wire Wire Line
	3975 5675 3975 6225
Wire Wire Line
	2950 5675 3625 5675
$Comp
L multispec:LED_Z D10
U 1 1 595DEE8E
P 3975 6825
F 0 "D10" H 3975 6925 50  0000 C CNN
F 1 "LED_Z" H 3975 6725 50  0000 C CNN
F 2 "multispeq:VLMU1610" H 3950 6500 60  0001 C CNN
F 3 "VLMU1610-365-135" H 3975 6825 12  0000 C CNN
F 4 "VLMU1610-365-135" H 3975 6825 12  0001 C CNN "manf#"
	1    3975 6825
	0    -1   -1   0   
$EndComp
Wire Wire Line
	4050 6625 3975 6625
$Comp
L main-rescue:R-RESCUE-main R64
U 1 1 595DEE98
P 3625 6050
F 0 "R64" V 3705 6050 50  0000 C CNN
F 1 "2K" V 3625 6050 50  0000 C CNN
F 2 "multispeq:r_0603" H 3625 6050 60  0001 C CNN
F 3 "RC0603JR-072KL" V 3625 6050 12  0001 C CNN
F 4 "RC0603JR-072KL" H 3625 6050 60  0001 C CNN "manf#"
	1    3625 6050
	1    0    0    1   
$EndComp
$Comp
L main-rescue:R-RESCUE-main R14
U 1 1 595DEEA1
P 3250 6425
F 0 "R14" V 3330 6425 50  0000 C CNN
F 1 "150" V 3250 6425 50  0000 C CNN
F 2 "multispeq:r_0603" H 3250 6425 60  0001 C CNN
F 3 "RC0603JR-07150RL" V 3250 6425 12  0001 C CNN
F 4 "RC0603JR-07150RL" H 3250 6425 60  0001 C CNN "manf#"
	1    3250 6425
	0    -1   1    0   
$EndComp
Connection ~ 3975 6625
Text Label 6725 6775 0    20   ~ 0
ACT_LED_C
Text HLabel 5450 5650 0    40   Input ~ 0
+5
Text HLabel 5450 6400 0    40   Input ~ 0
PULSE8
Text HLabel 5450 7000 0    40   Input ~ 0
Acto_drive
$Comp
L multispec:TT8J13T Q16
U 2 1 595DEEAD
P 6375 6400
F 0 "Q16" H 6675 6450 50  0000 R CNN
F 1 "TT8J13T" H 6850 6325 50  0000 R CNN
F 2 "multispeq:tsst8" H 6575 6500 29  0001 C CNN
F 3 "TT8J13TCR" H 6375 6400 60  0000 C CNN
F 4 "TT8J13TCR" H 6375 6400 60  0001 C CNN "manf#"
	2    6375 6400
	1    0    0    1   
$EndComp
Wire Wire Line
	5450 7000 6475 7000
Wire Wire Line
	6125 6175 6125 6400
Wire Wire Line
	6125 5875 6125 5650
Connection ~ 6125 5650
Connection ~ 6125 6400
Wire Wire Line
	5900 6400 6125 6400
Wire Wire Line
	5450 6400 5600 6400
Wire Wire Line
	6475 5650 6475 6200
Wire Wire Line
	5450 5650 6125 5650
$Comp
L multispec:LED_Z D15
U 1 1 595DEEBD
P 6475 6800
F 0 "D15" H 6475 6900 50  0000 C CNN
F 1 "LED_Z" H 6475 6700 50  0000 C CNN
F 2 "multispeq:Luxeon_Z+t" H 6450 6475 60  0001 C CNN
F 3 "LXZ1-PD01" H 6475 6800 12  0000 C CNN
F 4 "LXZ1-PD01" H 6475 6800 60  0001 C CNN "manf#"
	1    6475 6800
	0    -1   -1   0   
$EndComp
Wire Wire Line
	6550 6600 6475 6600
$Comp
L main-rescue:R-RESCUE-main R74
U 1 1 595DEEC7
P 6125 6025
F 0 "R74" V 6205 6025 50  0000 C CNN
F 1 "2K" V 6125 6025 50  0000 C CNN
F 2 "multispeq:r_0603" H 6125 6025 60  0001 C CNN
F 3 "RC0603JR-072KL" V 6125 6025 12  0001 C CNN
F 4 "RC0603JR-072KL" H 6125 6025 60  0001 C CNN "manf#"
	1    6125 6025
	1    0    0    1   
$EndComp
$Comp
L main-rescue:R-RESCUE-main R69
U 1 1 595DEED0
P 5750 6400
F 0 "R69" V 5830 6400 50  0000 C CNN
F 1 "150" V 5750 6400 50  0000 C CNN
F 2 "multispeq:r_0603" H 5750 6400 60  0001 C CNN
F 3 "RC0603JR-07150RL" V 5750 6400 12  0001 C CNN
F 4 "RC0603JR-07150RL" H 5750 6400 60  0001 C CNN "manf#"
	1    5750 6400
	0    -1   1    0   
$EndComp
Connection ~ 6475 6600
Text Label 4225 8700 0    20   ~ 0
ACT_LED_C
Text HLabel 2950 7575 0    40   Input ~ 0
+5
Text HLabel 2950 8325 0    40   Input ~ 0
PULSE4
Text HLabel 2950 8925 0    40   Input ~ 0
Acto_drive
$Comp
L multispec:TT8J13T Q14
U 2 1 595DF79B
P 3875 8325
F 0 "Q14" H 4175 8375 50  0000 R CNN
F 1 "TT8J13T" H 4350 8250 50  0000 R CNN
F 2 "multispeq:tsst8" H 4075 8425 29  0001 C CNN
F 3 "TT8J13TCR" H 3875 8325 60  0000 C CNN
F 4 "TT8J13TCR" H 3875 8325 60  0001 C CNN "manf#"
	2    3875 8325
	1    0    0    1   
$EndComp
Wire Wire Line
	2950 8925 3975 8925
Wire Wire Line
	3625 8100 3625 8325
Wire Wire Line
	3625 7800 3625 7575
Connection ~ 3625 7575
Connection ~ 3625 8325
Wire Wire Line
	3400 8325 3625 8325
Wire Wire Line
	2950 8325 3100 8325
Wire Wire Line
	3975 7575 3975 8125
Wire Wire Line
	2950 7575 3625 7575
$Comp
L multispec:LED_Z D11
U 1 1 595DF7AB
P 3975 8725
F 0 "D11" H 3975 8825 50  0000 C CNN
F 1 "LED_Z" H 3975 8625 50  0000 C CNN
F 2 "multispeq:Luxeon_Z+t" H 3950 8400 60  0001 C CNN
F 3 " LHUV-0385-A045 " H 3975 8725 12  0000 C CNN
F 4 "LHUV-0385-A045" H 3975 8725 60  0001 C CNN "manf#"
	1    3975 8725
	0    -1   -1   0   
$EndComp
Wire Wire Line
	4050 8525 3975 8525
$Comp
L main-rescue:R-RESCUE-main R65
U 1 1 595DF7B5
P 3625 7950
F 0 "R65" V 3705 7950 50  0000 C CNN
F 1 "2K" V 3625 7950 50  0000 C CNN
F 2 "multispeq:r_0603" H 3625 7950 60  0001 C CNN
F 3 "RC0603JR-072KL" V 3625 7950 12  0001 C CNN
F 4 "RC0603JR-072KL" H 3625 7950 60  0001 C CNN "manf#"
	1    3625 7950
	1    0    0    1   
$EndComp
$Comp
L main-rescue:R-RESCUE-main R16
U 1 1 595DF7BE
P 3250 8325
F 0 "R16" V 3330 8325 50  0000 C CNN
F 1 "150" V 3250 8325 50  0000 C CNN
F 2 "multispeq:r_0603" H 3250 8325 60  0001 C CNN
F 3 "RC0603JR-07150RL" V 3250 8325 12  0001 C CNN
F 4 "RC0603JR-07150RL" H 3250 8325 60  0001 C CNN "manf#"
	1    3250 8325
	0    -1   1    0   
$EndComp
Connection ~ 3975 8525
Text Label 6725 8675 0    20   ~ 0
ACT_LED_C
Text HLabel 5450 7550 0    40   Input ~ 0
+5
Text HLabel 5450 8300 0    40   Input ~ 0
PULSE9
Text HLabel 5450 8900 0    40   Input ~ 0
Acto_drive
$Comp
L multispec:TT8J13T Q17
U 1 1 595DF7CA
P 6375 8300
F 0 "Q17" H 6675 8350 50  0000 R CNN
F 1 "TT8J13T" H 6850 8225 50  0000 R CNN
F 2 "multispeq:tsst8" H 6575 8400 29  0001 C CNN
F 3 "TT8J13TCR" H 6375 8300 60  0000 C CNN
F 4 "TT8J13TCR" H 6375 8300 60  0001 C CNN "manf#"
	1    6375 8300
	1    0    0    1   
$EndComp
Wire Wire Line
	5450 8900 6475 8900
Wire Wire Line
	6125 8075 6125 8300
Wire Wire Line
	6125 7775 6125 7550
Connection ~ 6125 7550
Connection ~ 6125 8300
Wire Wire Line
	5900 8300 6125 8300
Wire Wire Line
	5450 8300 5600 8300
Wire Wire Line
	6475 7550 6475 8100
Wire Wire Line
	5450 7550 6125 7550
$Comp
L multispec:LED_Z D16
U 1 1 595DF7DA
P 6475 8700
F 0 "D16" H 6475 8800 50  0000 C CNN
F 1 "LED_Z" H 6475 8600 50  0000 C CNN
F 2 "multispeq:Luxeon_Z+t" H 6450 8375 60  0001 C CNN
F 3 "LXZ1-PE01" H 6475 8700 12  0000 C CNN
F 4 "LXZ1-PE01" H 6475 8700 60  0001 C CNN "manf#"
	1    6475 8700
	0    -1   -1   0   
$EndComp
Wire Wire Line
	6550 8500 6475 8500
$Comp
L main-rescue:R-RESCUE-main R75
U 1 1 595DF7E4
P 6125 7925
F 0 "R75" V 6205 7925 50  0000 C CNN
F 1 "2K" V 6125 7925 50  0000 C CNN
F 2 "multispeq:r_0603" H 6125 7925 60  0001 C CNN
F 3 "RC0603JR-072KL" V 6125 7925 12  0001 C CNN
F 4 "RC0603JR-072KL" H 6125 7925 60  0001 C CNN "manf#"
	1    6125 7925
	1    0    0    1   
$EndComp
$Comp
L main-rescue:R-RESCUE-main R70
U 1 1 595DF7ED
P 5750 8300
F 0 "R70" V 5830 8300 50  0000 C CNN
F 1 "150" V 5750 8300 50  0000 C CNN
F 2 "multispeq:r_0603" H 5750 8300 60  0001 C CNN
F 3 "RC0603JR-07150RL" V 5750 8300 12  0001 C CNN
F 4 "RC0603JR-07150RL" H 5750 8300 60  0001 C CNN "manf#"
	1    5750 8300
	0    -1   1    0   
$EndComp
Connection ~ 6475 8500
Text Label 4225 10600 0    20   ~ 0
ACT_LED_C
Text HLabel 2950 9475 0    40   Input ~ 0
+5
Text HLabel 2950 10225 0    40   Input ~ 0
PULSE5
Text HLabel 2950 10825 0    40   Input ~ 0
Acto_drive
$Comp
L multispec:TT8J13T Q15
U 1 1 595DFC80
P 3875 10225
F 0 "Q15" H 4175 10275 50  0000 R CNN
F 1 "TT8J13T" H 4350 10150 50  0000 R CNN
F 2 "multispeq:tsst8" H 4075 10325 29  0001 C CNN
F 3 "TT8J13TCR" H 3875 10225 60  0000 C CNN
F 4 "TT8J13TCR" H 3875 10225 60  0001 C CNN "manf#"
	1    3875 10225
	1    0    0    1   
$EndComp
Wire Wire Line
	2950 10825 3975 10825
Wire Wire Line
	3625 10000 3625 10225
Wire Wire Line
	3625 9700 3625 9475
Connection ~ 3625 9475
Connection ~ 3625 10225
Wire Wire Line
	3400 10225 3625 10225
Wire Wire Line
	2950 10225 3100 10225
Wire Wire Line
	3975 9475 3975 10025
Wire Wire Line
	2950 9475 3625 9475
$Comp
L multispec:LED_Z D12
U 1 1 595DFC90
P 3975 10625
F 0 "D12" H 3975 10725 50  0000 C CNN
F 1 "LED_Z" H 3975 10525 50  0000 C CNN
F 2 "multispeq:Luxeon_Z+t" H 3950 10300 60  0001 C CNN
F 3 "LXZ1-PR01" H 3975 10625 12  0000 C CNN
F 4 "LXZ1-PR01" H 3975 10625 60  0001 C CNN "manf#"
	1    3975 10625
	0    -1   -1   0   
$EndComp
Wire Wire Line
	4050 10425 3975 10425
$Comp
L main-rescue:R-RESCUE-main R66
U 1 1 595DFC9A
P 3625 9850
F 0 "R66" V 3705 9850 50  0000 C CNN
F 1 "2K" V 3625 9850 50  0000 C CNN
F 2 "multispeq:r_0603" H 3625 9850 60  0001 C CNN
F 3 "RC0603JR-072KL" V 3625 9850 12  0001 C CNN
F 4 "RC0603JR-072KL" H 3625 9850 60  0001 C CNN "manf#"
	1    3625 9850
	1    0    0    1   
$EndComp
$Comp
L main-rescue:R-RESCUE-main R17
U 1 1 595DFCA3
P 3250 10225
F 0 "R17" V 3330 10225 50  0000 C CNN
F 1 "150" V 3250 10225 50  0000 C CNN
F 2 "multispeq:r_0603" H 3250 10225 60  0001 C CNN
F 3 "RC0603JR-07150RL" V 3250 10225 12  0001 C CNN
F 4 "RC0603JR-07150RL" H 3250 10225 60  0001 C CNN "manf#"
	1    3250 10225
	0    -1   1    0   
$EndComp
Connection ~ 3975 10425
Text Label 6725 10575 0    20   ~ 0
ACT_LED_C
Text HLabel 5450 9450 0    40   Input ~ 0
+5
Text HLabel 5450 10200 0    40   Input ~ 0
PULSE10
Text HLabel 5450 10800 0    40   Input ~ 0
Acto_drive
$Comp
L multispec:TT8J13T Q17
U 2 1 595DFCAF
P 6375 10200
F 0 "Q17" H 6675 10250 50  0000 R CNN
F 1 "TT8J13T" H 6850 10125 50  0000 R CNN
F 2 "multispeq:tsst8" H 6575 10300 29  0001 C CNN
F 3 "TT8J13TCR" H 6375 10200 60  0000 C CNN
F 4 "TT8J13TCR" H 6375 10200 60  0001 C CNN "manf#"
	2    6375 10200
	1    0    0    1   
$EndComp
Wire Wire Line
	5450 10800 6475 10800
Wire Wire Line
	6125 9975 6125 10200
Wire Wire Line
	6125 9675 6125 9450
Connection ~ 6125 9450
Connection ~ 6125 10200
Wire Wire Line
	5900 10200 6125 10200
Wire Wire Line
	5450 10200 5600 10200
Wire Wire Line
	6475 9450 6475 10000
Wire Wire Line
	5450 9450 6125 9450
$Comp
L multispec:LED_Z D20
U 1 1 595DFCBF
P 6475 10600
F 0 "D20" H 6475 10700 50  0000 C CNN
F 1 "LED_Z" H 6475 10500 50  0000 C CNN
F 2 "multispeq:0603-LED" H 6450 10275 60  0001 C CNN
F 3 "XZTNI53W-8" H 6475 10600 12  0000 C CNN
F 4 "XZTNI53W-8" H 6475 10600 60  0001 C CNN "manf#"
	1    6475 10600
	0    -1   -1   0   
$EndComp
Wire Wire Line
	6550 10400 6475 10400
$Comp
L main-rescue:R-RESCUE-main R76
U 1 1 595DFCC9
P 6125 9825
F 0 "R76" V 6205 9825 50  0000 C CNN
F 1 "2K" V 6125 9825 50  0000 C CNN
F 2 "multispeq:r_0603" H 6125 9825 60  0001 C CNN
F 3 "RC0603JR-072KL" V 6125 9825 12  0001 C CNN
F 4 "RC0603JR-072KL" H 6125 9825 60  0001 C CNN "manf#"
	1    6125 9825
	1    0    0    1   
$EndComp
$Comp
L main-rescue:R-RESCUE-main R71
U 1 1 595DFCD2
P 5750 10200
F 0 "R71" V 5830 10200 50  0000 C CNN
F 1 "150" V 5750 10200 50  0000 C CNN
F 2 "multispeq:r_0603" H 5750 10200 60  0001 C CNN
F 3 "RC0603JR-07150RL" V 5750 10200 12  0001 C CNN
F 4 "RC0603JR-07150RL" H 5750 10200 60  0001 C CNN "manf#"
	1    5750 10200
	0    -1   1    0   
$EndComp
Connection ~ 6475 10400
Text Label 4200 4675 0    20   ~ 0
ACT_LED_C
Text HLabel 2925 3550 0    40   Input ~ 0
+5
Text HLabel 2925 4300 0    40   Input ~ 0
PULSE2
Text HLabel 2925 4900 0    40   Input ~ 0
Acto_drive
$Comp
L multispec:TT8J13T Q13
U 2 1 595E7FFD
P 3850 4300
F 0 "Q13" H 4150 4350 50  0000 R CNN
F 1 "TT8J13T" H 4325 4225 50  0000 R CNN
F 2 "multispeq:tsst8" H 4050 4400 29  0001 C CNN
F 3 "TT8J13TCR" H 3850 4300 60  0000 C CNN
F 4 "TT8J13TCR" H 3850 4300 60  0001 C CNN "manf#"
	2    3850 4300
	1    0    0    1   
$EndComp
Wire Wire Line
	2925 4900 3950 4900
Wire Wire Line
	3600 4075 3600 4300
Wire Wire Line
	3600 3775 3600 3550
Connection ~ 3600 3550
Connection ~ 3600 4300
Wire Wire Line
	3375 4300 3600 4300
Wire Wire Line
	2925 4300 3075 4300
Wire Wire Line
	3950 3550 3950 4100
Wire Wire Line
	2925 3550 3600 3550
$Comp
L multispec:LED_Z D9
U 1 1 595E800D
P 3950 4700
F 0 "D9" H 3950 4800 50  0000 C CNN
F 1 "LED_Z" H 3950 4600 50  0000 C CNN
F 2 "multispeq:0603-LED" H 3925 4375 60  0001 C CNN
F 3 "APT1608SF4C-PRV" V 3965 4695 12  0000 C CNN
F 4 "APT1608SF4C-PRV" H 3950 4700 60  0001 C CNN "manf#"
	1    3950 4700
	0    -1   -1   0   
$EndComp
Wire Wire Line
	4025 4500 3950 4500
$Comp
L main-rescue:R-RESCUE-main R19
U 1 1 595E8017
P 3600 3925
F 0 "R19" V 3680 3925 50  0000 C CNN
F 1 "2K" V 3600 3925 50  0000 C CNN
F 2 "multispeq:r_0603" H 3600 3925 60  0001 C CNN
F 3 "RC0603JR-072KL" V 3600 3925 12  0001 C CNN
F 4 "RC0603JR-072KL" H 3600 3925 60  0001 C CNN "manf#"
	1    3600 3925
	1    0    0    1   
$EndComp
$Comp
L main-rescue:R-RESCUE-main R13
U 1 1 595E8020
P 3225 4300
F 0 "R13" V 3305 4300 50  0000 C CNN
F 1 "150" V 3225 4300 50  0000 C CNN
F 2 "multispeq:r_0603" H 3225 4300 60  0001 C CNN
F 3 "RC0603JR-07150RL" V 3225 4300 12  0001 C CNN
F 4 "RC0603JR-07150RL" H 3225 4300 60  0001 C CNN "manf#"
	1    3225 4300
	0    -1   1    0   
$EndComp
Connection ~ 3950 4500
Text Label 6700 4650 0    20   ~ 0
ACT_LED_C
Text HLabel 5425 3525 0    40   Input ~ 0
+5
Text HLabel 5425 4275 0    40   Input ~ 0
PULSE7
Text HLabel 5425 4875 0    40   Input ~ 0
Acto_drive
$Comp
L multispec:TT8J13T Q16
U 1 1 595E802C
P 6350 4275
F 0 "Q16" H 6650 4325 50  0000 R CNN
F 1 "TT8J13T" H 6825 4200 50  0000 R CNN
F 2 "multispeq:tsst8" H 6550 4375 29  0001 C CNN
F 3 "TT8J13TCR" H 6350 4275 60  0000 C CNN
F 4 "TT8J13TCR" H 6350 4275 60  0001 C CNN "manf#"
	1    6350 4275
	1    0    0    1   
$EndComp
Wire Wire Line
	5425 4875 6450 4875
Wire Wire Line
	6100 4050 6100 4275
Wire Wire Line
	6100 3750 6100 3525
Connection ~ 6100 3525
Connection ~ 6100 4275
Wire Wire Line
	5875 4275 6100 4275
Wire Wire Line
	5425 4275 5575 4275
Wire Wire Line
	6450 3525 6450 4075
Wire Wire Line
	5425 3525 6100 3525
$Comp
L multispec:LED_Z D14
U 1 1 595E803C
P 6450 4675
F 0 "D14" H 6450 4775 50  0000 C CNN
F 1 "LED_Z" H 6450 4575 50  0000 C CNN
F 2 "multispeq:Luxeon_Z+t" H 6425 4350 60  0001 C CNN
F 3 "LXZ1-PL01" H 6450 4675 12  0000 C CNN
F 4 "LXZ1-PL01" H 6450 4675 60  0001 C CNN "manf#"
	1    6450 4675
	0    -1   -1   0   
$EndComp
Wire Wire Line
	6525 4475 6450 4475
$Comp
L main-rescue:R-RESCUE-main R73
U 1 1 595E8046
P 6100 3900
F 0 "R73" V 6180 3900 50  0000 C CNN
F 1 "2K" V 6100 3900 50  0000 C CNN
F 2 "multispeq:r_0603" H 6100 3900 60  0001 C CNN
F 3 "RC0603JR-072KL" V 6100 3900 12  0001 C CNN
F 4 "RC0603JR-072KL" H 6100 3900 60  0001 C CNN "manf#"
	1    6100 3900
	1    0    0    1   
$EndComp
$Comp
L main-rescue:R-RESCUE-main R68
U 1 1 595E804F
P 5725 4275
F 0 "R68" V 5805 4275 50  0000 C CNN
F 1 "150" V 5725 4275 50  0000 C CNN
F 2 "multispeq:r_0603" H 5725 4275 60  0001 C CNN
F 3 "RC0603JR-07150RL" V 5725 4275 12  0001 C CNN
F 4 "RC0603JR-07150RL" H 5725 4275 60  0001 C CNN "manf#"
	1    5725 4275
	0    -1   1    0   
$EndComp
Connection ~ 6450 4475
Text Notes 3755 1220 0    79   ~ 0
High side LED switches
Wire Wire Line
	3600 1550 3950 1550
Wire Wire Line
	3600 2300 3650 2300
Wire Wire Line
	6100 1525 6450 1525
Wire Wire Line
	6100 2275 6150 2275
Wire Wire Line
	3625 5675 3975 5675
Wire Wire Line
	3625 6425 3675 6425
Wire Wire Line
	6125 5650 6475 5650
Wire Wire Line
	6125 6400 6175 6400
Wire Wire Line
	3625 7575 3975 7575
Wire Wire Line
	3625 8325 3675 8325
Wire Wire Line
	6125 7550 6475 7550
Wire Wire Line
	6125 8300 6175 8300
Wire Wire Line
	3625 9475 3975 9475
Wire Wire Line
	3625 10225 3675 10225
Wire Wire Line
	6125 9450 6475 9450
Wire Wire Line
	6125 10200 6175 10200
Wire Wire Line
	3600 3550 3950 3550
Wire Wire Line
	3600 4300 3650 4300
Wire Wire Line
	6100 3525 6450 3525
Wire Wire Line
	6100 4275 6150 4275
$EndSCHEMATC
