EESchema Schematic File Version 4
LIBS:main-cache
EELAYER 26 0
EELAYER END
$Descr A4 11693 8268
encoding utf-8
Sheet 5 9
Title "Reflectance 1.0"
Date "2017-04-24"
Rev "1.0"
Comp "OurSci"
Comment1 "Zegarac Robert"
Comment2 "Jon Zeeff"
Comment3 ""
Comment4 ""
$EndDescr
$Comp
L main-rescue:TPS61252-RESCUE-main U18
U 1 1 5612A5C1
P 5830 2555
F 0 "U18" H 5830 2505 60  0000 C CNN
F 1 "TPS61251" H 5830 2805 50  0000 C CNN
F 2 "multispeq:DFN-8-1EP_2x2mm_Pitch0.5mm" H 5830 2555 60  0001 C CNN
F 3 "TPS61251DSGR" H 5830 2555 60  0001 C CNN
F 4 "TPS61251DSGR" H 5830 2555 60  0001 C CNN "manf#"
	1    5830 2555
	-1   0    0    -1  
$EndComp
$Comp
L main-rescue:R-RESCUE-main R57
U 1 1 5612A5CD
P 6530 2705
F 0 "R57" V 6610 2705 50  0000 C CNN
F 1 "1M" V 6530 2705 50  0000 C CNN
F 2 "multispeq:r_0603" V 6460 2705 30  0001 C CNN
F 3 "RC0603FR-071ML" H 6530 2705 30  0001 C CNN
F 4 "RC0603FR-071ML" H 6530 2705 60  0001 C CNN "manf#"
	1    6530 2705
	1    0    0    -1  
$EndComp
$Comp
L main-rescue:C-RESCUE-main C50
U 1 1 5612A5DF
P 6730 2705
F 0 "C50" H 6755 2805 50  0000 L CNN
F 1 "1n" H 6755 2605 50  0000 L CNN
F 2 "multispeq:c_0603" H 6768 2555 30  0001 C CNN
F 3 "CL10C102JB8NGNC" H 6730 2705 60  0001 C CNN
F 4 "CL10C102JB8NGNC" H 6730 2705 60  0001 C CNN "manf#"
	1    6730 2705
	1    0    0    -1  
$EndComp
$Comp
L main-rescue:INDUCTOR_SMALL-RESCUE-main L3
U 1 1 5612A5EB
P 4930 2505
F 0 "L3" H 4735 2455 50  0000 C CNN
F 1 "1.2uH" H 4985 2460 50  0000 C CNN
F 2 "multispeq:Neosid_Inductor_4R7" H 4930 2505 60  0001 C CNN
F 3 "SRN4026-1R2Y" H 4930 2505 60  0001 C CNN
F 4 "SRN4026-1R2Y" H 4930 2505 60  0001 C CNN "manf#"
	1    4930 2505
	1    0    0    -1  
$EndComp
$Comp
L main-rescue:GND-RESCUE-main #PWR045
U 1 1 5612A62B
P 6430 2305
F 0 "#PWR045" H 6430 2055 50  0001 C CNN
F 1 "GND" H 6430 2155 50  0000 C CNN
F 2 "" H 6430 2305 60  0000 C CNN
F 3 "" H 6430 2305 60  0000 C CNN
	1    6430 2305
	1    0    0    -1  
$EndComp
Text HLabel 8410 2505 2    60   Output ~ 0
+6V
$Comp
L main-rescue:GND-RESCUE-main #PWR046
U 1 1 561343D2
P 6530 3355
F 0 "#PWR046" H 6530 3105 50  0001 C CNN
F 1 "GND" H 6530 3205 50  0000 C CNN
F 2 "" H 6530 3355 60  0000 C CNN
F 3 "" H 6530 3355 60  0000 C CNN
	1    6530 3355
	1    0    0    -1  
$EndComp
$Comp
L main-rescue:GND-RESCUE-main #PWR047
U 1 1 561348D5
P 7335 2805
F 0 "#PWR047" H 7335 2555 50  0001 C CNN
F 1 "GND" H 7335 2655 50  0000 C CNN
F 2 "" H 7335 2805 60  0000 C CNN
F 3 "" H 7335 2805 60  0000 C CNN
	1    7335 2805
	1    0    0    -1  
$EndComp
Text Notes 5015 1275 0    100  ~ 0
DC-DC converters & ON/SW\n
$Comp
L main-rescue:R-RESCUE-main R58
U 1 1 563307ED
P 6530 3105
F 0 "R58" V 6610 3105 50  0000 C CNN
F 1 "249K" V 6530 3105 50  0000 C CNN
F 2 "multispeq:r_0603" V 6460 3105 30  0001 C CNN
F 3 "RC0603FR-07249KL" H 6530 3105 30  0001 C CNN
F 4 "RC0603FR-07249KL" H 6530 3105 60  0001 C CNN "manf#"
	1    6530 3105
	1    0    0    -1  
$EndComp
$Comp
L main-rescue:GND-RESCUE-main #PWR051
U 1 1 5641E388
P 8110 2955
F 0 "#PWR051" H 8110 2705 50  0001 C CNN
F 1 "GND" H 8110 2805 50  0000 C CNN
F 2 "" H 8110 2955 60  0000 C CNN
F 3 "" H 8110 2955 60  0000 C CNN
	1    8110 2955
	1    0    0    -1  
$EndComp
$Comp
L main-rescue:PWR_FLAG-RESCUE-main #FLG052
U 1 1 56463D2C
P 8110 2505
F 0 "#FLG052" H 8110 2600 50  0001 C CNN
F 1 "PWR_FLAG" H 8110 2685 50  0000 C CNN
F 2 "" H 8110 2505 60  0000 C CNN
F 3 "" H 8110 2505 60  0000 C CNN
	1    8110 2505
	1    0    0    -1  
$EndComp
$Comp
L main-rescue:C-RESCUE-main C51
U 1 1 5645BC41
P 7335 2655
F 0 "C51" H 7360 2755 50  0000 L CNN
F 1 "100u" H 7360 2555 50  0000 L CNN
F 2 "multispeq:C_1210" H 7373 2505 30  0001 C CNN
F 3 "CL32A107MPVNNNE" H 7335 2655 60  0001 C CNN
F 4 "CL32A107MPVNNNE" H 7335 2655 60  0001 C CNN "manf#"
	1    7335 2655
	1    0    0    -1  
$EndComp
$Comp
L main-rescue:C-RESCUE-main C55
U 1 1 5645C331
P 8110 2680
F 0 "C55" H 7935 2580 50  0000 L CNN
F 1 "100u" H 8135 2580 50  0000 L CNN
F 2 "multispeq:C_1210" H 8148 2530 30  0001 C CNN
F 3 "CL32A107MPVNNNE" H 8110 2680 60  0001 C CNN
F 4 "CL32A107MPVNNNE" H 8110 2680 60  0001 C CNN "manf#"
	1    8110 2680
	1    0    0    -1  
$EndComp
$Comp
L main-rescue:C-RESCUE-main C44
U 1 1 566049B8
P 4580 2755
F 0 "C44" H 4605 2855 50  0000 L CNN
F 1 "10u" H 4605 2655 50  0000 L CNN
F 2 "multispeq:c_0603" H 4618 2605 30  0001 C CNN
F 3 "GRM188R61A106KE69D" H 4580 2755 60  0001 C CNN
F 4 "GRM188R61A106KE69D" H 4580 2755 60  0001 C CNN "manf#"
	1    4580 2755
	1    0    0    -1  
$EndComp
Text HLabel 5735 5360 0    60   Input ~ 0
DC/DC_on
Wire Wire Line
	5430 2605 4830 2605
Wire Wire Line
	8110 2830 8110 2955
Connection ~ 8110 2505
Wire Wire Line
	8110 2530 8110 2505
Wire Wire Line
	8060 2505 8110 2505
Connection ~ 4580 2405
Wire Wire Line
	4580 2405 4580 2605
Wire Wire Line
	6230 2305 6430 2305
Wire Wire Line
	6230 2405 6230 2305
Wire Wire Line
	6730 2905 6730 2855
Connection ~ 6530 2905
Wire Wire Line
	6530 2855 6530 2905
Wire Wire Line
	6430 2905 6530 2905
Connection ~ 4680 2405
Wire Wire Line
	4680 2405 4680 2505
Wire Wire Line
	5180 2505 5430 2505
Wire Wire Line
	4530 2405 4580 2405
Wire Wire Line
	6230 2905 6230 2705
Wire Wire Line
	6430 2605 6430 2905
Wire Wire Line
	6230 2605 6430 2605
Connection ~ 6530 2505
Wire Wire Line
	6530 2505 6530 2555
Connection ~ 6730 2505
Wire Wire Line
	6730 2505 6730 2555
Wire Wire Line
	6230 2505 6530 2505
Wire Wire Line
	5735 4810 6060 4810
Wire Wire Line
	6585 4510 6585 4610
Connection ~ 6585 4610
Connection ~ 6585 4710
Wire Wire Line
	6385 5110 6060 5110
$Comp
L main-rescue:Q_NMOS_GDS-RESCUE-main Q11
U 1 1 56A38620
P 6285 5360
F 0 "Q11" H 6585 5410 50  0000 R CNN
F 1 "Q_NMOS_GDS" H 6935 5310 50  0000 R CNN
F 2 "multispeq:sot23" H 6485 5460 29  0001 C CNN
F 3 "2N7002-TP" H 6285 5360 60  0001 C CNN
F 4 "2N7002-TP" H 6285 5360 60  0001 C CNN "manf#"
	1    6285 5360
	1    0    0    -1  
$EndComp
Wire Wire Line
	6385 5110 6385 5160
Wire Wire Line
	5735 5360 5985 5360
$Comp
L main-rescue:GND-RESCUE-main #PWR053
U 1 1 56A3C69B
P 6385 5560
F 0 "#PWR053" H 6385 5310 50  0001 C CNN
F 1 "GND" H 6385 5410 50  0000 C CNN
F 2 "" H 6385 5560 60  0000 C CNN
F 3 "" H 6385 5560 60  0000 C CNN
	1    6385 5560
	1    0    0    -1  
$EndComp
Text HLabel 5735 4810 0    60   Input ~ 0
Vbatt
Connection ~ 6060 4810
Wire Wire Line
	6585 4810 6755 4810
$Comp
L main-rescue:R-RESCUE-main R53
U 1 1 56A440EC
P 6060 4960
F 0 "R53" V 6140 4960 50  0000 C CNN
F 1 "2K" V 6060 4960 50  0000 C CNN
F 2 "multispeq:r_0603" V 5990 4960 30  0001 C CNN
F 3 "RC0603JR-072KL" H 6060 4960 30  0001 C CNN
F 4 "RC0603JR-072KL" H 6060 4960 60  0001 C CNN "manf#"
	1    6060 4960
	-1   0    0    1   
$EndComp
$Comp
L main-rescue:R-RESCUE-main R52
U 1 1 56A575BE
P 5985 5510
F 0 "R52" V 6065 5510 50  0000 C CNN
F 1 "130K" V 5985 5510 50  0000 C CNN
F 2 "multispeq:r_0603" V 5915 5510 30  0001 C CNN
F 3 "RC0603JR-07130KL" H 5985 5510 30  0001 C CNN
F 4 "RC0603JR-07130KL" H 5985 5510 60  0001 C CNN "manf#"
	1    5985 5510
	-1   0    0    1   
$EndComp
$Comp
L main-rescue:GND-RESCUE-main #PWR054
U 1 1 56A579CC
P 5985 5660
F 0 "#PWR054" H 5985 5410 50  0001 C CNN
F 1 "GND" H 5985 5510 50  0000 C CNN
F 2 "" H 5985 5660 60  0000 C CNN
F 3 "" H 5985 5660 60  0000 C CNN
	1    5985 5660
	1    0    0    -1  
$EndComp
Connection ~ 5985 5360
$Comp
L main-rescue:MOSP-TSOP6-RESCUE-main Q12
U 1 1 56A1EBEA
P 6385 4910
F 0 "Q12" H 6635 4860 40  0000 C CNN
F 1 "P-MOS" H 6735 4960 60  0000 C CNN
F 2 "multispeq:sc70-6L" H 6685 4760 60  0001 C CNN
F 3 "SIA461DJ-T1-GE3" H 6435 4910 60  0001 C CNN
F 4 "SIA461DJ-T1-GE3" H 6385 4910 60  0001 C CNN "manf#"
	1    6385 4910
	0    1    -1   0   
$EndComp
Text Notes 5830 2005 0    60   ~ 0
Batt to +6V @ 1A
Text Notes 4410 2300 0    60   ~ 0
Was SRN4026-1R0Y
$Comp
L main-rescue:INDUCTOR_SMALL-RESCUE-main L6
U 1 1 5641D904
P 7810 2505
F 0 "L6" H 7810 2605 50  0000 C CNN
F 1 "ferrite" H 7810 2455 50  0000 C CNN
F 2 "multispeq:r_0805" H 7810 2505 60  0001 C CNN
F 3 "MI0805K601R-10" H 7810 2505 60  0001 C CNN
F 4 "MI0805K601R-10" H 7810 2505 60  0001 C CNN "manf#"
	1    7810 2505
	-1   0    0    1   
$EndComp
NoConn ~ 5430 2705
Wire Wire Line
	8110 2505 8410 2505
Wire Wire Line
	4580 2405 4680 2405
Wire Wire Line
	6530 2905 6530 2955
Wire Wire Line
	6530 2905 6730 2905
Wire Wire Line
	4680 2405 5280 2405
Wire Wire Line
	6530 2505 6730 2505
Wire Wire Line
	6585 4610 6585 4710
Wire Wire Line
	6585 4710 6585 4810
Wire Wire Line
	6060 4810 6185 4810
Wire Wire Line
	5985 5360 6085 5360
Wire Wire Line
	6230 2905 5280 2905
Wire Wire Line
	5280 2905 5280 2405
Connection ~ 5280 2405
Wire Wire Line
	5280 2405 5430 2405
Wire Wire Line
	6530 3255 6530 3355
$Comp
L main-rescue:C-RESCUE-main C18
U 1 1 5AAFC2FE
P 4830 2755
F 0 "C18" H 4855 2855 50  0000 L CNN
F 1 "10u" H 4855 2655 50  0000 L CNN
F 2 "multispeq:c_0603" H 4868 2605 30  0001 C CNN
F 3 "GRM188R61A106KE69D" H 4830 2755 60  0001 C CNN
F 4 "GRM188R61A106KE69D" H 4830 2755 60  0001 C CNN "manf#"
	1    4830 2755
	1    0    0    -1  
$EndComp
Connection ~ 4830 2605
Wire Wire Line
	4830 2605 4580 2605
Connection ~ 4580 2605
$Comp
L main-rescue:GND-RESCUE-main #PWR044
U 1 1 5612A625
P 4580 2905
F 0 "#PWR044" H 4580 2655 50  0001 C CNN
F 1 "GND" H 4580 2755 50  0000 C CNN
F 2 "" H 4580 2905 60  0000 C CNN
F 3 "" H 4580 2905 60  0000 C CNN
	1    4580 2905
	1    0    0    -1  
$EndComp
Wire Wire Line
	4830 2905 4580 2905
Wire Wire Line
	4580 2905 4580 2900
Connection ~ 4580 2905
$Comp
L main-rescue:C-RESCUE-main C19
U 1 1 5AB02B4A
P 7030 2655
F 0 "C19" H 7055 2755 50  0000 L CNN
F 1 "10u" H 7055 2555 50  0000 L CNN
F 2 "multispeq:c_0603" H 7068 2505 30  0001 C CNN
F 3 "GRM188R61A106KE69D" H 7030 2655 60  0001 C CNN
F 4 "GRM188R61A106KE69D" H 7030 2655 60  0001 C CNN "manf#"
	1    7030 2655
	1    0    0    -1  
$EndComp
Connection ~ 7030 2505
Wire Wire Line
	6730 2505 7030 2505
$Comp
L main-rescue:GND-RESCUE-main #PWR040
U 1 1 5AB0378C
P 7030 2805
F 0 "#PWR040" H 7030 2555 50  0001 C CNN
F 1 "GND" H 7030 2655 50  0000 C CNN
F 2 "" H 7030 2805 60  0000 C CNN
F 3 "" H 7030 2805 60  0000 C CNN
	1    7030 2805
	1    0    0    -1  
$EndComp
Wire Wire Line
	7030 2505 7335 2505
Connection ~ 7335 2505
Wire Wire Line
	7335 2505 7560 2505
Connection ~ 6385 5110
Connection ~ 6585 4810
Text Notes 4770 3265 0    60   ~ 0
10u caps must be tight to IC
Text Label 6760 4810 0    60   ~ 0
Vbatt_sw
$Comp
L main-rescue:PWR_FLAG-RESCUE-main #FLG04
U 1 1 5AD11C51
P 6755 4810
F 0 "#FLG04" H 6755 4905 50  0001 C CNN
F 1 "PWR_FLAG" H 6755 4990 50  0000 C CNN
F 2 "" H 6755 4810 60  0000 C CNN
F 3 "" H 6755 4810 60  0000 C CNN
	1    6755 4810
	-1   0    0    1   
$EndComp
Connection ~ 6755 4810
Wire Wire Line
	6755 4810 6760 4810
Text Label 4530 2405 2    60   ~ 0
Vbatt_sw
$EndSCHEMATC
