PCBNEW-LibModule-V1  Tue 07 Jan 2014 12:54:04 PM EST
# encoding utf-8
Units mm
$INDEX
2-SMD-no-lead
CONN12_RIBBON_SMD
CONN12_RIBBON_SMD_reverse
CONN4_RIBBON_SMD
DCQ5
HTU21D
LM5111
Luxeon_Z+
Pin_diode_SIP_down
Switch_2pos_SLS121PC04
TSOP-6
WCSP-8
WCSP-8_2
conn_3_2_minitek127
power_barrel_S
sot23-6
switch_DPTT_js_slide
switch_SPDT_204
$EndINDEX
$MODULE 2-SMD-no-lead
Po 0 0 0 15 5276F412 00000000 ~~
Li 2-SMD-no-lead
Sc 0
AR 
Op 0 0 0
T0 0.025 1.85 1 1 0 0.15 N V 21 N "2-SMD-no-lead"
T1 0.05 -1.875 1 1 0 0.15 N V 21 N "VAL**"
DS -3.15 -0.625 -3.15 0.65 0.15 21
DS -3.15 0.65 3.15 0.65 0.15 21
DS 3.15 0.65 3.15 -0.6 0.15 21
DS 3.15 -0.6 -3.15 -0.6 0.15 21
$PAD
Sh "1" R 2 1 0 0 0
Dr 0 0 0
At SMD N 00888000
Ne 0 ""
Po 2 0
$EndPAD
$PAD
Sh "2" R 2 1 0 0 0
Dr 0 0 0
At SMD N 00888000
Ne 0 ""
Po -2 0
$EndPAD
$EndMODULE 2-SMD-no-lead
$MODULE CONN12_RIBBON_SMD
Po 0 0 0 15 5254C295 00000000 ~~
Li CONN12_RIBBON_SMD
Sc 0
AR /52546FBC
Op 0 0 0
At SMD
T0 -8.1534 1.1938 1.016 1.016 900 0.127 N V 21 N "P2"
T1 0.127 1.524 1.016 1.016 0 0.127 N V 21 N "CONN_12"
DS 7.50062 -2.75082 7.50062 2.75082 0.14986 21
DS -7.50062 -2.75082 7.50062 -2.75082 0.14986 21
DS 7.50062 2.75082 -7.50062 2.75082 0.14986 21
DS -7.50062 2.75082 -7.50062 -2.75082 0.14986 21
$PAD
Sh "9" R 0.64008 3.29946 0 0 0
Dr 0 0 0
At SMD N 00888000
Ne 2 "/AREF"
Po 2.5019 -3.2512
$EndPAD
$PAD
Sh "12" R 0.64008 3.29946 0 0 0
Dr 0 0 0
At SMD N 00888000
Ne 9 "/MEASB_PWM"
Po 5.50418 -3.2512
$EndPAD
$PAD
Sh "11" R 0.64008 3.29946 0 0 0
Dr 0 0 0
At SMD N 00888000
Ne 7 "/MEAS2B_PIN12"
Po 4.50088 -3.2512
$EndPAD
$PAD
Sh "10" R 0.64008 3.29946 0 0 0
Dr 0 0 0
At SMD N 00888000
Ne 8 "/MEASB_PIN11"
Po 3.50266 -3.2512
$EndPAD
$PAD
Sh "5" R 0.64008 3.29946 0 0 0
Dr 0 0 0
At SMD N 00888000
Ne 1 "/+5V"
Po -1.4986 -3.2512
$EndPAD
$PAD
Sh "6" R 0.64008 3.29946 0 0 0
Dr 0 0 0
At SMD N 00888000
Ne 12 "GND"
Po -0.50038 -3.2512
$EndPAD
$PAD
Sh "8" R 0.64008 3.29946 0 0 0
Dr 0 0 0
At SMD N 00888000
Ne 3 "/DETB_A11"
Po 1.50114 -3.2512
$EndPAD
$PAD
Sh "7" R 0.64008 3.29946 0 0 0
Dr 0 0 0
At SMD N 00888000
Ne 4 "/DET_GND"
Po 0.50292 -3.2512
$EndPAD
$PAD
Sh "3" R 0.64008 3.29946 0 0 0
Dr 0 0 0
At SMD N 00888000
Ne 11 "/SATB_PWM"
Po -3.49758 -3.2512
$EndPAD
$PAD
Sh "4" R 0.64008 3.29946 0 0 0
Dr 0 0 0
At SMD N 00888000
Ne 10 "/SATB_PIN2"
Po -2.49936 -3.2512
$EndPAD
$PAD
Sh "2" R 0.64008 3.29946 0 0 0
Dr 0 0 0
At SMD N 00888000
Ne 6 "/IRCALB_PWM"
Po -4.50088 -3.2512
$EndPAD
$PAD
Sh "1" R 0.64008 3.29946 0 0 0
Dr 0 0 0
At SMD N 00888000
Ne 5 "/IRCALB_PIN10"
Po -5.4991 -3.2512
$EndPAD
$PAD
Sh "6" R 0.75946 5.00126 0 0 0
Dr 0 0 0
At SMD N 00888000
Ne 12 "GND"
Po -6.49986 -1.24968
$EndPAD
$PAD
Sh "6" R 0.75946 5.00126 0 0 0
Dr 0 0 0
At SMD N 00888000
Ne 12 "GND"
Po 6.49986 -1.24968
$EndPAD
$SHAPE3D
Na "smd/conn20_smd.wrl"
Sc 0.4 0.4 0.4
Of 0 0 0
Ro 0 0 0
$EndSHAPE3D
$EndMODULE CONN12_RIBBON_SMD
$MODULE CONN12_RIBBON_SMD_reverse
Po 0 0 0 15 525C30D1 00000000 ~~
Li CONN12_RIBBON_SMD_reverse
Sc 0
AR /5254250E
Op 0 0 0
At SMD
T0 -8.1534 1.1938 1.016 1.016 900 0.127 N V 21 N "P1"
T1 0.127 1.524 1.016 1.016 0 0.127 N V 21 N "CONN_12"
DS 7.50062 -2.75082 7.50062 2.75082 0.14986 21
DS -7.50062 -2.75082 7.50062 -2.75082 0.14986 21
DS 7.50062 2.75082 -7.50062 2.75082 0.14986 21
DS -7.50062 2.75082 -7.50062 -2.75082 0.14986 21
$PAD
Sh "9" R 0.64008 3.29946 0 0 0
Dr 0 0 0
At SMD N 00888000
Ne 10 "/SATB_PIN2"
Po 2.5019 -3.2512
$EndPAD
$PAD
Sh "12" R 0.64008 3.29946 0 0 0
Dr 0 0 0
At SMD N 00888000
Ne 5 "/IRCALB_PIN10"
Po 5.50418 -3.2512
$EndPAD
$PAD
Sh "11" R 0.64008 3.29946 0 0 0
Dr 0 0 0
At SMD N 00888000
Ne 6 "/IRCALB_PWM"
Po 4.50088 -3.2512
$EndPAD
$PAD
Sh "10" R 0.64008 3.29946 0 0 0
Dr 0 0 0
At SMD N 00888000
Ne 11 "/SATB_PWM"
Po 3.50266 -3.2512
$EndPAD
$PAD
Sh "5" R 0.64008 3.29946 0 0 0
Dr 0 0 0
At SMD N 00888000
Ne 3 "/DETB_A11"
Po -1.4986 -3.2512
$EndPAD
$PAD
Sh "6" R 0.64008 3.29946 0 0 0
Dr 0 0 0
At SMD N 00888000
Ne 4 "/DET_GND"
Po -0.50038 -3.2512
$EndPAD
$PAD
Sh "8" R 0.64008 3.29946 0 0 0
Dr 0 0 0
At SMD N 00888000
Ne 1 "/+5V"
Po 1.50114 -3.2512
$EndPAD
$PAD
Sh "7" R 0.64008 3.29946 0 0 0
Dr 0 0 0
At SMD N 00888000
Ne 12 "GND"
Po 0.50292 -3.2512
$EndPAD
$PAD
Sh "3" R 0.64008 3.29946 0 0 0
Dr 0 0 0
At SMD N 00888000
Ne 7 "/MEAS1B_PIN11"
Po -3.49758 -3.2512
$EndPAD
$PAD
Sh "4" R 0.64008 3.29946 0 0 0
Dr 0 0 0
At SMD N 00888000
Ne 2 "/AREF"
Po -2.49936 -3.2512
$EndPAD
$PAD
Sh "2" R 0.64008 3.29946 0 0 0
Dr 0 0 0
At SMD N 00888000
Ne 8 "/MEAS2B_PIN12"
Po -4.50088 -3.2512
$EndPAD
$PAD
Sh "1" R 0.64008 3.29946 0 0 0
Dr 0 0 0
At SMD N 00888000
Ne 9 "/MEASB_PWM"
Po -5.4991 -3.2512
$EndPAD
$PAD
Sh "7" R 0.75946 5.00126 0 0 0
Dr 0 0 0
At SMD N 00888000
Ne 12 "GND"
Po -6.49986 -1.24968
$EndPAD
$PAD
Sh "7" R 0.75946 5.00126 0 0 0
Dr 0 0 0
At SMD N 00888000
Ne 12 "GND"
Po 6.49986 -1.24968
$EndPAD
$SHAPE3D
Na "smd/conn20_smd.wrl"
Sc 0.4 0.4 0.4
Of 0 0 0
Ro 0 0 0
$EndSHAPE3D
$EndMODULE CONN12_RIBBON_SMD_reverse
$MODULE CONN4_RIBBON_SMD
Po 0 0 0 15 527BDDCD 00000000 ~~
Li CONN4_RIBBON_SMD
Cd 12 pin ribbon connector
Kw HFW4R-1STE1LF, FCI
Sc 0
AR /527AC5D4
Op 0 0 0
At SMD
T0 -8.1534 1.1938 1.016 1.016 900 0.127 N V 21 N "P5"
T1 0.127 1.524 1.016 1.016 0 0.127 N V 21 N "CONN_4"
DS -7.5 2.75 -0.5 2.75 0.1 21
DS -7.5 -2.75 -0.5 -2.75 0.1 21
DS -0.49938 -2.75082 -0.49938 2.75082 0.1 21
DS -7.50062 2.75082 -7.50062 -2.75082 0.1 21
$PAD
Sh "3" R 0.64008 3.29946 0 0 0
Dr 0 0 0
At SMD N 00888000
Ne 4 "/DET_GND"
Po -3.49758 -3.2512
$EndPAD
$PAD
Sh "4" R 0.64008 3.29946 0 0 0
Dr 0 0 0
At SMD N 00888000
Ne 1 "/+5V"
Po -2.49936 -3.2512
$EndPAD
$PAD
Sh "2" R 0.64008 3.29946 0 0 0
Dr 0 0 0
At SMD N 00888000
Ne 3 "/DETC"
Po -4.50088 -3.2512
$EndPAD
$PAD
Sh "1" R 0.64008 3.29946 0 0 0
Dr 0 0 0
At SMD N 00888000
Ne 2 "/AREF"
Po -5.4991 -3.2512
$EndPAD
$PAD
Sh "5" R 0.75946 5.00126 0 0 0
Dr 0 0 0
At SMD N 00888000
Ne 0 ""
Po -6.49986 -1.24968
$EndPAD
$PAD
Sh "5" R 0.75946 5.00126 0 0 0
Dr 0 0 0
At SMD N 00888000
Ne 0 ""
Po -1.5 -1.25
$EndPAD
$SHAPE3D
Na "smd/conn20_smd.wrl"
Sc 0.4 0.4 0.4
Of 0 0 0
Ro 0 0 0
$EndSHAPE3D
$EndMODULE CONN4_RIBBON_SMD
$MODULE DCQ5
Po 0 0 0 15 51DB1EF1 00000000 ~~
Li DCQ5
Cd DCQ5
Sc 0
AR /51CDDD61
Op 0 0 0
At SMD
T0 0.0508 -0.8382 0.5 0.5 0 0.125 N V 21 N "U109"
T1 0 1.0414 0.5 0.5 0 0.125 N I 21 N "TL1963"
DS -1.5494 -3.6449 1.5494 -3.6449 0.127 21
DS 1.5494 -3.6449 1.5494 -1.8542 0.127 21
DS -1.5494 -3.6449 -1.5494 -1.8542 0.127 21
DS 3.3528 1.8542 -3.3528 1.8542 0.127 21
DS -3.3528 1.8542 -3.3528 -1.8542 0.127 21
DS -3.3528 -1.8542 3.3528 -1.8542 0.127 21
DS 3.3528 -1.8542 3.3528 1.8542 0.127 21
$PAD
Sh "1" R 0.6 2.2 0 0 0
Dr 0 0 0
At SMD N 00888000
Ne 4 "N-0000063"
Po -2.54 3.1
$EndPAD
$PAD
Sh "2" R 0.6 2.2 0 0 0
Dr 0 0 0
At SMD N 00888000
Ne 4 "N-0000063"
Po -1.27 3.1
$EndPAD
$PAD
Sh "3" R 0.6 2.2 0 0 0
Dr 0 0 0
At SMD N 00888000
Ne 1 "/DET_GND"
Po 0 3.1
$EndPAD
$PAD
Sh "3" R 3.79984 2.2 0 0 0
Dr 0 0 0
At SMD N 00888000
Ne 1 "/DET_GND"
Po 0 -3.1
$EndPAD
$PAD
Sh "4" R 0.6 2.2 0 0 0
Dr 0 0 0
At SMD N 00888000
Ne 2 "/DetVcc"
Po 1.27 3.1
$EndPAD
$PAD
Sh "5" R 0.6 2.2 0 0 0
Dr 0 0 0
At SMD N 00888000
Ne 3 "N-000006"
Po 2.54 3.1
$EndPAD
$SHAPE3D
Na "walter\\smd_trans\\sot223.wrl"
Sc 1 1 1
Of 0 0 0
Ro 0 0 0
$EndSHAPE3D
$EndMODULE DCQ5
$MODULE HTU21D
Po 0 0 0 15 52CC3F38 00000000 ~~
Li HTU21D
Cd Plastic QFP, ON DFN6
Sc 0
AR /51E06B99
Op 0 0 0
T0 -2.04724 1.60274 0.5 0.5 900 0.125 N V 21 N "U111"
T1 2.2098 2.2098 0.5 0.5 0 0.125 N V 21 N "HTU21D"
DS -1.6002 1.30048 -1.6002 1.6002 0.127 21
DS -1.6002 1.6002 -1.30048 1.6002 0.127 21
DS -1.30048 1.6002 -1.6002 1.30048 0.127 21
DC -0.99822 0.89916 -1.09982 1.09728 0.19812 21
DS -1.50114 -1.50114 1.50114 -1.50114 0.127 21
DS 1.50114 -1.50114 1.50114 1.50114 0.127 21
DS 1.50114 1.50114 -1.50114 1.50114 0.127 21
DS -1.50114 1.50114 -1.50114 -1.50114 0.127 21
$PAD
Sh "1" R 0.34798 0.62738 0 0 0
Dr 0 0 0
At SMD N 00888000
Ne 3 "/sda"
Po -1 1.3
.SolderMask 0.06858
$EndPAD
$PAD
Sh "2" R 0.34798 0.62738 0 0 0
Dr 0 0 0
At SMD N 00888000
Ne 4 "GND"
Po 0 1.3
.SolderMask 0.06858
$EndPAD
$PAD
Sh "3" R 0.33 0.62738 0 0 0
Dr 0 0 0
At SMD N 00888000
Ne 0 ""
Po 1 1.3
.SolderMask 0.06858
$EndPAD
$PAD
Sh "4" R 0.34798 0.62738 0 0 0
Dr 0 0 0
At SMD N 00888000
Ne 0 ""
Po 1 -1.3
.SolderMask 0.06858
$EndPAD
$PAD
Sh "5" R 0.34798 0.62738 0 0 0
Dr 0 0 0
At SMD N 00888000
Ne 1 "/3.3Vdd"
Po 0 -1.3
.SolderMask 0.06858
$EndPAD
$PAD
Sh "6" R 0.34798 0.62738 0 0 0
Dr 0 0 0
At SMD N 00888000
Ne 2 "/sck"
Po -1 -1.3
.SolderMask 0.06858
$EndPAD
$PAD
Sh "2" R 2.2 1.3 0 0 0
Dr 0 0 0
At SMD N 00888000
Ne 4 "GND"
Po 0.01 -0.04
$EndPAD
$SHAPE3D
Na "walter\\smd_qfn\\dfn8.wrl"
Sc 1 1 1
Of 0 0 0
Ro 0 0 0
$EndSHAPE3D
$EndMODULE HTU21D
$MODULE LM5111
Po 0 0 0 15 52693620 00000000 ~~
Li LM5111
Sc 0
AR /521F678B
Op 0 0 0
T0 0 0.635 0.5 0.5 0 0.125 N V 21 N "U104"
T1 0 -0.762 0.5 0.5 0 0.125 N V 21 N "LM5111"
DS -0.3175 1.5875 -1.5875 0.381 0.2032 21
DS -1.5875 1.5875 1.5875 1.5875 0.2032 21
DS 1.5875 1.5875 1.5875 -1.5875 0.2032 21
DS 1.5875 -1.5875 -1.5875 -1.5875 0.2032 21
DS -1.5875 -1.5875 -1.5875 1.5875 0.2032 21
$PAD
Sh "1" R 0.381 1.27 0 0 0
Dr 0 0 0
At SMD N 00888000
Ne 0 ""
Po -0.97536 2.159
$EndPAD
$PAD
Sh "2" R 0.381 1.27 0 0 0
Dr 0 0 0
At SMD N 00888000
Ne 1 "/Umeas1"
Po -0.32512 2.159
$EndPAD
$PAD
Sh "3" R 0.381 1.27 0 0 0
Dr 0 0 0
At SMD N 00888000
Ne 3 "GND"
Po 0.32512 2.159
$EndPAD
$PAD
Sh "4" R 0.381 1.27 0 0 0
Dr 0 0 0
At SMD N 00888000
Ne 2 "/Umeas2"
Po 0.97536 2.159
$EndPAD
$PAD
Sh "5" R 0.381 1.27 0 0 0
Dr 0 0 0
At SMD N 00888000
Ne 6 "N-0000015"
Po 0.97536 -2.159
$EndPAD
$PAD
Sh "6" R 0.381 1.27 0 0 0
Dr 0 0 0
At SMD N 00888000
Ne 4 "N-0000012"
Po 0.32512 -2.159
$EndPAD
$PAD
Sh "7" R 0.381 1.27 0 0 0
Dr 0 0 0
At SMD N 00888000
Ne 5 "N-0000014"
Po -0.32512 -2.159
$EndPAD
$PAD
Sh "8" R 0.381 1.27 0 0 0
Dr 0 0 0
At SMD N 00888000
Ne 0 ""
Po -0.97536 -2.159
$EndPAD
$PAD
Sh "3" R 1.85 1.73 0 0 0
Dr 0 0 0
At SMD N 00888000
Ne 0 ""
Po 0 0
$EndPAD
$SHAPE3D
Na "smd/MSOP_8.wrl"
Sc 0.3937 0.3937 0.3937
Of 0 0 0.001
Ro 0 0 0
$EndSHAPE3D
$EndMODULE LM5111
$MODULE Luxeon_Z+
Po 0 0 0 15 524DAF46 00000000 ~~
Li Luxeon_Z+
Cd Philips Lumileds Luxeon Z
Kw Luxeon Z
Sc 0
AR /5182EBC9
Op 0 0 0
T0 0.20066 -1.62052 0.5 0.5 0 0.1 N V 21 N "D103"
T1 0.10922 1.21412 0.5 0.5 0 0.05 N V 21 N "MEAS1A"
DS 0.55 -0.75 -0.55 0.25 0.02 21
DS 0.55 -0.75 0.55 0.25 0.02 21
DS 0.55 0.25 -0.55 0.25 0.02 21
DS -0.55 0.25 -0.55 -0.75 0.02 21
DS -0.55 -0.75 0.55 0.25 0.02 21
DS -0.55 -0.75 0.55 -0.75 0.02 21
DS -0.65 -0.85 0.65 -0.85 0.05 21
DS 0.65 -0.85 0.65 0.85 0.05 21
DS 0.65 0.85 -0.65 0.85 0.05 21
DS -0.65 0.85 -0.65 -0.85 0.05 21
$PAD
Sh "2" R 1.3 1.5 0 0 0
Dr 0 0 0
At SMD N 00008000
Ne 1 "N-000002"
Po -0.775 0
$EndPAD
$PAD
Sh "1" R 1.3 1.5 0 0 0
Dr 0 0 0
At SMD N 00008000
Ne 2 "N-0000026"
Po 0.775 0
$EndPAD
$SHAPE3D
Na "walter\\smd_leds\\luxeon_m.wrl"
Sc 1 1 1
Of 0 0 0
Ro 0 0 0
$EndSHAPE3D
$EndMODULE Luxeon_Z+
$MODULE Pin_diode_SIP_down
Po 0 0 0 15 52288FE6 00000000 ~~
Li Pin_diode_SIP_down
Cd Pin photodiode flat
Kw PIN photo diode flat hammamatsu
Sc 0
AR /516F0A66
Op 0 0 0
T0 0.1143 -4.5593 0.5 0.5 0 0.125 N V 21 N "D105"
T1 0.0254 4.7752 0.5 0.5 0 0.125 N I 21 N "DETA"
DS -2.18694 -3.5687 -3.44678 -2.32918 0.15 21
DS -2.39776 -2.2479 2.4003 2.25044 0.15 21
DS -2.39268 2.2352 2.4003 -2.25044 0.15 21
DS -2.4 -2.25 2.4 -2.25 0.15 21
DS 2.4 -2.25 2.4 2.25 0.15 21
DS 2.4 2.25 -2.4 2.25 0.15 21
DS -2.4 2.25 -2.4 -2.25 0.15 21
DS 3.5 -3.65 -3.5 -3.65 0.3048 21
DS -3.5 4.15 3.5 4.15 0.3048 21
DS -3.5 -3.65 -3.5127 4.15 0.3048 21
DS 3.5 -3.65 3.4873 4.15 0.3048 21
$PAD
Sh "1" R 1.524 2.19964 0 0 0
Dr 1.00076 0 0
At STD N 00E0FFFF
Ne 1 "/DET_GND"
Po -2.54 7.65
$EndPAD
$PAD
Sh "2" O 1.524 2.19964 0 0 0
Dr 1.00076 0 0
At STD N 00E0FFFF
Ne 2 "/pinK"
Po 2.54 7.65
$EndPAD
$SHAPE3D
Na "walter\\pin_strip\\pin_strip_4.wrl"
Sc 1 1 1
Of 0 0 0
Ro 0 0 0
$EndSHAPE3D
$EndMODULE Pin_diode_SIP_down
$MODULE Switch_2pos_SLS121PC04
Po 0 0 0 15 525F5629 00000000 ~~
Li Switch_2pos_SLS121PC04
Sc 0
AR 
Op 0 0 0
T0 0.03 2.05 0.5 0.5 0 0.125 N V 21 N "Switch_2pos_SLS121PC04"
T1 0 0 0.5 0.5 0 0.125 N V 21 N "VAL**"
DS 5.5 0 5.5 1.7 0.02 21
DS 3.8 -10 5 -10 0.02 21
DS 5 -10 5 -5 0.02 21
DS 5 -5 9 -5 0.02 21
DS 1.9 -10 3.8 -10 0.02 21
DS 1.9 -5 1.9 -10 0.02 21
DS 9 -5 11 -5 0.02 21
DS 11 -5 11 0 0.02 21
DS 11 0 0 0 0.02 21
DS 0 0 0 -5 0.02 21
DS 0 -5 1.9 -5 0.02 21
$PAD
Sh "3" R 0.8128 4.318 0 0 0
Dr 0 0 0
At SMD N 00888000
Ne 0 ""
Po 2.23 2.158
$EndPAD
$PAD
Sh "4" R 0.8128 4.318 0 0 0
Dr 0 0 0
At SMD N 00888000
Ne 0 ""
Po 5.52 2.168
$EndPAD
$PAD
Sh "5" R 0.8128 4.318 0 0 0
Dr 0 0 0
At SMD N 00888000
Ne 0 ""
Po 8.77 2.158
$EndPAD
$EndMODULE Switch_2pos_SLS121PC04
$MODULE TSOP-6
Po 0 0 0 15 52152220 00000000 ~~
Li TSOP-6
Cd TSOP-6
Kw TSOP-6
Sc 0
AR /51D461CD
Op 0 0 0
At SMD
T0 -2.35204 -1.28524 0.5 0.5 0 0.125 N V 21 N "Q103"
T1 -1.74752 -0.09398 0.5 0.5 0 0.125 N I 21 N "MOSN-TSOP6"
DS -0.8509 0.6985 -1.4986 0.0508 0.127 21
DS -1.0033 0.6985 -1.4986 0.2032 0.127 21
DS -1.4986 -0.8 1.4986 -0.8 0.127 21
DS 1.4986 -0.8 1.4986 0.8 0.127 21
DS 1.4986 0.8 -1.4986 0.8 0.127 21
DS -1.4986 0.8 -1.4986 -0.8 0.127 21
$PAD
Sh "1" R 0.59944 1.00076 0 0 0
Dr 0 0 0
At SMD N 00888000
Ne 2 "N-000002"
Po -0.8 1.2
$EndPAD
$PAD
Sh "3" R 0.59944 1.00076 0 0 0
Dr 0 0 0
At SMD N 00888000
Ne 3 "N-0000024"
Po 0.8 1.2
$EndPAD
$PAD
Sh "2" R 0.59944 1.00076 0 0 0
Dr 0 0 0
At SMD N 00888000
Ne 2 "N-000002"
Po 0 1.2
$EndPAD
$PAD
Sh "4" R 0.59944 1.00076 0 0 0
Dr 0 0 0
At SMD N 00888000
Ne 1 "GND"
Po 0.8 -1.2
$EndPAD
$PAD
Sh "6" R 0.59944 1.00076 0 0 0
Dr 0 0 0
At SMD N 00888000
Ne 2 "N-000002"
Po -0.8 -1.2
$EndPAD
$PAD
Sh "5" R 0.59944 1.00076 0 0 0
Dr 0 0 0
At SMD N 00888000
Ne 2 "N-000002"
Po 0 -1.2
$EndPAD
$SHAPE3D
Na "walter\\smd_trans\\sot23-6.wrl"
Sc 1 1 1
Of 0 0 0
Ro 0 0 0
$EndSHAPE3D
$EndMODULE TSOP-6
$MODULE WCSP-8
Po 0 0 0 15 5273C1CD 00000000 ~~
Li WCSP-8
Kw yzf, WCSP-8, tmp006
Sc 0
AR /522F8928
Op 0 0 0
At SMD
T0 -0.0254 -0.9144 0.2 0.2 0 0.02 N V 21 N "U113"
T1 0.0254 0.9652 0.2 0.2 0 0.02 N V 21 N "TMP006"
DS -0.7874 -0.7874 0.7874 -0.7874 0.02 21
DS 0.7874 -0.7874 0.7874 0.7874 0.02 21
DS 0.7874 0.7874 -0.7874 0.7874 0.02 21
DS -0.7874 0.7874 -0.7874 -0.7874 0.02 21
$PAD
Sh "a1" C 0.3 0.3 0 0 0
Dr 0 0 0
At SMD N 00888000
Ne 4 "GND"
Po -0.5 -0.5
$EndPAD
$PAD
Sh "a2" C 0.3 0.3 0 0 0
Dr 0 0 0
At SMD N 00888000
Ne 4 "GND"
Po 0 -0.5
$EndPAD
$PAD
Sh "a3" C 0.3 0.3 0 0 0
Dr 0 0 0
At SMD N 00888000
Ne 1 "/3.3Vdd"
Po 0.5 -0.5
.LocalClearance 0.2
$EndPAD
$PAD
Sh "b3" C 0.3 0.3 0 0 0
Dr 0 0 0
At SMD N 00888000
Ne 2 "/sck"
Po 0.5 0
$EndPAD
$PAD
Sh "c3" C 0.3 0.3 0 0 0
Dr 0 0 0
At SMD N 00888000
Ne 3 "/sda"
Po 0.5 0.5
$EndPAD
$PAD
Sh "c2" C 0.3 0.3 0 0 0
Dr 0 0 0
At SMD N 00888000
Ne 0 ""
Po 0 0.5
$EndPAD
$PAD
Sh "c1" C 0.3 0.3 0 0 0
Dr 0 0 0
At SMD N 00888000
Ne 3 "/sda"
Po -0.5 0.5
$EndPAD
$PAD
Sh "b1" C 0.3 0.3 0 0 0
Dr 0 0 0
At SMD N 00888000
Ne 4 "GND"
Po -0.5 0
$EndPAD
$PAD
Sh "1" R 0.35 0.35 0 0 0
Dr 0 0 0
At SMD N 00888000
Ne 4 "GND"
Po 0 0
$EndPAD
$PAD
Sh "2" R 0.2 0.4 0 0 0
Dr 0 0 0
At SMD N 00888000
Ne 4 "GND"
Po 0 -0.35
$EndPAD
$EndMODULE WCSP-8
$MODULE WCSP-8_2
Po 0 0 0 15 5273D2E3 00000000 ~~
Li WCSP-8_2
Kw yzf, WCSP-8, tmp006
Sc 0
AR /522F8928
Op 0 0 0
At SMD
T0 -0.0254 -0.9144 0.2 0.2 0 0.02 N V 21 N "U113"
T1 0.0254 0.9652 0.2 0.2 0 0.02 N V 21 N "TMP006"
DS -0.7874 -0.7874 0.7874 -0.7874 0.02 21
DS 0.7874 -0.7874 0.7874 0.7874 0.02 21
DS 0.7874 0.7874 -0.7874 0.7874 0.02 21
DS -0.7874 0.7874 -0.7874 -0.7874 0.02 21
$PAD
Sh "a1" C 0.3 0.3 0 0 0
Dr 0 0 0
At SMD N 00888000
Ne 4 "GND"
Po -0.5 -0.5
$EndPAD
$PAD
Sh "a2" C 0.3 0.3 0 0 0
Dr 0 0 0
At SMD N 00888000
Ne 4 "GND"
Po 0 -0.5
$EndPAD
$PAD
Sh "a3" C 0.3 0.3 0 0 0
Dr 0 0 0
At SMD N 00888000
Ne 1 "/3.3Vdd"
Po 0.5 -0.5
.LocalClearance 0.2
$EndPAD
$PAD
Sh "b3" C 0.3 0.3 0 0 0
Dr 0 0 0
At SMD N 00888000
Ne 2 "/sck"
Po 0.5 0
$EndPAD
$PAD
Sh "c3" C 0.3 0.3 0 0 0
Dr 0 0 0
At SMD N 00888000
Ne 3 "/sda"
Po 0.5 0.5
$EndPAD
$PAD
Sh "c2" C 0.3 0.3 0 0 0
Dr 0 0 0
At SMD N 00888000
Ne 0 ""
Po 0 0.5
$EndPAD
$PAD
Sh "c1" C 0.3 0.3 0 0 0
Dr 0 0 0
At SMD N 00888000
Ne 3 "/sda"
Po -0.5 0.5
$EndPAD
$PAD
Sh "b1" C 0.3 0.3 0 0 0
Dr 0 0 0
At SMD N 00888000
Ne 4 "GND"
Po -0.5 0
$EndPAD
$PAD
Sh "1" R 0.35 0.35 0 0 0
Dr 0 0 0
At SMD N 00888000
Ne 0 ""
Po 0 0
$EndPAD
$EndMODULE WCSP-8_2
$MODULE conn_3_2_minitek127
Po 0 0 0 15 527BB9A1 00000000 ~~
Li conn_3_2_minitek127
Sc 0
AR /527AAA1C
Op 0 0 0
T0 0 2.275 0.5 0.5 0 0.125 N V 21 N "P4"
T1 0 -0.51 0.5 0.5 0 0.125 N V 21 N "CONN_3X2"
DS -1.9 -1.5 1.9 -1.5 0.02 21
DS 1.9 -1.5 1.9 1.5 0.02 21
DS 1.9 1.5 -1.9 1.5 0.02 21
DS -1.9 1.5 -1.9 -1.5 0.02 21
$PAD
Sh "3" R 0.76 2.05 0 0 0
Dr 0 0 0
At SMD N 00888000
Ne 3 "/MEAS2C+"
Po 0 1.4
$EndPAD
$PAD
Sh "1" R 0.76 2.05 0 0 0
Dr 0 0 0
At SMD N 00888000
Ne 1 "/MEAS1C+"
Po 1.27 1.4
$EndPAD
$PAD
Sh "5" R 0.76 2.05 0 0 0
Dr 0 0 0
At SMD N 00888000
Ne 5 "/SATC+"
Po -1.27 1.4
$EndPAD
$PAD
Sh "6" R 0.76 2.05 0 0 0
Dr 0 0 0
At SMD N 00888000
Ne 6 "/SATC-"
Po -1.27 -1.4
$EndPAD
$PAD
Sh "4" R 0.76 2.05 0 0 0
Dr 0 0 0
At SMD N 00888000
Ne 4 "/MEAS2C-"
Po 0 -1.4
$EndPAD
$PAD
Sh "2" R 0.76 2.05 0 0 0
Dr 0 0 0
At SMD N 00888000
Ne 2 "/MEAS1C-"
Po 1.27 -1.4
$EndPAD
$EndMODULE conn_3_2_minitek127
$MODULE power_barrel_S
Po 0 0 0 15 52308184 00000000 ~~
Li power_barrel_S
Cd http://www.cui.com/product/resource/pj-028-smt.pdf
Kw power barrel SMD PJ-028-SMT
Sc 0
AR /51D471D7
Op 0 0 0
At SMD
T0 2.84226 6.43382 0.5 0.5 0 0.125 N V 21 N "P114"
T1 2.40538 4.08686 0.5 0.5 0 0.125 N V 21 N "CONN_2"
DS 3.00482 -2.60096 4.0005 -1.30048 0.15 21
DS -3 2.6 -3 3.4 0.15 21
DS -3 3.4 6.4 3.4 0.15 21
DS 6.4 3.3 6.4 -1.3 0.15 21
DS 6.4 -1.3 4 -1.3 0.15 21
DS 3 -2.6 -3 -2.6 0.15 21
DS -3 -2.5 -3 2.5 0.15 21
DS -3 2.5 -4.5 2.5 0.15 21
DS -4.5 2.5 -4.5 -2.5 0.15 21
DS -4.5 -2.5 -3 -2.5 0.15 21
$PAD
Sh "3" R 2.2 2.6 0 0 0
Dr 0 0 0
At SMD N 00888000
Ne 0 ""
Po -1 -3.4
$EndPAD
$PAD
Sh "1" R 2 2.6 0 0 0
Dr 0 0 0
At SMD N 00888000
Ne 2 "N-0000023"
Po 5.5 -1.5
$EndPAD
$PAD
Sh "3" R 2.2 2.6 0 0 0
Dr 0 0 0
At SMD N 00888000
Ne 0 ""
Po -1 4.2
$EndPAD
$PAD
Sh "2" R 2 2.6 0 0 0
Dr 0 0 0
At SMD N 00888000
Ne 1 "GND"
Po 5.5 3.7
$EndPAD
$PAD
Sh "4" C 1.99898 1.99898 0 0 0
Dr 1.3 0 0
At STD N 00E0FFFF
Ne 0 ""
Po 0 0
$EndPAD
$EndMODULE power_barrel_S
$MODULE sot23-6
Po 0 0 0 15 521521AB 00000000 ~~
Li sot23-6
Cd SOT23-6
Sc 0
AR /51CCBF2F
Op 0 0 0
T0 -2.47142 1.69672 0.5 0.5 0 0.125 N V 21 N "U108"
T1 -1.56464 2.53238 0.5 0.5 0 0.125 N I 21 N "DG4157"
DS -0.8509 0.6985 -1.4986 0.0508 0.127 21
DS -1.0033 0.6985 -1.4986 0.2032 0.127 21
DS 0 -0.6985 0 -1.3589 0.127 21
DS 0.9525 -0.6985 0.9525 -1.3589 0.127 21
DS -0.9525 -0.6985 -0.9525 -1.3589 0.127 21
DS 0 0.6985 0 1.3589 0.127 21
DS 0.9525 0.6985 0.9525 1.3589 0.127 21
DS -0.9525 0.6985 -0.9525 1.3589 0.127 21
DS -1.4986 -0.6985 1.4986 -0.6985 0.127 21
DS 1.4986 -0.6985 1.4986 0.6985 0.127 21
DS 1.4986 0.6985 -1.4986 0.6985 0.127 21
DS -1.4986 0.6985 -1.4986 -0.6985 0.127 21
$PAD
Sh "1" R 0.59944 1.00076 0 0 0
Dr 0 0 0
At SMD N 00888000
Ne 2 "/SATB_PWM"
Po -0.9525 1.05664
$EndPAD
$PAD
Sh "3" R 0.59944 1.00076 0 0 0
Dr 0 0 0
At SMD N 00888000
Ne 5 "GND"
Po 0.9525 1.05664
$EndPAD
$PAD
Sh "2" R 0.59944 1.00076 0 0 0
Dr 0 0 0
At SMD N 00888000
Ne 5 "GND"
Po 0 1.05664
$EndPAD
$PAD
Sh "4" R 0.59944 1.00076 0 0 0
Dr 0 0 0
At SMD N 00888000
Ne 3 "/actinic_filtered&switched"
Po 0.9525 -1.05664
$EndPAD
$PAD
Sh "6" R 0.59944 1.00076 0 0 0
Dr 0 0 0
At SMD N 00888000
Ne 4 "/toggle act ON/OFF"
Po -0.9525 -1.05664
$EndPAD
$PAD
Sh "5" R 0.59944 1.00076 0 0 0
Dr 0 0 0
At SMD N 00888000
Ne 1 "/ActVCC"
Po 0 -1.05664
$EndPAD
$SHAPE3D
Na "walter\\smd_trans\\sot23-6.wrl"
Sc 1 1 1
Of 0 0 0
Ro 0 0 0
$EndSHAPE3D
$EndMODULE sot23-6
$MODULE switch_DPTT_js_slide
Po 0 0 0 15 527AA3FE 00000000 ~~
Li switch_DPTT_js_slide
Sc 0
AR 
Op 0 0 0
T0 0 2.475 0.5 0.5 0 0.125 N V 21 N "switch_DPTT_js_slide"
T1 0 0 0.5 0.5 0 0.125 N V 21 N "VAL**"
DS 4.5 -2.5 -4.5 -2.5 0.02 21
DS -4.5 2.5 4.5 2.5 0.02 21
DS 4.5 -2.5 4.5 2.5 0.02 21
DS -4.5 2.5 -4.5 -2.5 0.02 21
$PAD
Sh "1" R 1.2 2.5 0 0 0
Dr 0 0 0
At SMD N 00888000
Ne 0 ""
Po -2.5 4
$EndPAD
$PAD
Sh "2" R 1.2 2.5 0 0 0
Dr 0 0 0
At SMD N 00888000
Ne 0 ""
Po 0 4
$EndPAD
$PAD
Sh "3" R 1.2 2.5 0 0 0
Dr 0 0 0
At SMD N 00888000
Ne 0 ""
Po 2.5 4
$EndPAD
$PAD
Sh "4" R 1.2 2.5 0 0 0
Dr 0 0 0
At SMD N 00888000
Ne 0 ""
Po -2.5 -4
$EndPAD
$PAD
Sh "5" R 1.2 2.5 0 0 0
Dr 0 0 0
At SMD N 00888000
Ne 0 ""
Po 0 -4
$EndPAD
$PAD
Sh "6" R 1.2 2.5 0 0 0
Dr 0 0 0
At SMD N 00888000
Ne 0 ""
Po 2.5 -4
$EndPAD
$EndMODULE switch_DPTT_js_slide
$MODULE switch_SPDT_204
Po 0 0 0 15 527A848D 00000000 ~~
Li switch_SPDT_204
Kw 204-213ST, DIP, switch
Sc 0
AR 
Op 0 0 0
T0 0 2.1 0.5 0.5 0 0.125 N V 21 N "switch_SPDT_204"
T1 0 0 0.5 0.5 0 0.125 N V 21 N "VAL**"
DS 8.7 -4.8 8.7 -4.9 0.02 21
DS 8.7 -4.9 -8.7 -4.9 0.02 21
DS 8.7 -4.8 8.7 4.9 0.02 21
DS 8.7 4.9 -8.7 4.9 0.02 21
DS -8.7 4.9 -8.7 -4.9 0.02 21
$PAD
Sh "1" R 1.13 2.44 0 0 0
Dr 0 0 0
At SMD N 00888000
Ne 0 ""
Po -6.35 4.3
$EndPAD
$PAD
Sh "2" R 1.13 2.44 0 0 0
Dr 0 0 0
At SMD N 00888000
Ne 0 ""
Po -3.81 4.3
$EndPAD
$PAD
Sh "3" R 1.13 2.44 0 0 0
Dr 0 0 0
At SMD N 00888000
Ne 0 ""
Po -1.27 4.3
$EndPAD
$PAD
Sh "4" R 1.13 2.44 0 0 0
Dr 0 0 0
At SMD N 00888000
Ne 0 ""
Po 1.27 4.3
$EndPAD
$PAD
Sh "5" R 1.13 2.44 0 0 0
Dr 0 0 0
At SMD N 00888000
Ne 0 ""
Po 3.81 4.3
$EndPAD
$PAD
Sh "6" R 1.13 2.44 0 0 0
Dr 0 0 0
At SMD N 00888000
Ne 0 ""
Po 6.35 4.3
$EndPAD
$PAD
Sh "7" R 1.13 2.44 0 0 0
Dr 0 0 0
At SMD N 00888000
Ne 0 ""
Po 6.35 -4.3
$EndPAD
$PAD
Sh "8" R 1.13 2.44 0 0 0
Dr 0 0 0
At SMD N 00888000
Ne 0 ""
Po 3.81 -4.3
$EndPAD
$PAD
Sh "9" R 1.13 2.44 0 0 0
Dr 0 0 0
At SMD N 00888000
Ne 0 ""
Po 1.27 -4.3
$EndPAD
$PAD
Sh "10" R 1.13 2.44 0 0 0
Dr 0 0 0
At SMD N 00888000
Ne 0 ""
Po -1.27 -4.3
$EndPAD
$PAD
Sh "11" R 1.13 2.44 0 0 0
Dr 0 0 0
At SMD N 00888000
Ne 0 ""
Po -3.81 -4.3
$EndPAD
$PAD
Sh "12" R 1.13 2.44 0 0 0
Dr 0 0 0
At SMD N 00888000
Ne 0 ""
Po -6.35 -4.3
$EndPAD
$EndMODULE switch_SPDT_204
$EndLIBRARY
