(module Elko_vert_25x12.5mm_RM5_CopperClear (layer F.Cu) (tedit 5454A4AC)
  (descr "Electrolytic Capacitor, vertical, diameter 12,5mm, RM 5mm, Copper without +,")
  (tags "Electrolytic Capacitor, vertical, diameter 12,5mm, RM 5mm, Elko, Electrolytkondensator, Kondensator gepolt, Durchmesser 12,5mm, Copper without +,")
  (fp_text reference REF** (at 2.54 -7.62) (layer F.SilkS)
    (effects (font (size 1 1) (thickness 0.15)))
  )
  (fp_text value Elko_vert_25x12.5mm_RM5_CopperClear (at 2.54 7.62) (layer F.Fab)
    (effects (font (size 1 1) (thickness 0.15)))
  )
  (fp_line (start -1.016 -3.556) (end -1.016 -2.54) (layer F.SilkS) (width 0.15))
  (fp_line (start -1.524 -3.048) (end -0.508 -3.048) (layer F.SilkS) (width 0.15))
  (fp_circle (center 2.54 0) (end 8.89 0) (layer F.SilkS) (width 0.15))
  (pad 2 thru_hole circle (at 5.08 0) (size 2.99974 2.99974) (drill 1.19888) (layers *.Cu *.Mask F.SilkS))
  (pad 1 thru_hole circle (at 0 0) (size 2.99974 2.99974) (drill 1.19888) (layers *.Cu *.Mask F.SilkS))
  (model Capacitors_Elko_ThroughHole.3dshapes/Elko_vert_25x12.5mm_RM5_CopperClear.wrl
    (at (xyz 0 0 0))
    (scale (xyz 1 1 1))
    (rotate (xyz 0 0 0))
  )
)
