(module Elko_vert_20x10mm_RM2.5_CopperClear (layer F.Cu) (tedit 5454A3A1)
  (descr "Electrolytic Capacitor, vertical, diameter 10mm, RM 2,5mm, Copper without +, radial,")
  (tags "Electrolytic Capacitor, vertical, diameter 10mm, RM 2,5mm, Elko, Electrolytkondensator, Kondensator gepolt, Durchmesser 10mm, Copper without +, radial,")
  (fp_text reference REF** (at 1.27 -6.35) (layer F.SilkS)
    (effects (font (size 1 1) (thickness 0.15)))
  )
  (fp_text value Elko_vert_20x10mm_RM2.5_CopperClear (at 1.27 6.35) (layer F.Fab)
    (effects (font (size 1 1) (thickness 0.15)))
  )
  (fp_line (start -0.381 -2.159) (end -0.381 -1.143) (layer F.SilkS) (width 0.15))
  (fp_line (start -0.889 -1.651) (end 0.127 -1.651) (layer F.SilkS) (width 0.15))
  (fp_circle (center 1.27 0) (end 6.35 0) (layer F.SilkS) (width 0.15))
  (pad 2 thru_hole circle (at 2.54 0) (size 1.50114 1.50114) (drill 0.8001) (layers *.Cu *.Mask F.SilkS))
  (pad 1 thru_hole circle (at 0 0) (size 1.50114 1.50114) (drill 0.8001) (layers *.Cu *.Mask F.SilkS))
  (model Capacitors_Elko_ThroughHole.3dshapes/Elko_vert_20x10mm_RM2.5_CopperClear.wrl
    (at (xyz 0 0 0))
    (scale (xyz 1 1 1))
    (rotate (xyz 0 0 0))
  )
)
