(module Elko_vert_11x5mm_RM2.5_CopperClear (layer F.Cu) (tedit 5454A30F)
  (descr "Electrolytic Capacitor, vertical, diameter 5mm, radial, RM 2,5mm, Copper without +,")
  (tags "Electrolytic Capacitor, vertical, diameter 5mm, radial, RM 2,5mm, Elko, Electrolytkondensator, Kondensator gepolt, Durchmesser 5mm,  Copper without +,")
  (fp_text reference REF** (at 1.27 -3.81) (layer F.SilkS)
    (effects (font (size 1 1) (thickness 0.15)))
  )
  (fp_text value Elko_vert_11x5mm_RM2.5_CopperClear (at 1.27 5.08) (layer F.Fab)
    (effects (font (size 1 1) (thickness 0.15)))
  )
  (fp_line (start 0.1524 -1.5494) (end 1.1176 -1.5494) (layer F.SilkS) (width 0.15))
  (fp_line (start 0.6604 -2.032) (end 0.6604 -1.0668) (layer F.SilkS) (width 0.15))
  (fp_circle (center 1.27 0) (end 3.81 0) (layer F.SilkS) (width 0.15))
  (pad 2 thru_hole circle (at 2.54 0) (size 1.50114 1.50114) (drill 0.8001) (layers *.Cu *.Mask F.SilkS))
  (pad 1 thru_hole circle (at 0 0) (size 1.50114 1.50114) (drill 0.8001) (layers *.Cu *.Mask F.SilkS))
  (model Capacitors_Elko_ThroughHole.3dshapes/Elko_vert_11x5mm_RM2.5_CopperClear.wrl
    (at (xyz 0 0 0))
    (scale (xyz 1 1 1))
    (rotate (xyz 0 0 0))
  )
)
