(module Luxeon_Z+tl (layer F.Cu) (tedit 5670E4DC)
  (descr "Philips Lumileds Luxeon Z with large thermals")
  (tags "Luxeon Z, thermals")
  (attr smd)
  (fp_text reference D2 (at 1.682 -0.617 90) (layer F.SilkS)
    (effects (font (size 0.2 0.2) (thickness 0.05)))
  )
  (fp_text value ACT_PULSE (at 1.936 0.018 90) (layer F.SilkS)
    (effects (font (size 0.2 0.2) (thickness 0.05)))
  )
  (fp_line (start 0.55 -0.75) (end -0.55 0.25) (layer F.SilkS) (width 0.02))
  (fp_line (start 0.55 -0.75) (end 0.55 0.25) (layer F.SilkS) (width 0.02))
  (fp_line (start 0.55 0.25) (end -0.55 0.25) (layer F.SilkS) (width 0.02))
  (fp_line (start -0.55 0.25) (end -0.55 -0.75) (layer F.SilkS) (width 0.02))
  (fp_line (start -0.55 -0.75) (end 0.55 0.25) (layer F.SilkS) (width 0.02))
  (fp_line (start -0.55 -0.75) (end 0.55 -0.75) (layer F.SilkS) (width 0.02))
  (fp_line (start -0.65 -0.85) (end 0.65 -0.85) (layer F.SilkS) (width 0.05))
  (fp_line (start 0.65 -0.85) (end 0.65 0.85) (layer F.SilkS) (width 0.05))
  (fp_line (start 0.65 0.85) (end -0.65 0.85) (layer F.SilkS) (width 0.05))
  (fp_line (start -0.65 0.85) (end -0.65 -0.85) (layer F.SilkS) (width 0.05))
  (pad 2 smd rect (at -0.775 0) (size 1.1 1.5) (layers F.Cu F.Paste F.Mask))
  (pad 1 smd rect (at 0.775 0) (size 1.1 1.5) (layers F.Cu F.Paste F.Mask))
  (pad 2 thru_hole circle (at -1.016 -0.5715) (size 0.381 0.381) (drill 0.3) (layers *.Cu *.Mask F.SilkS))
  (pad 2 thru_hole circle (at -1.016 0) (size 0.381 0.381) (drill 0.3) (layers *.Cu *.Mask F.SilkS))
  (pad 2 thru_hole circle (at -1.016 0.5715) (size 0.381 0.381) (drill 0.3) (layers *.Cu *.Mask F.SilkS))
  (pad 1 thru_hole circle (at 0.4445 -0.5715) (size 0.381 0.381) (drill 0.3) (layers *.Cu *.Mask F.SilkS))
  (pad 1 thru_hole circle (at 0.4445 0) (size 0.381 0.381) (drill 0.3) (layers *.Cu *.Mask F.SilkS))
  (pad 1 thru_hole circle (at 1.016 -0.5715) (size 0.381 0.381) (drill 0.3) (layers *.Cu *.Mask F.SilkS))
  (pad 1 thru_hole circle (at 1.016 0) (size 0.381 0.381) (drill 0.3) (layers *.Cu *.Mask F.SilkS))
  (pad 1 thru_hole circle (at 1.016 0.5715) (size 0.381 0.381) (drill 0.3) (layers *.Cu *.Mask F.SilkS))
  (pad 1 thru_hole circle (at 0.4445 0.5715) (size 0.381 0.381) (drill 0.3) (layers *.Cu *.Mask F.SilkS))
  (pad 2 thru_hole circle (at -0.4445 -0.5715) (size 0.381 0.381) (drill 0.3) (layers *.Cu *.Mask F.SilkS))
  (pad 2 thru_hole circle (at -0.4445 0) (size 0.381 0.381) (drill 0.3) (layers *.Cu *.Mask F.SilkS))
  (pad 2 thru_hole circle (at -0.4445 0.5715) (size 0.381 0.381) (drill 0.3) (layers *.Cu *.Mask F.SilkS))
  (model walter\smd_leds\luxeon_m.wrl
    (at (xyz 0 0 0))
    (scale (xyz 1 1 1))
    (rotate (xyz 0 0 0))
  )
)
