(module SFH4056_cathode_up_anode_1 (layer F.Cu) (tedit 5B97174F)
  (descr "Philips Lumileds Luxeon Z")
  (tags "Luxeon Z")
  (fp_text reference REF** (at 1.258843 0.012509 270) (layer F.SilkS)
    (effects (font (size 0.5 0.5) (thickness 0.1)))
  )
  (fp_text value SFH-4 (at -1.281157 0.012509 270) (layer F.SilkS)
    (effects (font (size 0.3 0.3) (thickness 0.04)))
  )
  (fp_line (start -0.811157 1.612509) (end 0.788843 1.612509) (layer F.SilkS) (width 0.05))
  (fp_line (start -0.811157 1.612509) (end -0.811157 -1.587491) (layer F.SilkS) (width 0.05))
  (fp_line (start -0.811157 -1.587491) (end 0.788843 -1.587491) (layer F.SilkS) (width 0.05))
  (fp_line (start 0.788843 1.612509) (end 0.788843 -1.587491) (layer F.SilkS) (width 0.05))
  (pad 1 thru_hole circle (at 0.538843 1.662509 270) (size 0.381 0.381) (drill 0.254) (layers *.Cu F.Mask))
  (pad 1 thru_hole circle (at -0.561157 1.662509 270) (size 0.381 0.381) (drill 0.254) (layers *.Cu F.Mask))
  (pad 2 thru_hole circle (at -0.561157 -1.637491 270) (size 0.381 0.381) (drill 0.254) (layers *.Cu F.Mask))
  (pad 2 thru_hole circle (at 0.538843 -1.637491 270) (size 0.381 0.381) (drill 0.254) (layers *.Cu F.Mask))
  (pad 1 smd rect (at -0.011157 1.662509 270) (size 1 1.6) (layers F.Cu F.Paste F.Mask))
  (pad 2 smd rect (at -0.011157 -1.637491 270) (size 1 1.6) (layers F.Cu F.Paste F.Mask))
  (model walter\smd_leds\luxeon_m.wrl
    (at (xyz 0 0 0))
    (scale (xyz 1 1 1))
    (rotate (xyz 0 0 0))
  )
)
