(module Avago_Aveon (layer F.Cu) (tedit 4D9725A5)
  (descr "Avago Aveon")
  (fp_text reference LD? (at 0 -4.59994) (layer F.SilkS)
    (effects (font (size 1.00076 1.00076) (thickness 0.20066)))
  )
  (fp_text value Avago_Aveon (at 0 4.8006) (layer F.SilkS)
    (effects (font (size 1.00076 1.00076) (thickness 0.20066)))
  )
  (fp_circle (center 5.6007 -1.09982) (end 5.30098 -1.00076) (layer F.SilkS) (width 0.381))
  (fp_line (start 6.79958 -1.89992) (end 4.50088 -1.89992) (layer F.SilkS) (width 0.381))
  (fp_line (start 4.50088 -1.89992) (end 4.50088 -1.50114) (layer F.SilkS) (width 0.381))
  (fp_line (start 4.50088 -1.50114) (end 3.70078 -1.50114) (layer F.SilkS) (width 0.381))
  (fp_line (start 6.79958 -1.89992) (end 6.79958 -0.29972) (layer F.SilkS) (width 0.381))
  (fp_line (start 6.79958 -0.29972) (end 4.50088 -0.29972) (layer F.SilkS) (width 0.381))
  (fp_line (start 4.50088 -0.29972) (end 4.50088 -0.70104) (layer F.SilkS) (width 0.381))
  (fp_line (start 4.50088 -0.70104) (end 3.70078 -0.70104) (layer F.SilkS) (width 0.381))
  (fp_line (start -6.79958 1.89992) (end -4.50088 1.89992) (layer F.SilkS) (width 0.381))
  (fp_line (start -4.50088 1.89992) (end -4.50088 1.50114) (layer F.SilkS) (width 0.381))
  (fp_line (start -4.50088 1.50114) (end -3.70078 1.50114) (layer F.SilkS) (width 0.381))
  (fp_line (start -6.79958 1.89992) (end -6.79958 0.29972) (layer F.SilkS) (width 0.381))
  (fp_line (start -6.79958 0.29972) (end -4.50088 0.29972) (layer F.SilkS) (width 0.381))
  (fp_line (start -4.50088 0.29972) (end -4.50088 0.70104) (layer F.SilkS) (width 0.381))
  (fp_line (start -4.50088 0.70104) (end -3.70078 0.70104) (layer F.SilkS) (width 0.381))
  (fp_line (start -2.10058 3.40106) (end -2.79908 2.79908) (layer F.SilkS) (width 0.381))
  (fp_line (start -2.79908 2.79908) (end -3.40106 2.10058) (layer F.SilkS) (width 0.381))
  (fp_line (start 3.40106 2.10058) (end 2.79908 2.79908) (layer F.SilkS) (width 0.381))
  (fp_line (start 2.79908 2.79908) (end 2.10058 3.40106) (layer F.SilkS) (width 0.381))
  (fp_line (start 2.10058 -3.40106) (end 2.79908 -2.79908) (layer F.SilkS) (width 0.381))
  (fp_line (start 2.79908 -2.79908) (end 3.40106 -2.10058) (layer F.SilkS) (width 0.381))
  (fp_line (start 1.50114 -3.70078) (end 2.10058 -3.40106) (layer F.SilkS) (width 0.381))
  (fp_line (start 3.70078 -1.50114) (end 3.40106 -2.10058) (layer F.SilkS) (width 0.381))
  (fp_line (start 3.70078 1.50114) (end 3.40106 2.10058) (layer F.SilkS) (width 0.381))
  (fp_line (start 1.50114 3.70078) (end 2.10058 3.40106) (layer F.SilkS) (width 0.381))
  (fp_line (start -1.50114 3.70078) (end -2.10058 3.40106) (layer F.SilkS) (width 0.381))
  (fp_line (start -3.70078 1.50114) (end -3.40106 2.10058) (layer F.SilkS) (width 0.381))
  (fp_line (start -3.70078 -1.50114) (end -3.40106 -2.10058) (layer F.SilkS) (width 0.381))
  (fp_line (start -3.40106 -2.10058) (end -2.79908 -2.79908) (layer F.SilkS) (width 0.381))
  (fp_line (start -2.79908 -2.79908) (end -2.10058 -3.40106) (layer F.SilkS) (width 0.381))
  (fp_line (start -2.10058 -3.40106) (end -1.50114 -3.70078) (layer F.SilkS) (width 0.381))
  (fp_line (start 1.50114 3.70078) (end -1.50114 3.70078) (layer F.SilkS) (width 0.381))
  (fp_line (start 3.70078 -1.50114) (end 3.70078 1.50114) (layer F.SilkS) (width 0.381))
  (fp_line (start -1.50114 -3.70078) (end 1.50114 -3.70078) (layer F.SilkS) (width 0.381))
  (fp_line (start -3.70078 1.50114) (end -3.70078 -1.50114) (layer F.SilkS) (width 0.381))
  (fp_circle (center 0 0) (end -2.99974 0) (layer F.SilkS) (width 0.381))
  (pad 2 smd rect (at 5.72516 -1.09982) (size 2.64922 1.6002) (layers F.Cu F.Paste F.Mask)
    (solder_mask_margin 0.09906) (solder_paste_margin -0.0508))
  (pad 1 smd rect (at -5.72516 1.09982) (size 2.64922 1.6002) (layers F.Cu F.Paste F.Mask)
    (solder_mask_margin 0.09906) (solder_paste_margin -0.0508))
  (pad 3 smd circle (at 0 0) (size 6.4008 6.4008) (layers F.Cu F.Paste F.Mask)
    (solder_mask_margin 0.09906) (solder_paste_margin -0.0508))
  (model walter\smd_leds\avago_aveon.wrl
    (at (xyz 0 0 0))
    (scale (xyz 1 1 1))
    (rotate (xyz 0 0 0))
  )
)
