(module Avago_Jade (layer F.Cu) (tedit 4D973EDB)
  (descr "Avago Jade")
  (fp_text reference LD? (at 0 -2.79908) (layer F.SilkS)
    (effects (font (size 1.00076 1.00076) (thickness 0.20066)))
  )
  (fp_text value Avago_Jade (at 0 2.99974) (layer F.SilkS)
    (effects (font (size 1.00076 1.00076) (thickness 0.20066)))
  )
  (fp_line (start 1.99898 -1.00076) (end 1.00076 -1.99898) (layer F.SilkS) (width 0.254))
  (fp_line (start 1.30048 -1.99898) (end 1.99898 -1.30048) (layer F.SilkS) (width 0.254))
  (fp_line (start 1.6002 -1.99898) (end 1.99898 -1.6002) (layer F.SilkS) (width 0.254))
  (fp_circle (center 0 0) (end -1.69926 0) (layer F.SilkS) (width 0.254))
  (fp_line (start 2.49936 0) (end 1.99898 0) (layer F.SilkS) (width 0.254))
  (fp_line (start 2.49936 -1.30048) (end 1.99898 -1.30048) (layer F.SilkS) (width 0.254))
  (fp_line (start 2.49936 1.30048) (end 1.99898 1.30048) (layer F.SilkS) (width 0.254))
  (fp_line (start -1.99898 1.30048) (end -2.49936 1.30048) (layer F.SilkS) (width 0.254))
  (fp_line (start -1.99898 -1.30048) (end -2.49936 -1.30048) (layer F.SilkS) (width 0.254))
  (fp_line (start -1.99898 0) (end -2.49936 0) (layer F.SilkS) (width 0.254))
  (fp_line (start -1.99898 -1.99898) (end 1.99898 -1.99898) (layer F.SilkS) (width 0.254))
  (fp_line (start 1.99898 -1.99898) (end 1.99898 1.99898) (layer F.SilkS) (width 0.254))
  (fp_line (start 1.99898 1.99898) (end -1.99898 1.99898) (layer F.SilkS) (width 0.254))
  (fp_line (start -1.99898 1.99898) (end -1.99898 -1.99898) (layer F.SilkS) (width 0.254))
  (pad 2 smd rect (at 2.17424 0) (size 0.8509 3.43916) (layers F.Cu F.Paste F.Mask)
    (solder_mask_margin 0.09906) (solder_paste_margin -0.0508))
  (pad 1 smd rect (at -2.17678 0) (size 0.8509 3.43916) (layers F.Cu F.Paste F.Mask)
    (solder_mask_margin 0.09906) (solder_paste_margin -0.0508))
  (pad 3 smd circle (at 0 0) (size 1.89992 1.89992) (layers F.Cu F.Paste F.Mask)
    (solder_mask_margin 0.09906) (solder_paste_margin -0.0508))
  (model walter\smd_leds\avago_jade.wrl
    (at (xyz 0 0 0))
    (scale (xyz 1 1 1))
    (rotate (xyz 0 0 0))
  )
)
