(module C154 (layer F.Cu) (tedit 51E441D5)
  (descr http://www.advancedphotonix.com/ap_products/pdfs/PDB-C154SM.pdf)
  (tags "pin, photodiode, PDB-C154SM")
  (attr smd)
  (fp_text reference D106 (at -0.09 -2.79) (layer F.SilkS)
    (effects (font (size 0.762 0.762) (thickness 0.127)))
  )
  (fp_text value SMALL_DIODE_PHOTODIODE (at -0.13 3.09) (layer F.SilkS)
    (effects (font (size 0.762 0.762) (thickness 0.127)))
  )
  (fp_circle (center 0.56134 0.28956) (end 0.5842 0.26416) (layer F.SilkS) (width 0.15))
  (fp_line (start -0.70358 0.43688) (end 0.70104 -0.96774) (layer F.SilkS) (width 0.05))
  (fp_line (start -0.70104 -0.96774) (end 0.6985 0.4318) (layer F.SilkS) (width 0.05))
  (fp_line (start -1.6 -1.35) (end 1.6 -1.35) (layer F.SilkS) (width 0.1))
  (fp_line (start 1.6 -1.35) (end 1.6 1.35) (layer F.SilkS) (width 0.1))
  (fp_line (start 1.6 1.35) (end -1.6 1.35) (layer F.SilkS) (width 0.1))
  (fp_line (start -1.6 1.35) (end -1.6 -1.35) (layer F.SilkS) (width 0.1))
  (fp_line (start -0.725 -1.0167) (end 0.725 -1.0167) (layer F.SilkS) (width 0.1))
  (fp_line (start 0.725 -1.0167) (end 0.725 0.4833) (layer F.SilkS) (width 0.1))
  (fp_line (start 0.725 0.4833) (end -0.725 0.4833) (layer F.SilkS) (width 0.1))
  (fp_line (start -0.725 0.4833) (end -0.725 -1.0167) (layer F.SilkS) (width 0.1))
  (pad 1 smd rect (at -2.4003 0) (size 1 2.5) (layers F.Cu F.Paste F.Mask))
  (pad 2 smd rect (at 2.34442 0) (size 1 2.5) (layers F.Cu F.Paste F.Mask))
  (pad 2 smd rect (at 1.45 -0.8) (size 1 0.9) (layers F.Cu F.Paste F.Mask))
  (pad 2 smd rect (at 1.45 0.8) (size 1 0.9) (layers F.Cu F.Paste F.Mask))
  (pad 1 smd rect (at -1.45 -0.8) (size 1 0.9) (layers F.Cu F.Paste F.Mask))
  (pad 1 smd rect (at -1.45 0.8) (size 1 0.9) (layers F.Cu F.Paste F.Mask))
)
