(module c_1825 (layer F.Cu) (tedit 49F579BF)
  (descr "SMT capacitor, 1825")
  (fp_text reference c_1825 (at 0 -3.937) (layer F.SilkS)
    (effects (font (size 0.50038 0.50038) (thickness 0.11938)))
  )
  (fp_text value C*** (at 0 3.937) (layer F.SilkS) hide
    (effects (font (size 0.50038 0.50038) (thickness 0.11938)))
  )
  (fp_line (start 1.651 -3.175) (end 1.651 3.175) (layer F.SilkS) (width 0.127))
  (fp_line (start -1.651 -3.175) (end -1.651 3.175) (layer F.SilkS) (width 0.127))
  (fp_line (start -2.286 -3.175) (end -2.286 3.175) (layer F.SilkS) (width 0.127))
  (fp_line (start -2.286 3.175) (end 2.286 3.175) (layer F.SilkS) (width 0.127))
  (fp_line (start 2.286 3.175) (end 2.286 -3.175) (layer F.SilkS) (width 0.127))
  (fp_line (start 2.286 -3.175) (end -2.286 -3.175) (layer F.SilkS) (width 0.127))
  (pad 1 smd rect (at 2.04978 0) (size 1.80086 6.90118) (layers F.Cu F.Paste F.Mask))
  (pad 2 smd rect (at -2.04978 0) (size 1.80086 6.90118) (layers F.Cu F.Paste F.Mask))
  (model walter\smd_cap\c_1825.wrl
    (at (xyz 0 0 0))
    (scale (xyz 1 1 1))
    (rotate (xyz 0 0 0))
  )
)
