(module c_elec_3x5.3 (layer F.Cu) (tedit 49F5AB9E)
  (descr "SMT capacitor, aluminium electrolytic, 3x5.3")
  (fp_text reference c_elec_3x5.3 (at 0 -2.159) (layer F.SilkS)
    (effects (font (size 0.50038 0.50038) (thickness 0.11938)))
  )
  (fp_text value C*** (at 0 2.159) (layer F.SilkS) hide
    (effects (font (size 0.50038 0.50038) (thickness 0.11938)))
  )
  (fp_line (start -1.651 -1.651) (end -1.651 1.651) (layer F.SilkS) (width 0.127))
  (fp_line (start -1.651 1.651) (end 0.889 1.651) (layer F.SilkS) (width 0.127))
  (fp_line (start 0.889 1.651) (end 1.651 0.889) (layer F.SilkS) (width 0.127))
  (fp_line (start 1.651 0.889) (end 1.651 -0.889) (layer F.SilkS) (width 0.127))
  (fp_line (start 1.651 -0.889) (end 0.889 -1.651) (layer F.SilkS) (width 0.127))
  (fp_line (start 0.889 -1.651) (end -1.651 -1.651) (layer F.SilkS) (width 0.127))
  (fp_line (start -1.397 -0.508) (end -1.397 0.508) (layer F.SilkS) (width 0.127))
  (fp_line (start -1.27 -0.762) (end -1.27 0.762) (layer F.SilkS) (width 0.127))
  (fp_line (start -1.143 -1.016) (end -1.143 1.016) (layer F.SilkS) (width 0.127))
  (fp_line (start -1.016 -1.143) (end -1.016 1.143) (layer F.SilkS) (width 0.127))
  (fp_circle (center 0 0) (end 1.524 0) (layer F.SilkS) (width 0.127))
  (fp_line (start 1.143 0) (end 0.381 0) (layer F.SilkS) (width 0.127))
  (fp_line (start 0.762 -0.381) (end 0.762 0.381) (layer F.SilkS) (width 0.127))
  (pad 1 smd rect (at 1.50114 0) (size 2.19964 1.6002) (layers F.Cu F.Paste F.Mask))
  (pad 2 smd rect (at -1.50114 0) (size 2.19964 1.6002) (layers F.Cu F.Paste F.Mask))
  (model walter\smd_cap\c_elec_3x5_3.wrl
    (at (xyz 0 0 0))
    (scale (xyz 1 1 1))
    (rotate (xyz 0 0 0))
  )
)
