(module c_elec_6.3x7.7 (layer F.Cu) (tedit 49F5C0C2)
  (descr "SMT capacitor, aluminium electrolytic, 6.3x7.7")
  (fp_text reference c_elec_6.3x7.7 (at 0 -3.937) (layer F.SilkS)
    (effects (font (size 0.50038 0.50038) (thickness 0.11938)))
  )
  (fp_text value C*** (at 0 3.81) (layer F.SilkS) hide
    (effects (font (size 0.50038 0.50038) (thickness 0.11938)))
  )
  (fp_line (start -2.921 -0.762) (end -2.921 0.762) (layer F.SilkS) (width 0.127))
  (fp_line (start -2.794 1.143) (end -2.794 -1.143) (layer F.SilkS) (width 0.127))
  (fp_line (start -2.667 -1.397) (end -2.667 1.397) (layer F.SilkS) (width 0.127))
  (fp_line (start -2.54 1.651) (end -2.54 -1.651) (layer F.SilkS) (width 0.127))
  (fp_line (start -2.413 -1.778) (end -2.413 1.778) (layer F.SilkS) (width 0.127))
  (fp_circle (center 0 0) (end -3.048 0) (layer F.SilkS) (width 0.127))
  (fp_line (start -3.302 -3.302) (end -3.302 3.302) (layer F.SilkS) (width 0.127))
  (fp_line (start -3.302 3.302) (end 2.54 3.302) (layer F.SilkS) (width 0.127))
  (fp_line (start 2.54 3.302) (end 3.302 2.54) (layer F.SilkS) (width 0.127))
  (fp_line (start 3.302 2.54) (end 3.302 -2.54) (layer F.SilkS) (width 0.127))
  (fp_line (start 3.302 -2.54) (end 2.54 -3.302) (layer F.SilkS) (width 0.127))
  (fp_line (start 2.54 -3.302) (end -3.302 -3.302) (layer F.SilkS) (width 0.127))
  (fp_line (start 2.159 0) (end 1.397 0) (layer F.SilkS) (width 0.127))
  (fp_line (start 1.778 -0.381) (end 1.778 0.381) (layer F.SilkS) (width 0.127))
  (pad 1 smd rect (at 2.75082 0) (size 3.59918 1.6002) (layers F.Cu F.Paste F.Mask))
  (pad 2 smd rect (at -2.75082 0) (size 3.59918 1.6002) (layers F.Cu F.Paste F.Mask))
  (model walter\smd_cap\c_elec_6_3x7_7.wrl
    (at (xyz 0 0 0))
    (scale (xyz 1 1 1))
    (rotate (xyz 0 0 0))
  )
)
