(module c_tant_T (layer F.Cu) (tedit 4D5D9177)
  (descr "SMT capacitor, tantalum size T")
  (fp_text reference c_tant_T (at 0 -1.9685) (layer F.SilkS)
    (effects (font (size 0.50038 0.50038) (thickness 0.11938)))
  )
  (fp_text value C*** (at 0 1.9685) (layer F.SilkS) hide
    (effects (font (size 0.50038 0.50038) (thickness 0.11938)))
  )
  (fp_line (start 1.2065 -1.397) (end 1.2065 1.397) (layer F.SilkS) (width 0.127))
  (fp_line (start 1.778 -1.397) (end -1.778 -1.397) (layer F.SilkS) (width 0.127))
  (fp_line (start -1.778 -1.397) (end -1.778 1.397) (layer F.SilkS) (width 0.127))
  (fp_line (start -1.778 1.397) (end 1.778 1.397) (layer F.SilkS) (width 0.127))
  (fp_line (start 1.778 1.397) (end 1.778 -1.397) (layer F.SilkS) (width 0.127))
  (pad 1 smd rect (at 1.524 0) (size 1.95072 2.49936) (layers F.Cu F.Paste F.Mask))
  (pad 2 smd rect (at -1.524 0) (size 1.95072 2.49936) (layers F.Cu F.Paste F.Mask))
  (model walter\smd_cap\c_tant_T.wrl
    (at (xyz 0 0 0))
    (scale (xyz 1 1 1))
    (rotate (xyz 0 0 0))
  )
)
