(module c_tant_U (layer F.Cu) (tedit 4D5D916B)
  (descr "SMT capacitor, tantalum size U")
  (fp_text reference c_tant_U (at 0 -2.159) (layer F.SilkS)
    (effects (font (size 0.50038 0.50038) (thickness 0.11938)))
  )
  (fp_text value C*** (at 0 2.0955) (layer F.SilkS) hide
    (effects (font (size 0.50038 0.50038) (thickness 0.11938)))
  )
  (fp_line (start 2.0955 -1.5875) (end 2.0955 1.5875) (layer F.SilkS) (width 0.127))
  (fp_line (start -3.048 -1.5875) (end -3.048 1.5875) (layer F.SilkS) (width 0.127))
  (fp_line (start -3.048 1.5875) (end 3.048 1.5875) (layer F.SilkS) (width 0.127))
  (fp_line (start 3.048 1.5875) (end 3.048 -1.5875) (layer F.SilkS) (width 0.127))
  (fp_line (start 3.048 -1.5875) (end -3.048 -1.5875) (layer F.SilkS) (width 0.127))
  (pad 1 smd rect (at 2.52476 0) (size 2.55016 2.49936) (layers F.Cu F.Paste F.Mask))
  (pad 2 smd rect (at -2.52476 0) (size 2.55016 2.49936) (layers F.Cu F.Paste F.Mask))
  (model walter\smd_cap\c_tant_U.wrl
    (at (xyz 0 0 0))
    (scale (xyz 1 1 1))
    (rotate (xyz 0 0 0))
  )
)
