(module c_tant_A (layer F.Cu) (tedit 4D5D91D2)
  (descr "SMT capacitor, tantalum size A")
  (fp_text reference c_tant_A (at 0.0254 -1.2954) (layer F.SilkS)
    (effects (font (size 0.50038 0.50038) (thickness 0.11938)))
  )
  (fp_text value C*** (at 0 1.27) (layer F.SilkS) hide
    (effects (font (size 0.50038 0.50038) (thickness 0.11938)))
  )
  (fp_line (start 1.143 0.8128) (end 1.143 -0.8128) (layer F.SilkS) (width 0.127))
  (fp_line (start -1.6002 -0.8128) (end -1.6002 0.8128) (layer F.SilkS) (width 0.127))
  (fp_line (start -1.6002 0.8128) (end 1.6002 0.8128) (layer F.SilkS) (width 0.127))
  (fp_line (start 1.6002 0.8128) (end 1.6002 -0.8128) (layer F.SilkS) (width 0.127))
  (fp_line (start 1.6002 -0.8128) (end -1.6002 -0.8128) (layer F.SilkS) (width 0.127))
  (pad 1 smd rect (at 1.37414 0) (size 1.95072 1.50114) (layers F.Cu F.Paste F.Mask))
  (pad 2 smd rect (at -1.37414 0) (size 1.95072 1.50114) (layers F.Cu F.Paste F.Mask))
  (model walter\smd_cap\c_tant_A.wrl
    (at (xyz 0 0 0))
    (scale (xyz 1 1 1))
    (rotate (xyz 0 0 0))
  )
)
