(module conn_usb_Ax2 (layer F.Cu) (tedit 4F088118)
  (descr "USB A-type receptacle, 2x stacked, Tyco P/N 5787617-3")
  (fp_text reference conn_usb_Ax2 (at 0 10.668) (layer F.SilkS)
    (effects (font (thickness 0.3048)))
  )
  (fp_text value JP*** (at 0 -10.668) (layer F.SilkS)
    (effects (font (thickness 0.3048)))
  )
  (fp_line (start -7.874 -7.874) (end -6.604 -6.858) (layer F.SilkS) (width 0.381))
  (fp_line (start -6.604 -8.89) (end -7.874 -7.874) (layer F.SilkS) (width 0.381))
  (fp_line (start 7.874 -7.874) (end 6.604 -6.858) (layer F.SilkS) (width 0.381))
  (fp_line (start 6.604 -8.89) (end 7.874 -7.874) (layer F.SilkS) (width 0.381))
  (fp_line (start 6.604 8.636) (end 6.604 -8.636) (layer F.SilkS) (width 0.381))
  (fp_line (start -6.604 -8.636) (end -6.604 8.636) (layer F.SilkS) (width 0.381))
  (fp_line (start -7.62 8.509) (end 7.62 8.509) (layer F.SilkS) (width 0.381))
  (fp_line (start -7.62 8.255) (end -7.62 8.763) (layer F.SilkS) (width 0.381))
  (fp_line (start 7.62 8.255) (end 7.62 8.763) (layer F.SilkS) (width 0.381))
  (fp_line (start 7.62 8.763) (end -7.62 8.763) (layer F.SilkS) (width 0.381))
  (fp_line (start -7.62 8.255) (end 7.62 8.255) (layer F.SilkS) (width 0.381))
  (fp_line (start 6.604 -2.794) (end 7.874 -1.778) (layer F.SilkS) (width 0.381))
  (fp_line (start 7.874 -1.778) (end 6.604 -0.762) (layer F.SilkS) (width 0.381))
  (fp_line (start -6.604 -2.794) (end -7.874 -1.778) (layer F.SilkS) (width 0.381))
  (fp_line (start -7.874 -1.778) (end -6.604 -0.762) (layer F.SilkS) (width 0.381))
  (fp_line (start 6.604 -8.89) (end -6.604 -8.89) (layer F.SilkS) (width 0.381))
  (pad "" thru_hole circle (at -6.57098 -1.75514) (size 2.99974 2.99974) (drill 1.99898) (layers *.Cu))
  (pad "" thru_hole circle (at 6.57098 -1.75514) (size 2.99974 2.99974) (drill 1.99898) (layers *.Cu))
  (pad 1 thru_hole circle (at -3.50012 -4.46532) (size 1.50114 1.50114) (drill 0.89916) (layers *.Cu))
  (pad 2 thru_hole circle (at -1.00076 -4.46532) (size 1.50114 1.50114) (drill 0.89916) (layers *.Cu))
  (pad 3 thru_hole circle (at 1.00076 -4.46532) (size 1.50114 1.50114) (drill 0.89916) (layers *.Cu))
  (pad 4 thru_hole circle (at 3.50012 -4.46532) (size 1.50114 1.50114) (drill 0.89916) (layers *.Cu))
  (pad 8 thru_hole circle (at 3.50012 -7.0866) (size 1.50114 1.50114) (drill 0.89916) (layers *.Cu))
  (pad 5 thru_hole circle (at -3.50012 -7.0866) (size 1.50114 1.50114) (drill 0.89916) (layers *.Cu))
  (pad 6 thru_hole circle (at -1.00076 -7.0866) (size 1.50114 1.50114) (drill 0.89916) (layers *.Cu))
  (pad 7 thru_hole circle (at 1.00076 -7.0866) (size 1.50114 1.50114) (drill 0.89916) (layers *.Cu))
  (pad "" thru_hole circle (at -6.57098 -7.96544) (size 2.99974 2.99974) (drill 1.99898) (layers *.Cu))
  (pad "" thru_hole circle (at 6.57098 -7.96544) (size 2.99974 2.99974) (drill 1.99898) (layers *.Cu))
  (model walter\conn_pc\usb_Ax2.wrl
    (at (xyz 0 0 0))
    (scale (xyz 1 1 1))
    (rotate (xyz 0 0 0))
  )
)
