(module w_conn_pc:conn_usb_B_micro_smd-2 (layer F.Cu) (tedit 50424EC7)
  (descr "USB B micro SMD connector with retention pins")
  (fp_text reference P4 (at 0 2.60096) (layer F.SilkS)
    (effects (font (size 0.50038 0.50038) (thickness 0.09906)))
  )
  (fp_text value USB_MICRO (at 0 -4.0005) (layer F.SilkS)
    (effects (font (size 0.50038 0.50038) (thickness 0.09906)))
  )
  (fp_line (start -4.20116 1.99898) (end 4.20116 1.99898) (layer F.SilkS) (width 0.20066))
  (fp_line (start -4.20116 2.10058) (end 4.20116 2.10058) (layer F.SilkS) (width 0.20066))
  (fp_line (start 4.20116 2.10058) (end 4.20116 1.89992) (layer F.SilkS) (width 0.20066))
  (fp_line (start 4.20116 1.89992) (end -4.20116 1.89992) (layer F.SilkS) (width 0.20066))
  (fp_line (start -4.20116 1.89992) (end -4.20116 2.10058) (layer F.SilkS) (width 0.20066))
  (fp_line (start -3.8989 2.10058) (end -3.8989 -2.90068) (layer F.SilkS) (width 0.20066))
  (fp_line (start -3.8989 -2.90068) (end 3.8989 -2.90068) (layer F.SilkS) (width 0.20066))
  (fp_line (start 3.8989 -2.90068) (end 3.8989 2.10058) (layer F.SilkS) (width 0.20066))
  (pad "" smd rect (at -1.19888 0) (size 1.89738 1.89738) (layers F.Cu F.Paste F.Mask))
  (pad "" smd rect (at 1.19888 0) (size 1.89738 1.89738) (layers F.Cu F.Paste F.Mask))
  (pad "" smd rect (at 3.9497 0) (size 1.89738 1.89738) (layers F.Cu F.Paste F.Mask))
  (pad "" smd rect (at -3.9497 0) (size 1.89738 1.89738) (layers F.Cu F.Paste F.Mask))
  (pad 1 smd rect (at -1.30048 -2.67462) (size 0.39878 1.34874) (layers F.Cu F.Paste F.Mask))
  (pad 2 smd rect (at -0.6477 -2.67462) (size 0.39878 1.3462) (layers F.Cu F.Paste F.Mask))
  (pad 3 smd rect (at 0 -2.67462) (size 0.39878 1.3462) (layers F.Cu F.Paste F.Mask))
  (pad 4 smd rect (at 0.6477 -2.67462) (size 0.39878 1.3462) (layers F.Cu F.Paste F.Mask))
  (pad 5 smd rect (at 1.30048 -2.67462) (size 0.39878 1.3462) (layers F.Cu F.Paste F.Mask))
  (pad "" np_thru_hole circle (at 1.89738 -2.1463) (size 0.79756 0.79756) (drill 0.79756) (layers *.Cu *.Mask F.SilkS))
  (pad "" np_thru_hole circle (at -1.89992 -2.14884) (size 0.79756 0.79756) (drill 0.79756) (layers *.Cu *.Mask F.SilkS))
  (model walter\conn_pc\usb_B_micro_smd-2.wrl
    (at (xyz 0 0 0))
    (scale (xyz 1 1 1))
    (rotate (xyz 0 0 0))
  )
)
