(module DB_15F-VGA (layer F.Cu) (tedit 4F088151)
  (descr "D-SUB 15 pin VGA socket, Tyco P/N 440467-1")
  (fp_text reference DB_15F-VGA (at 0 4.699) (layer F.SilkS)
    (effects (font (thickness 0.3048)))
  )
  (fp_text value JP*** (at 0 -8.509) (layer F.SilkS)
    (effects (font (thickness 0.3048)))
  )
  (fp_line (start -10.033 1.27) (end -10.033 7.112) (layer F.SilkS) (width 0.381))
  (fp_line (start -10.922 -2.413) (end -10.16 -1.016) (layer F.SilkS) (width 0.381))
  (fp_line (start -14.097 -2.413) (end -14.986 -1.016) (layer F.SilkS) (width 0.381))
  (fp_line (start -9.017 -7.112) (end -9.017 -0.635) (layer F.SilkS) (width 0.381))
  (fp_line (start -15.494 1.27) (end -15.494 -7.112) (layer F.SilkS) (width 0.381))
  (fp_line (start 15.494 -7.112) (end 15.494 1.27) (layer F.SilkS) (width 0.381))
  (fp_line (start 15.494 -7.112) (end -15.494 -7.112) (layer F.SilkS) (width 0.381))
  (fp_line (start 9.017 -0.635) (end 9.017 -7.112) (layer F.SilkS) (width 0.381))
  (fp_line (start 14.097 -2.413) (end 14.859 -1.016) (layer F.SilkS) (width 0.381))
  (fp_line (start 10.922 -2.413) (end 10.287 -1.016) (layer F.SilkS) (width 0.381))
  (fp_line (start 10.922 -2.413) (end 14.097 -2.413) (layer F.SilkS) (width 0.381))
  (fp_line (start -14.097 -2.413) (end -10.922 -2.413) (layer F.SilkS) (width 0.381))
  (fp_line (start 14.859 -1.016) (end 10.287 -1.016) (layer F.SilkS) (width 0.381))
  (fp_line (start 10.287 -1.016) (end 10.287 -0.762) (layer F.SilkS) (width 0.381))
  (fp_line (start 10.287 -0.762) (end 14.859 -0.762) (layer F.SilkS) (width 0.381))
  (fp_line (start 14.859 -0.762) (end 14.859 -1.016) (layer F.SilkS) (width 0.381))
  (fp_line (start -10.16 -1.016) (end -14.986 -1.016) (layer F.SilkS) (width 0.381))
  (fp_line (start -14.986 -1.016) (end -14.986 -0.762) (layer F.SilkS) (width 0.381))
  (fp_line (start -14.986 -0.762) (end -10.16 -0.762) (layer F.SilkS) (width 0.381))
  (fp_line (start -10.16 -0.762) (end -10.16 -1.016) (layer F.SilkS) (width 0.381))
  (fp_line (start 11.43 -0.635) (end 11.43 -3.175) (layer F.SilkS) (width 0.381))
  (fp_line (start 11.43 -3.175) (end 13.716 -3.175) (layer F.SilkS) (width 0.381))
  (fp_line (start 13.716 -3.175) (end 13.716 -0.635) (layer F.SilkS) (width 0.381))
  (fp_line (start -13.716 -0.635) (end -13.716 -3.175) (layer F.SilkS) (width 0.381))
  (fp_line (start -13.716 -3.175) (end -11.43 -3.175) (layer F.SilkS) (width 0.381))
  (fp_line (start -11.43 -3.175) (end -11.43 -0.635) (layer F.SilkS) (width 0.381))
  (fp_line (start -15.494 -0.635) (end 15.494 -0.635) (layer F.SilkS) (width 0.381))
  (fp_line (start -11.049 1.27) (end -11.049 7.112) (layer F.SilkS) (width 0.381))
  (fp_line (start -14.097 1.27) (end -14.097 7.112) (layer F.SilkS) (width 0.381))
  (fp_line (start 14.097 1.27) (end 14.097 7.112) (layer F.SilkS) (width 0.381))
  (fp_line (start 11.049 1.27) (end 11.049 7.112) (layer F.SilkS) (width 0.381))
  (fp_line (start 10.033 1.27) (end 10.033 7.112) (layer F.SilkS) (width 0.381))
  (fp_line (start 10.033 7.112) (end 15.113 7.112) (layer F.SilkS) (width 0.381))
  (fp_line (start 15.113 7.112) (end 15.113 1.397) (layer F.SilkS) (width 0.381))
  (fp_line (start -15.113 1.27) (end -15.113 7.112) (layer F.SilkS) (width 0.381))
  (fp_line (start -15.113 7.112) (end -10.033 7.112) (layer F.SilkS) (width 0.381))
  (fp_line (start -8.128 1.27) (end -8.128 7.112) (layer F.SilkS) (width 0.381))
  (fp_line (start -8.128 7.112) (end 8.128 7.112) (layer F.SilkS) (width 0.381))
  (fp_line (start 8.128 7.112) (end 8.128 1.27) (layer F.SilkS) (width 0.381))
  (fp_line (start -15.494 1.27) (end 15.494 1.27) (layer F.SilkS) (width 0.381))
  (pad "" thru_hole circle (at 12.49426 -2.47142) (size 5.00126 5.00126) (drill 3.2004) (layers *.Cu))
  (pad 3 thru_hole circle (at -0.2667 -4.4704) (size 1.19888 1.19888) (drill 0.65024) (layers *.Cu))
  (pad 2 thru_hole circle (at 2.0193 -4.4704) (size 1.19888 1.19888) (drill 0.65024) (layers *.Cu))
  (pad 1 thru_hole circle (at 4.31038 -4.4704) (size 1.19888 1.19888) (drill 0.65024) (layers *.Cu))
  (pad 4 thru_hole circle (at -2.56032 -4.4704) (size 1.19888 1.19888) (drill 0.65024) (layers *.Cu))
  (pad 5 thru_hole circle (at -4.84886 -4.4704) (size 1.19888 1.19888) (drill 0.65024) (layers *.Cu))
  (pad 9 thru_hole circle (at -1.41478 -2.9718) (size 1.19888 1.19888) (drill 0.65024) (layers *.Cu))
  (pad 8 thru_hole circle (at 0.87376 -2.9718) (size 1.19888 1.19888) (drill 0.65024) (layers *.Cu))
  (pad 7 thru_hole circle (at 3.16484 -2.9718) (size 1.19888 1.19888) (drill 0.65024) (layers *.Cu))
  (pad 6 thru_hole circle (at 5.45592 -2.9718) (size 1.19888 1.19888) (drill 0.65024) (layers *.Cu))
  (pad "" thru_hole circle (at -12.49426 -2.47142) (size 5.00126 5.00126) (drill 3.2004) (layers *.Cu))
  (pad 10 thru_hole circle (at -3.70586 -2.9718) (size 1.19888 1.19888) (drill 0.65024) (layers *.Cu))
  (pad 11 thru_hole circle (at 4.31038 -1.47066) (size 1.19888 1.19888) (drill 0.65024) (layers *.Cu))
  (pad 12 thru_hole circle (at 2.0193 -1.47066) (size 1.19888 1.19888) (drill 0.65024) (layers *.Cu))
  (pad 13 thru_hole circle (at -0.26924 -1.4732) (size 1.19888 1.19888) (drill 0.65024) (layers *.Cu))
  (pad 14 thru_hole circle (at -2.56032 -1.47066) (size 1.19888 1.19888) (drill 0.65024) (layers *.Cu))
  (pad 15 thru_hole circle (at -4.84886 -1.47066) (size 1.19888 1.19888) (drill 0.65024) (layers *.Cu))
  (model walter\conn_pc\db_15-vga.wrl
    (at (xyz 0 0 0))
    (scale (xyz 1 1 1))
    (rotate (xyz 0 0 0))
  )
)
