(module do214ab (layer F.Cu) (tedit 51101914)
  (descr DO214AB)
  (fp_text reference DO214AB (at 0 -2.49936) (layer F.SilkS)
    (effects (font (size 0.50038 0.50038) (thickness 0.11938)))
  )
  (fp_text value D*** (at 0 2.49936) (layer F.SilkS) hide
    (effects (font (size 0.50038 0.50038) (thickness 0.11938)))
  )
  (fp_line (start 3.40106 -3.0988) (end 3.40106 3.0988) (layer F.SilkS) (width 0.1778))
  (fp_line (start 3.29946 3.0988) (end 3.29946 -3.0988) (layer F.SilkS) (width 0.1778))
  (fp_line (start 3.2004 -3.0988) (end 3.2004 3.0988) (layer F.SilkS) (width 0.1778))
  (fp_line (start 3.0988 3.0988) (end 3.0988 -3.0988) (layer F.SilkS) (width 0.1778))
  (fp_line (start 2.99974 -3.0988) (end 2.99974 3.0988) (layer F.SilkS) (width 0.1778))
  (fp_line (start 2.90068 3.0988) (end 2.90068 -3.0988) (layer F.SilkS) (width 0.1778))
  (fp_line (start 2.79908 -3.0988) (end 2.79908 3.0988) (layer F.SilkS) (width 0.1778))
  (fp_line (start -3.49758 -3.0988) (end 3.49758 -3.0988) (layer F.SilkS) (width 0.1778))
  (fp_line (start 3.50012 -3.0988) (end 3.50012 3.0988) (layer F.SilkS) (width 0.1778))
  (fp_line (start 3.50012 3.0988) (end -3.50012 3.0988) (layer F.SilkS) (width 0.1778))
  (fp_line (start -3.50012 3.0988) (end -3.50012 -3.0988) (layer F.SilkS) (width 0.1778))
  (pad 2 smd rect (at 3.39852 0) (size 1.99898 3.19786) (layers F.Cu F.Paste F.Mask))
  (pad 1 smd rect (at -3.39852 0) (size 1.99898 3.19786) (layers F.Cu F.Paste F.Mask))
  (model walter\smd_diode\do214ab.wrl
    (at (xyz 0 0 0))
    (scale (xyz 1 1 1))
    (rotate (xyz 0 0 0))
  )
)
