(module drill0.5 (layer F.Cu) (tedit 566B3CCB)
  (descr "drill, 0.5mm, non plated, NPTH")
  (tags "drill, 0.5mm, non plated, NPTH")
  (attr smd)
  (fp_text reference dr** (at 0 0) (layer F.SilkS)
    (effects (font (size 0.127 0.127) (thickness 0.01)))
  )
  (fp_text value drl1.2 (at 0 0) (layer F.Fab)
    (effects (font (size 0.127 0.127) (thickness 0.01)))
  )
  (pad "" np_thru_hole circle (at 0 0) (size 0.5 0.5) (drill 0.5) (layers *.Cu *.Mask F.SilkS))
)
