(module FPC_28 (layer F.Cu) (tedit 569810C2)
  (descr "FFC, ribbon,  connector, 27 pins")
  (tags "FFC, ribbon,  connector, 27")
  (attr smd)
  (fp_text reference P1 (at 0 0) (layer F.SilkS)
    (effects (font (size 0.4 0.4) (thickness 0.1)))
  )
  (fp_text value 206RIBBON_MAIN (at 0 1.6) (layer F.Fab)
    (effects (font (size 0.4 0.4) (thickness 0.1)))
  )
  (fp_line (start 6.5 -3.4) (end 7 -3.4) (layer F.SilkS) (width 0.15))
  (fp_line (start 9.25 2.5) (end 9.75 2.5) (layer F.SilkS) (width 0.15))
  (fp_line (start -9.75 2.5) (end -9.75 1.2) (layer F.SilkS) (width 0.15))
  (fp_line (start -9.75 1.2) (end -8.95 1.2) (layer F.SilkS) (width 0.15))
  (fp_line (start -8.95 1.2) (end -8.95 -0.3) (layer F.SilkS) (width 0.15))
  (fp_line (start -8.95 -0.3) (end -10.05 -0.3) (layer F.SilkS) (width 0.15))
  (fp_line (start 8.95 -0.3) (end 10.05 -0.3) (layer F.SilkS) (width 0.15))
  (fp_line (start 10.05 -0.3) (end 10.05 -3.1) (layer F.SilkS) (width 0.15))
  (fp_line (start 10.05 -3.1) (end 7.05 -3.1) (layer F.SilkS) (width 0.15))
  (fp_line (start 7.05 -3.1) (end 7.05 -3.4) (layer F.SilkS) (width 0.15))
  (fp_line (start 6.55 -3.4) (end -7.05 -3.4) (layer F.SilkS) (width 0.15))
  (fp_line (start -7.05 -3.4) (end -7.05 -3.1) (layer F.SilkS) (width 0.15))
  (fp_line (start -7.05 -3.1) (end -10.05 -3.1) (layer F.SilkS) (width 0.15))
  (fp_line (start -10.05 -3.1) (end -10.05 -0.4) (layer F.SilkS) (width 0.15))
  (fp_line (start 8.95 -0.3) (end 8.95 1.1) (layer F.SilkS) (width 0.15))
  (fp_line (start 9.75 2.5) (end 9.75 1.1) (layer F.SilkS) (width 0.15))
  (fp_line (start 9.75 1.1) (end 8.95 1.1) (layer F.SilkS) (width 0.15))
  (fp_line (start -9.75 2.5) (end 9.25 2.5) (layer F.SilkS) (width 0.15))
  (pad 1 smd rect (at -6.75 -2.5) (size 0.3 1.4) (layers F.Cu F.Paste F.Mask))
  (pad 2 smd rect (at -6.25 -2.5) (size 0.3 1.4) (layers F.Cu F.Paste F.Mask))
  (pad 3 smd rect (at -5.75 -2.5) (size 0.3 1.4) (layers F.Cu F.Paste F.Mask))
  (pad 4 smd rect (at -5.25 -2.5) (size 0.3 1.4) (layers F.Cu F.Paste F.Mask))
  (pad 5 smd rect (at -4.75 -2.5) (size 0.3 1.4) (layers F.Cu F.Paste F.Mask))
  (pad 6 smd rect (at -4.25 -2.5) (size 0.3 1.4) (layers F.Cu F.Paste F.Mask))
  (pad 7 smd rect (at -3.75 -2.5) (size 0.3 1.4) (layers F.Cu F.Paste F.Mask))
  (pad 8 smd rect (at -3.25 -2.5) (size 0.3 1.4) (layers F.Cu F.Paste F.Mask))
  (pad 9 smd rect (at -2.75 -2.5) (size 0.3 1.4) (layers F.Cu F.Paste F.Mask))
  (pad 10 smd rect (at -2.25 -2.5) (size 0.3 1.4) (layers F.Cu F.Paste F.Mask))
  (pad 11 smd rect (at -1.75 -2.5) (size 0.3 1.4) (layers F.Cu F.Paste F.Mask))
  (pad 12 smd rect (at -1.25 -2.5) (size 0.3 1.4) (layers F.Cu F.Paste F.Mask))
  (pad 13 smd rect (at -0.75 -2.5) (size 0.3 1.4) (layers F.Cu F.Paste F.Mask))
  (pad 14 smd rect (at -0.25 -2.5) (size 0.3 1.4) (layers F.Cu F.Paste F.Mask))
  (pad 15 smd rect (at 0.25 -2.5) (size 0.3 1.4) (layers F.Cu F.Paste F.Mask))
  (pad 16 smd rect (at 0.75 -2.5) (size 0.3 1.4) (layers F.Cu F.Paste F.Mask))
  (pad 17 smd rect (at 1.25 -2.5) (size 0.3 1.4) (layers F.Cu F.Paste F.Mask))
  (pad 18 smd rect (at 1.75 -2.5) (size 0.3 1.4) (layers F.Cu F.Paste F.Mask))
  (pad 19 smd rect (at 2.25 -2.5) (size 0.3 1.4) (layers F.Cu F.Paste F.Mask))
  (pad 20 smd rect (at 2.75 -2.5) (size 0.3 1.4) (layers F.Cu F.Paste F.Mask))
  (pad 21 smd rect (at 3.25 -2.5) (size 0.3 1.4) (layers F.Cu F.Paste F.Mask))
  (pad 22 smd rect (at 3.75 -2.5) (size 0.3 1.4) (layers F.Cu F.Paste F.Mask))
  (pad 23 smd rect (at 4.25 -2.5) (size 0.3 1.4) (layers F.Cu F.Paste F.Mask))
  (pad 24 smd rect (at 4.75 -2.5) (size 0.3 1.4) (layers F.Cu F.Paste F.Mask))
  (pad 25 smd rect (at 5.25 -2.5) (size 0.3 1.4) (layers F.Cu F.Paste F.Mask))
  (pad 26 smd rect (at 5.75 -2.5) (size 0.3 1.4) (layers F.Cu F.Paste F.Mask))
  (pad 27 smd rect (at 6.25 -2.5) (size 0.3 1.4) (layers F.Cu F.Paste F.Mask))
  (pad 28 smd rect (at -8.45 -1.7) (size 2.65 2.3) (layers F.Cu F.Paste F.Mask))
  (pad 28 smd rect (at 8.45 -1.7) (size 2.65 2.3) (layers F.Cu F.Paste F.Mask))
  (pad 28 smd rect (at 6.75 -2.5) (size 0.3 1.4) (layers F.Cu F.Paste F.Mask))
  (model "../../../../../../Users/zegaracr/Dropbox/photosynq project/Hardware/1.0/multispeq/multispeq.pretty/packages3d/FPC_28.wrl"
    (at (xyz 0.352 -0.09 0.07000000000000001))
    (scale (xyz 0.393701 0.393701 0.393701))
    (rotate (xyz 0 0 0))
  )
)
