(module FPC_27 (layer F.Cu) (tedit 56494B23)
  (descr "FFC, ribbon,  connector, 27 pins")
  (tags "FFC, ribbon,  connector, 27")
  (attr smd)
  (fp_text reference REF** (at 0 0) (layer F.SilkS)
    (effects (font (size 1 1) (thickness 0.15)))
  )
  (fp_text value 206RIBBON_MAIN (at 0 1.6) (layer F.Fab)
    (effects (font (size 1 1) (thickness 0.15)))
  )
  (fp_line (start -9.5 2.5) (end -9.5 1.2) (layer F.SilkS) (width 0.15))
  (fp_line (start -9.5 1.2) (end -8.7 1.2) (layer F.SilkS) (width 0.15))
  (fp_line (start -8.7 1.2) (end -8.7 -0.3) (layer F.SilkS) (width 0.15))
  (fp_line (start -8.7 -0.3) (end -9.8 -0.3) (layer F.SilkS) (width 0.15))
  (fp_line (start 8.7 -0.3) (end 9.8 -0.3) (layer F.SilkS) (width 0.15))
  (fp_line (start 9.8 -0.3) (end 9.8 -3.1) (layer F.SilkS) (width 0.15))
  (fp_line (start 9.8 -3.1) (end 6.8 -3.1) (layer F.SilkS) (width 0.15))
  (fp_line (start 6.8 -3.1) (end 6.8 -3.4) (layer F.SilkS) (width 0.15))
  (fp_line (start 6.8 -3.4) (end -6.8 -3.4) (layer F.SilkS) (width 0.15))
  (fp_line (start -6.8 -3.4) (end -6.8 -3.1) (layer F.SilkS) (width 0.15))
  (fp_line (start -6.8 -3.1) (end -9.8 -3.1) (layer F.SilkS) (width 0.15))
  (fp_line (start -9.8 -3.1) (end -9.8 -0.4) (layer F.SilkS) (width 0.15))
  (fp_line (start -9.8 -0.4) (end -9.8 -0.3) (layer F.SilkS) (width 0.15))
  (fp_line (start 8.7 -0.3) (end 8.7 1.1) (layer F.SilkS) (width 0.15))
  (fp_line (start 9.5 2.5) (end 9.5 1.1) (layer F.SilkS) (width 0.15))
  (fp_line (start 9.5 1.1) (end 8.7 1.1) (layer F.SilkS) (width 0.15))
  (fp_line (start -9.5 2.5) (end 9.5 2.5) (layer F.SilkS) (width 0.15))
  (pad 1 smd rect (at -6.5 -2.5) (size 0.3 1.4) (layers F.Cu F.Paste F.Mask))
  (pad 2 smd rect (at -6 -2.5) (size 0.3 1.4) (layers F.Cu F.Paste F.Mask))
  (pad 3 smd rect (at -5.5 -2.5) (size 0.3 1.4) (layers F.Cu F.Paste F.Mask))
  (pad 4 smd rect (at -5 -2.5) (size 0.3 1.4) (layers F.Cu F.Paste F.Mask))
  (pad 5 smd rect (at -4.5 -2.5) (size 0.3 1.4) (layers F.Cu F.Paste F.Mask))
  (pad 6 smd rect (at -4 -2.5) (size 0.3 1.4) (layers F.Cu F.Paste F.Mask))
  (pad 7 smd rect (at -3.5 -2.5) (size 0.3 1.4) (layers F.Cu F.Paste F.Mask))
  (pad 8 smd rect (at -3 -2.5) (size 0.3 1.4) (layers F.Cu F.Paste F.Mask))
  (pad 9 smd rect (at -2.5 -2.5) (size 0.3 1.4) (layers F.Cu F.Paste F.Mask))
  (pad 10 smd rect (at -2 -2.5) (size 0.3 1.4) (layers F.Cu F.Paste F.Mask))
  (pad 11 smd rect (at -1.5 -2.5) (size 0.3 1.4) (layers F.Cu F.Paste F.Mask))
  (pad 12 smd rect (at -1 -2.5) (size 0.3 1.4) (layers F.Cu F.Paste F.Mask))
  (pad 13 smd rect (at -0.5 -2.5) (size 0.3 1.4) (layers F.Cu F.Paste F.Mask))
  (pad 14 smd rect (at 0 -2.5) (size 0.3 1.4) (layers F.Cu F.Paste F.Mask))
  (pad 15 smd rect (at 0.5 -2.5) (size 0.3 1.4) (layers F.Cu F.Paste F.Mask))
  (pad 16 smd rect (at 1 -2.5) (size 0.3 1.4) (layers F.Cu F.Paste F.Mask))
  (pad 17 smd rect (at 1.5 -2.5) (size 0.3 1.4) (layers F.Cu F.Paste F.Mask))
  (pad 18 smd rect (at 2 -2.5) (size 0.3 1.4) (layers F.Cu F.Paste F.Mask))
  (pad 19 smd rect (at 2.5 -2.5) (size 0.3 1.4) (layers F.Cu F.Paste F.Mask))
  (pad 20 smd rect (at 3 -2.5) (size 0.3 1.4) (layers F.Cu F.Paste F.Mask))
  (pad 21 smd rect (at 3.5 -2.5) (size 0.3 1.4) (layers F.Cu F.Paste F.Mask))
  (pad 22 smd rect (at 4 -2.5) (size 0.3 1.4) (layers F.Cu F.Paste F.Mask))
  (pad 23 smd rect (at 4.5 -2.5) (size 0.3 1.4) (layers F.Cu F.Paste F.Mask))
  (pad 24 smd rect (at 5 -2.5) (size 0.3 1.4) (layers F.Cu F.Paste F.Mask))
  (pad 25 smd rect (at 5.5 -2.5) (size 0.3 1.4) (layers F.Cu F.Paste F.Mask))
  (pad 26 smd rect (at 6 -2.5) (size 0.3 1.4) (layers F.Cu F.Paste F.Mask))
  (pad 27 smd rect (at 6.5 -2.5) (size 0.3 1.4) (layers F.Cu F.Paste F.Mask))
  (pad 0 smd rect (at -8.2 -1.7) (size 2.65 2.3) (layers F.Cu F.Paste F.Mask))
  (pad 0 smd rect (at 8.2 -1.7) (size 2.65 2.3) (layers F.Cu F.Paste F.Mask))
)
