(module Luxeon_Z_combo+tm (layer F.Cu) (tedit 57852284)
  (descr "Philips Lumileds Luxeon Z with large thermals")
  (tags "Luxeon Z, thermals")
  (attr smd)
  (fp_text reference D3 (at -1.10388 -3.29536 90) (layer F.SilkS)
    (effects (font (size 0.4 0.4) (thickness 0.05)))
  )
  (fp_text value ACT_PULSE (at -0.50698 -2.78228 90) (layer F.SilkS)
    (effects (font (size 0.4 0.4) (thickness 0.05)))
  )
  (fp_line (start -0.69 0.28) (end -1.06 0.28) (layer F.SilkS) (width 0.25))
  (fp_line (start -0.62 -0.44) (end -1.07 -0.44) (layer F.SilkS) (width 0.25))
  (fp_line (start 0.67 -2.23) (end 0.67 -1.39) (layer F.SilkS) (width 0.25))
  (fp_line (start 0.24 -1.78) (end 1.16 -1.78) (layer F.SilkS) (width 0.25))
  (fp_line (start 1.15 0.98) (end -1.15 0.98) (layer F.SilkS) (width 0.15))
  (fp_line (start 1.15 -0.98) (end -1.15 -0.98) (layer F.SilkS) (width 0.15))
  (fp_line (start -1.15 -0.98) (end -1.15 0.98) (layer F.SilkS) (width 0.15))
  (fp_line (start 1.15 -0.98) (end 1.15 0.98) (layer F.SilkS) (width 0.15))
  (fp_circle (center -0.07 -0.02) (end 0.45 0.4) (layer F.SilkS) (width 0.15))
  (pad 1 smd rect (at 0.7366 0) (size 1.1 2.2) (layers F.Cu F.Paste F.Mask))
  (pad 2 smd rect (at -0.8382 0) (size 1.3 2.2) (layers F.Cu F.Paste F.Mask))
  (pad 2 thru_hole circle (at -1.016 -0.8715) (size 0.381 0.381) (drill 0.254) (layers *.Cu *.Mask F.SilkS))
  (pad 2 thru_hole circle (at -1.016 -0.3) (size 0.381 0.381) (drill 0.254) (layers *.Cu *.Mask F.SilkS))
  (pad 2 thru_hole circle (at -1.016 0.2715) (size 0.381 0.381) (drill 0.254) (layers *.Cu *.Mask F.SilkS))
  (pad 1 thru_hole circle (at 0.4445 -0.8715) (size 0.381 0.381) (drill 0.254) (layers *.Cu *.Mask F.SilkS))
  (pad 1 thru_hole circle (at 0.4445 -0.3) (size 0.381 0.381) (drill 0.254) (layers *.Cu *.Mask F.SilkS))
  (pad 1 thru_hole circle (at 1.016 -0.8715) (size 0.381 0.381) (drill 0.254) (layers *.Cu *.Mask F.SilkS))
  (pad 1 thru_hole circle (at 1.016 -0.3) (size 0.381 0.381) (drill 0.254) (layers *.Cu *.Mask F.SilkS))
  (pad 1 thru_hole circle (at 1.016 0.2715) (size 0.381 0.381) (drill 0.254) (layers *.Cu *.Mask F.SilkS))
  (pad 1 thru_hole circle (at 0.4445 0.2715) (size 0.381 0.381) (drill 0.254) (layers *.Cu *.Mask F.SilkS))
  (pad 2 thru_hole circle (at -0.4445 -0.8715) (size 0.381 0.381) (drill 0.254) (layers *.Cu *.Mask F.SilkS))
  (pad 2 thru_hole circle (at -0.4445 -0.3) (size 0.381 0.381) (drill 0.254) (layers *.Cu *.Mask F.SilkS))
  (pad 2 thru_hole circle (at -0.4445 0.2715) (size 0.381 0.381) (drill 0.254) (layers *.Cu *.Mask F.SilkS))
  (model walter\smd_leds\luxeon_m.wrl
    (at (xyz 0 0 0))
    (scale (xyz 1 1 1))
    (rotate (xyz 0 0 0))
  )
)
