(module Osram_PlatinumDragon (layer F.Cu) (tedit 4D9861C7)
  (descr "Osram Platinum Dragon")
  (fp_text reference LD? (at 0 -3.8989) (layer F.SilkS)
    (effects (font (size 1.00076 1.00076) (thickness 0.20066)))
  )
  (fp_text value "Osram Platinum Dragon" (at 0 4.09956) (layer F.SilkS)
    (effects (font (size 1.00076 1.00076) (thickness 0.20066)))
  )
  (fp_line (start 0.70104 0.70104) (end 0.89916 0.70104) (layer F.SilkS) (width 0.127))
  (fp_line (start 0.89916 0.70104) (end 0.89916 0.89916) (layer F.SilkS) (width 0.127))
  (fp_line (start 0.89916 0.89916) (end 0.70104 0.89916) (layer F.SilkS) (width 0.127))
  (fp_line (start 0.70104 0.89916) (end 0.70104 0.70104) (layer F.SilkS) (width 0.127))
  (fp_line (start 0.70104 0.70104) (end 0.8001 0.8001) (layer F.SilkS) (width 0.127))
  (fp_line (start -0.29972 -0.29972) (end 0.29972 -0.29972) (layer F.SilkS) (width 0.127))
  (fp_line (start 0.29972 -0.29972) (end 0.29972 0.29972) (layer F.SilkS) (width 0.127))
  (fp_line (start 0.29972 0.29972) (end -0.29972 0.29972) (layer F.SilkS) (width 0.127))
  (fp_line (start -0.29972 0.29972) (end -0.29972 -0.29972) (layer F.SilkS) (width 0.127))
  (fp_circle (center 0 0) (end -2.49936 0) (layer F.SilkS) (width 0.381))
  (fp_line (start -2.70002 -2.99974) (end 2.70002 -2.99974) (layer F.SilkS) (width 0.381))
  (fp_line (start -3.50012 2.10058) (end -3.50012 -2.19964) (layer F.SilkS) (width 0.381))
  (fp_line (start 2.60096 2.99974) (end -2.79908 2.99974) (layer F.SilkS) (width 0.381))
  (fp_line (start 3.50012 -2.19964) (end 3.50012 2.30124) (layer F.SilkS) (width 0.381))
  (fp_arc (start -2.70002 2.19964) (end -2.79908 2.99974) (angle 90) (layer F.SilkS) (width 0.381))
  (fp_arc (start -2.70002 -2.19964) (end -3.50012 -2.19964) (angle 90) (layer F.SilkS) (width 0.381))
  (fp_arc (start 2.70002 -2.19964) (end 2.70002 -2.99974) (angle 90) (layer F.SilkS) (width 0.381))
  (fp_arc (start 2.70002 2.19964) (end 3.50012 2.30124) (angle 90) (layer F.SilkS) (width 0.381))
  (fp_line (start -3.50012 -0.89916) (end -5.6007 -0.89916) (layer F.SilkS) (width 0.381))
  (fp_line (start -5.6007 -0.89916) (end -5.6007 0.89916) (layer F.SilkS) (width 0.381))
  (fp_line (start -5.6007 0.89916) (end -3.50012 0.89916) (layer F.SilkS) (width 0.381))
  (fp_line (start 5.6007 -0.89916) (end 3.50012 -0.89916) (layer F.SilkS) (width 0.381))
  (fp_line (start 5.6007 -0.89916) (end 5.6007 0.89916) (layer F.SilkS) (width 0.381))
  (fp_line (start 5.6007 0.89916) (end 3.50012 0.89916) (layer F.SilkS) (width 0.381))
  (fp_circle (center 2.60096 2.10058) (end 2.99974 2.10058) (layer F.SilkS) (width 0.381))
  (fp_circle (center -2.60096 2.10058) (end -2.99974 2.10058) (layer F.SilkS) (width 0.381))
  (fp_circle (center 2.60096 -2.10058) (end 2.99974 -2.10058) (layer F.SilkS) (width 0.381))
  (fp_circle (center -2.6035 -2.10058) (end -3.00228 -2.10058) (layer F.SilkS) (width 0.381))
  (pad 2 smd rect (at 5.00126 0) (size 1.6002 2.30124) (layers F.Cu F.Paste F.Mask)
    (solder_mask_margin 0.09906) (solder_paste_margin -0.0508))
  (pad 1 smd rect (at -5.00126 0) (size 1.6002 2.30124) (layers F.Cu F.Paste F.Mask)
    (solder_mask_margin 0.09906) (solder_paste_margin -0.0508))
  (pad 3 smd circle (at 0 0) (size 4.0005 4.0005) (layers F.Cu F.Paste F.Mask)
    (solder_mask_margin 0.09906) (solder_paste_margin -0.7493))
  (model walter\smd_leds\osram_platinumdragon.wrl
    (at (xyz 0 0 0))
    (scale (xyz 1 1 1))
    (rotate (xyz 0 0 0))
  )
)
