(module r_2512 (layer F.Cu) (tedit 4A8704CB)
  (descr "SMT resistor, 2512")
  (fp_text reference r_2512 (at 0 -2.159) (layer F.SilkS)
    (effects (font (size 0.50038 0.50038) (thickness 0.11938)))
  )
  (fp_text value R*** (at 0 2.032) (layer F.SilkS) hide
    (effects (font (size 0.50038 0.50038) (thickness 0.11938)))
  )
  (fp_line (start 2.667 -1.524) (end 2.667 1.524) (layer F.SilkS) (width 0.127))
  (fp_line (start -2.667 -1.524) (end -2.667 1.524) (layer F.SilkS) (width 0.127))
  (fp_line (start -3.175 -1.524) (end -3.175 1.524) (layer F.SilkS) (width 0.127))
  (fp_line (start -3.175 1.524) (end 3.175 1.524) (layer F.SilkS) (width 0.127))
  (fp_line (start 3.175 1.524) (end 3.175 -1.524) (layer F.SilkS) (width 0.127))
  (fp_line (start 3.175 -1.524) (end -3.175 -1.524) (layer F.SilkS) (width 0.127))
  (pad 1 smd rect (at 3.1877 0) (size 1.6002 3.175) (layers F.Cu F.Paste F.Mask))
  (pad 2 smd rect (at -3.1877 0) (size 1.6002 3.175) (layers F.Cu F.Paste F.Mask))
  (model walter\smd_resistors\r_2512.wrl
    (at (xyz 0 0 0))
    (scale (xyz 1 1 1))
    (rotate (xyz 0 0 0))
  )
)
