(module r_cat16-2 (layer F.Cu) (tedit 4A9CE2CD)
  (descr "SMT resistor net, Bourns CAT16 series, 2 way")
  (fp_text reference r_cat16-2 (at 0 -1.30048) (layer F.SilkS)
    (effects (font (size 0.20066 0.20066) (thickness 0.04064)))
  )
  (fp_text value RN*** (at 0 1.19888) (layer F.SilkS) hide
    (effects (font (size 0.20066 0.20066) (thickness 0.04064)))
  )
  (fp_line (start -0.50038 0.89916) (end -0.50038 -0.89916) (layer F.SilkS) (width 0.127))
  (fp_line (start 0.50038 -0.89916) (end 0.50038 0.89916) (layer F.SilkS) (width 0.127))
  (fp_line (start 0.89916 -0.89916) (end -0.89916 -0.89916) (layer F.SilkS) (width 0.127))
  (fp_line (start -0.89916 -0.89916) (end -0.89916 0.89916) (layer F.SilkS) (width 0.127))
  (fp_line (start -0.89916 0.89916) (end 0.89916 0.89916) (layer F.SilkS) (width 0.127))
  (fp_line (start 0.89916 0.89916) (end 0.89916 -0.89916) (layer F.SilkS) (width 0.127))
  (fp_line (start -0.50038 0) (end 0.50038 0) (layer F.SilkS) (width 0.127))
  (fp_line (start 0.89916 -0.59944) (end 0.50038 -0.59944) (layer F.SilkS) (width 0.127))
  (fp_line (start -0.50038 -0.59944) (end -0.89916 -0.59944) (layer F.SilkS) (width 0.127))
  (fp_line (start -0.89916 -0.20066) (end -0.50038 -0.20066) (layer F.SilkS) (width 0.127))
  (fp_line (start 0.50038 -0.20066) (end 0.89916 -0.20066) (layer F.SilkS) (width 0.127))
  (fp_line (start 0.89916 0.20066) (end 0.50038 0.20066) (layer F.SilkS) (width 0.127))
  (fp_line (start -0.50038 0.20066) (end -0.89916 0.20066) (layer F.SilkS) (width 0.127))
  (fp_line (start -0.89916 0.59944) (end -0.50038 0.59944) (layer F.SilkS) (width 0.127))
  (fp_line (start 0.50038 0.59944) (end 0.89916 0.59944) (layer F.SilkS) (width 0.127))
  (pad 1 smd rect (at 0.762 0.39878) (size 0.762 0.4318) (layers F.Cu F.Paste F.Mask))
  (pad 4 smd rect (at -0.762 0.39878) (size 0.762 0.4318) (layers F.Cu F.Paste F.Mask))
  (pad 2 smd rect (at 0.762 -0.39878) (size 0.762 0.4318) (layers F.Cu F.Paste F.Mask))
  (pad 3 smd rect (at -0.762 -0.39878) (size 0.762 0.4318) (layers F.Cu F.Paste F.Mask))
  (model walter\smd_resistors\r_cat16-2.wrl
    (at (xyz 0 0 0))
    (scale (xyz 1 1 1))
    (rotate (xyz 0 0 0))
  )
)
