(module rj45-shield (layer F.Cu) (tedit 4F088186)
  (descr "RJ45, shielded")
  (fp_text reference RJ45-shield (at 0 6.858) (layer F.SilkS)
    (effects (font (thickness 0.3048)))
  )
  (fp_text value JP*** (at 0 -7.874) (layer F.SilkS)
    (effects (font (thickness 0.3048)))
  )
  (fp_line (start 8.636 5.334) (end 8.636 -6.604) (layer F.SilkS) (width 0.381))
  (fp_line (start -8.636 -6.604) (end -8.636 5.334) (layer F.SilkS) (width 0.381))
  (fp_line (start 1.524 -0.254) (end -1.524 -0.254) (layer F.SilkS) (width 0.381))
  (fp_line (start 1.016 -0.254) (end 1.016 5.334) (layer F.SilkS) (width 0.381))
  (fp_line (start 1.524 -2.032) (end 1.524 -0.254) (layer F.SilkS) (width 0.381))
  (fp_line (start -1.524 -0.254) (end -1.524 -2.032) (layer F.SilkS) (width 0.381))
  (fp_line (start -1.016 5.334) (end -1.016 -0.254) (layer F.SilkS) (width 0.381))
  (fp_line (start -6.096 5.334) (end -6.096 -2.032) (layer F.SilkS) (width 0.381))
  (fp_line (start -6.096 -2.032) (end 6.096 -2.032) (layer F.SilkS) (width 0.381))
  (fp_line (start 6.096 -2.032) (end 6.096 5.334) (layer F.SilkS) (width 0.381))
  (fp_line (start -8.636 -6.604) (end 8.636 -6.604) (layer F.SilkS) (width 0.381))
  (fp_line (start 8.636 5.334) (end -8.636 5.334) (layer F.SilkS) (width 0.381))
  (pad 3 thru_hole circle (at 1.52146 -2.48412) (size 1.19888 1.19888) (drill 0.8001) (layers *.Cu))
  (pad 1 thru_hole circle (at 3.55092 -2.48412) (size 1.19888 1.19888) (drill 0.8001) (layers *.Cu))
  (pad 2 thru_hole circle (at 2.53746 -4.26466) (size 1.19888 1.19888) (drill 0.8001) (layers *.Cu))
  (pad 4 thru_hole circle (at 0.508 -4.26466) (size 1.19888 1.19888) (drill 0.8001) (layers *.Cu))
  (pad 5 thru_hole circle (at -0.508 -2.48412) (size 1.19888 1.19888) (drill 0.8001) (layers *.Cu))
  (pad 6 thru_hole circle (at -1.52146 -4.26466) (size 1.19888 1.19888) (drill 0.8001) (layers *.Cu))
  (pad 7 thru_hole circle (at -2.53746 -2.48412) (size 1.19888 1.19888) (drill 0.8001) (layers *.Cu))
  (pad 8 thru_hole circle (at -3.55092 -4.26466) (size 1.19888 1.19888) (drill 0.8001) (layers *.Cu))
  (pad "" thru_hole circle (at -8.12038 -3.37312) (size 2.49936 2.49936) (drill 1.50114) (layers *.Cu))
  (pad "" thru_hole circle (at 8.12038 -3.37312) (size 2.49936 2.49936) (drill 1.50114) (layers *.Cu))
  (pad "" thru_hole circle (at -6.33984 0.05588) (size 3.2512 3.2512) (drill 3.2512) (layers *.Cu))
  (pad "" thru_hole circle (at 6.33984 0.05588) (size 3.2512 3.2512) (drill 3.2512) (layers *.Cu))
  (model walter\conn_pc\rj45-shield.wrl
    (at (xyz 0 0 0))
    (scale (xyz 1 1 1))
    (rotate (xyz 0 0 0))
  )
)
