(module SDIP04A (layer F.Cu) (tedit 5133C761)
  (fp_text reference DB*** (at 0 -5.00126) (layer F.SilkS)
    (effects (font (size 0.8001 0.8001) (thickness 0.14986)))
  )
  (fp_text value SDIP04A (at 0 5.10032) (layer F.SilkS)
    (effects (font (size 0.8001 0.8001) (thickness 0.14986)))
  )
  (fp_line (start 4.50088 2.49936) (end 3.2512 2.49936) (layer F.SilkS) (width 0.381))
  (fp_line (start 4.50088 -2.49936) (end 3.2512 -2.49936) (layer F.SilkS) (width 0.381))
  (fp_line (start -4.50088 -2.49936) (end -3.2512 -2.49936) (layer F.SilkS) (width 0.381))
  (fp_line (start -4.50088 2.49936) (end -3.2512 2.49936) (layer F.SilkS) (width 0.381))
  (fp_line (start -3.2512 4.24942) (end 3.2512 4.24942) (layer F.SilkS) (width 0.381))
  (fp_line (start 3.2512 4.24942) (end 3.2512 -4.24942) (layer F.SilkS) (width 0.381))
  (fp_line (start 3.2512 -4.24942) (end -3.2512 -4.24942) (layer F.SilkS) (width 0.381))
  (fp_line (start -3.2512 -4.24942) (end -3.2512 4.24942) (layer F.SilkS) (width 0.381))
  (fp_line (start 2.49936 -2.49936) (end 1.69926 -2.49936) (layer F.SilkS) (width 0.254))
  (fp_line (start 2.49936 2.49682) (end 1.69926 2.49682) (layer F.SilkS) (width 0.254))
  (fp_line (start 2.10058 2.09804) (end 2.10058 2.89814) (layer F.SilkS) (width 0.254))
  (fp_arc (start -2.10058 2.60096) (end -1.7018 2.60096) (angle 90) (layer F.SilkS) (width 0.254))
  (fp_arc (start -2.09804 2.60096) (end -2.09804 2.99974) (angle 90) (layer F.SilkS) (width 0.254))
  (fp_arc (start -1.30048 2.60096) (end -1.7018 2.60096) (angle 90) (layer F.SilkS) (width 0.254))
  (fp_arc (start -1.30048 2.60096) (end -1.30048 2.19964) (angle 90) (layer F.SilkS) (width 0.254))
  (fp_arc (start -1.30048 -2.4003) (end -1.30048 -2.80162) (angle 90) (layer F.SilkS) (width 0.254))
  (fp_arc (start -1.30048 -2.4003) (end -1.7018 -2.4003) (angle 90) (layer F.SilkS) (width 0.254))
  (fp_arc (start -2.10058 -2.4003) (end -2.10058 -2.00152) (angle 90) (layer F.SilkS) (width 0.254))
  (fp_arc (start -2.10058 -2.4003) (end -1.7018 -2.4003) (angle 90) (layer F.SilkS) (width 0.254))
  (pad 2 smd rect (at -4.45008 -2.55016) (size 1.50114 1.30048) (layers F.Cu F.Paste F.Mask))
  (pad 3 smd rect (at -4.45008 2.55016) (size 1.4986 1.30048) (layers F.Cu F.Paste F.Mask))
  (pad 1 smd rect (at 4.45008 2.55016) (size 1.50114 1.30048) (layers F.Cu F.Paste F.Mask))
  (pad 4 smd rect (at 4.45008 -2.55016) (size 1.4986 1.30048) (layers F.Cu F.Paste F.Mask))
  (model walter\smd_diode\sdip04a.wrl
    (at (xyz 0 0 0))
    (scale (xyz 1 1 1))
    (rotate (xyz 0 0 0))
  )
)
