(module Seoul_P5-II (layer F.Cu) (tedit 4F5DD0E8)
  (descr "Seoul P5-II")
  (fp_text reference LD? (at 0 -2.99974) (layer F.SilkS)
    (effects (font (size 0.52324 0.52324) (thickness 0.09906)))
  )
  (fp_text value "Seoul P5-II" (at 0 3.05054) (layer F.SilkS)
    (effects (font (size 0.52324 0.52324) (thickness 0.09906)))
  )
  (fp_circle (center -2.4003 1.89992) (end -2.55016 1.99898) (layer F.SilkS) (width 0.14986))
  (fp_circle (center 0 0) (end 0 -2.10058) (layer F.SilkS) (width 0.14986))
  (fp_line (start -2.99974 -2.49936) (end -2.99974 2.49936) (layer F.SilkS) (width 0.14986))
  (fp_line (start -2.99974 -2.49936) (end 2.99974 -2.49936) (layer F.SilkS) (width 0.14986))
  (fp_line (start 2.99974 -2.49936) (end 2.99974 2.49936) (layer F.SilkS) (width 0.14986))
  (fp_line (start 2.99974 2.49936) (end -2.99974 2.49936) (layer F.SilkS) (width 0.14986))
  (pad 1 smd rect (at 2.55016 -1.82626) (size 0.59944 1.04902) (layers F.Cu F.Paste F.Mask)
    (solder_mask_margin 0.0508) (solder_paste_margin -0.0508))
  (pad 2 smd rect (at 2.55016 0) (size 0.59944 1.19888) (layers F.Cu F.Paste F.Mask)
    (solder_mask_margin 0.0508) (solder_paste_margin -0.0508))
  (pad 3 smd rect (at 2.55016 1.82626) (size 0.59944 1.04902) (layers F.Cu F.Paste F.Mask)
    (solder_mask_margin 0.0508) (solder_paste_margin -0.0508))
  (pad 4 smd rect (at -2.55016 1.82626) (size 0.59944 1.04902) (layers F.Cu F.Paste F.Mask)
    (solder_mask_margin 0.0508) (solder_paste_margin -0.0508))
  (pad 5 smd rect (at -2.55016 0) (size 0.59944 1.19888) (layers F.Cu F.Paste F.Mask)
    (solder_mask_margin 0.0508) (solder_paste_margin -0.0508))
  (pad 6 smd rect (at -2.55016 -1.82626) (size 0.59944 1.04902) (layers F.Cu F.Paste F.Mask)
    (solder_mask_margin 0.0508) (solder_paste_margin -0.0508))
  (pad 7 smd rect (at 0 0) (size 3.50012 4.699) (layers F.Cu F.Paste F.Mask)
    (solder_mask_margin 0.0508) (solder_paste_margin -0.0508))
  (model walter\smd_leds\seoul_p5-ii.wrl
    (at (xyz 0 0 0))
    (scale (xyz 1 1 1))
    (rotate (xyz 0 0 0))
  )
)
