(module TCS3472-Wide-solderable (layer F.Cu) (tedit 54120248)
  (attr smd)
  (fp_text reference U110 (at -0.005 1.585) (layer F.SilkS)
    (effects (font (size 0.889 0.889) (thickness 0.3048)))
  )
  (fp_text value TCS34715FN (at -0.21336 -1.651) (layer F.SilkS)
    (effects (font (size 0.508 0.508) (thickness 0.127)))
  )
  (fp_circle (center 0 0) (end -0.0127 0.1143) (layer F.SilkS) (width 0.15))
  (fp_circle (center -1.0033 -1.1938) (end -1.1049 -1.2954) (layer F.SilkS) (width 0.15))
  (fp_text user foto (at 0.0127 0.2921) (layer F.SilkS)
    (effects (font (size 0.127 0.127) (thickness 0.02)))
  )
  (fp_line (start 0 -1.2) (end 1 -1.2) (layer F.SilkS) (width 0.005))
  (fp_line (start 1 -1.2) (end 1 1.2) (layer F.SilkS) (width 0.005))
  (fp_line (start 1 1.2) (end -1 1.2) (layer F.SilkS) (width 0.005))
  (fp_line (start -1 1.2) (end -1 -1.2) (layer F.SilkS) (width 0.005))
  (fp_line (start -1 -1.2) (end 0 -1.2) (layer F.SilkS) (width 0.005))
  (fp_line (start 0 -0.205) (end 0.25 -0.205) (layer F.SilkS) (width 0.01))
  (fp_line (start 0.25 -0.205) (end 0.25 0.2) (layer F.SilkS) (width 0.01))
  (fp_line (start 0.25 0.2) (end -0.245 0.2) (layer F.SilkS) (width 0.01))
  (fp_line (start -0.245 0.2) (end -0.245 -0.205) (layer F.SilkS) (width 0.01))
  (fp_line (start -0.245 -0.205) (end 0 -0.205) (layer F.SilkS) (width 0.01))
  (fp_line (start 0 0) (end 0 -0.025) (layer F.SilkS) (width 0.005))
  (fp_line (start 0 -0.025) (end 0 0.025) (layer F.SilkS) (width 0.005))
  (fp_line (start 0 0.025) (end 0 0) (layer F.SilkS) (width 0.005))
  (fp_line (start 0 0) (end -0.025 0) (layer F.SilkS) (width 0.005))
  (fp_line (start -0.025 0) (end 0 0) (layer F.SilkS) (width 0.005))
  (fp_line (start 0 0) (end 0.025 0) (layer F.SilkS) (width 0.005))
  (fp_line (start 0.025 0) (end 0 0) (layer F.SilkS) (width 0.005))
  (fp_text user + (at -0.005 2.17) (layer F.SilkS)
    (effects (font (size 0.127 1.524) (thickness 0.03175)))
  )
  (pad 2 smd rect (at -0.8 0) (size 1 0.4) (layers F.Cu F.Paste F.Mask))
  (pad 5 smd rect (at 0.8 0) (size 1 0.4) (layers F.Cu F.Paste F.Mask))
  (pad 3 smd rect (at -0.8 0.65) (size 1 0.4) (layers F.Cu F.Paste F.Mask))
  (pad 1 smd rect (at -0.8 -0.65) (size 1 0.4) (layers F.Cu F.Paste F.Mask))
  (pad 6 smd rect (at 0.8 -0.65) (size 1 0.4) (layers F.Cu F.Paste F.Mask))
  (pad 4 smd rect (at 0.8 0.65) (size 1 0.4) (layers F.Cu F.Paste F.Mask))
)
