EESchema Schematic File Version 2
LIBS:power
LIBS:device
LIBS:transistors
LIBS:conn
LIBS:linear
LIBS:regul
LIBS:74xx
LIBS:cmos4000
LIBS:adc-dac
LIBS:memory
LIBS:xilinx
LIBS:special
LIBS:microcontrollers
LIBS:dsp
LIBS:microchip
LIBS:analog_switches
LIBS:motorola
LIBS:texas
LIBS:intel
LIBS:audio
LIBS:interface
LIBS:digital-audio
LIBS:philips
LIBS:display
LIBS:cypress
LIBS:siliconi
LIBS:opto
LIBS:atmel
LIBS:contrib
LIBS:valves
LIBS:add-ON board-cache
EELAYER 27 0
EELAYER END
$Descr A4 11693 8268
encoding utf-8
Sheet 1 1
Title "Ideaspec_Handheld_unit"
Date "15 dec 2014"
Rev "1.0"
Comp "MSU_KRAMERLAB"
Comment1 "Zegarac Robert"
Comment2 ""
Comment3 ""
Comment4 ""
$EndDescr
$Comp
L R R112
U 1 1 516F06E3
P 3850 5525
F 0 "R112" V 3775 5575 50  0000 C CNN
F 1 "1K" V 3850 5525 50  0000 C CNN
F 2 "" H 3850 5525 60  0000 C CNN
F 3 "RC0402JR-0727KL" V 3850 5525 20  0000 C CNN
	1    3850 5525
	-1   0    0    1   
$EndComp
$Comp
L C C114
U 1 1 516F06F6
P 4650 5675
F 0 "C114" V 4775 5615 50  0000 L CNN
F 1 "1n" V 4595 5735 50  0000 L CNN
F 2 "" H 4650 5675 60  0000 C CNN
F 3 "C0402C102J5GACTU" H 4650 5675 10  0000 C CNN
	1    4650 5675
	0    -1   -1   0   
$EndComp
$Comp
L C C112
U 1 1 517FDA64
P 6425 5250
F 0 "C112" H 6200 5150 50  0000 L CNN
F 1 "10u" H 6475 5150 50  0000 L CNN
F 2 "" H 6425 5250 60  0000 C CNN
F 3 "C0805C106M4PACTU" H 6425 5250 20  0000 C CNN
	1    6425 5250
	-1   0    0    1   
$EndComp
$Comp
L LM358 U103
U 1 1 51801A7B
P 5125 3475
F 0 "U103" H 5255 3565 60  0000 L CNN
F 1 "OPA2180" H 5165 3345 60  0000 L CNN
F 2 "" H 5125 3475 60  0000 C CNN
F 3 "OPA2180IDR" H 5125 3475 20  0000 C CNN
	1    5125 3475
	1    0    0    -1  
$EndComp
$Comp
L R R110
U 1 1 51801A92
P 5925 3475
F 0 "R110" V 6005 3475 50  0000 C CNN
F 1 "22" V 5925 3475 50  0000 C CNN
F 2 "" H 5925 3475 60  0000 C CNN
F 3 "RC0805JR-0722RL" V 5925 3475 20  0000 C CNN
	1    5925 3475
	0    1    -1   0   
$EndComp
$Comp
L R R113
U 1 1 51801AF6
P 6525 3975
F 0 "R113" V 6605 3975 50  0000 C CNN
F 1 "3.3" V 6525 3975 50  0000 C CNN
F 2 "" H 6525 3975 60  0000 C CNN
F 3 "RC0805JR-073K3L" V 6525 3975 20  0000 C CNN
	1    6525 3975
	-1   0    0    -1  
$EndComp
$Comp
L C C113
U 1 1 51801CF0
P 5475 3875
F 0 "C113" V 5425 3925 50  0000 L CNN
F 1 "68p" V 5425 3685 50  0000 L CNN
F 2 "" H 5475 3875 60  0000 C CNN
F 3 "CC0402JRNPO9BN680" H 5475 3875 20  0000 C CNN
	1    5475 3875
	0    1    -1   0   
$EndComp
Text Label 3700 5275 0    60   ~ 0
pinK
$Comp
L R R107
U 1 1 5182CE98
P 6925 1700
F 0 "R107" V 7005 1700 50  0000 C CNN
F 1 "220" V 6925 1700 50  0000 C CNN
F 2 "" H 6925 1700 60  0000 C CNN
F 3 "RC0805JR-0722RL" V 6925 1700 20  0000 C CNN
	1    6925 1700
	-1   0    0    -1  
$EndComp
$Comp
L C C108
U 1 1 5182CEAA
P 5875 1600
F 0 "C108" V 5825 1660 50  0000 L CNN
F 1 "68p" V 5925 1420 50  0000 L CNN
F 2 "" H 5875 1600 60  0000 C CNN
F 3 "CC0402JRNPO9BN680" H 5875 1600 20  0000 C CNN
	1    5875 1600
	0    1    -1   0   
$EndComp
$Comp
L LED D104
U 1 1 5182DAE5
P 6725 2975
F 0 "D104" H 6725 3075 50  0000 C CNN
F 1 "ACTB" V 6900 2850 50  0000 C CNN
F 2 "" V 6825 3325 60  0000 C CNN
F 3 "LXZ1-PA01" H 6725 2975 20  0000 C CNN
	1    6725 2975
	0    -1   1    0   
$EndComp
$Comp
L LED D102
U 1 1 5182DAF2
P 6725 1200
F 0 "D102" H 6725 1300 50  0000 C CNN
F 1 "IRCALB" H 6725 1100 50  0000 C CNN
F 2 "" H 6725 1400 60  0000 C CNN
F 3 "VSMG2700-GS08" H 6725 1200 20  0000 C CNN
	1    6725 1200
	1    0    0    1   
$EndComp
Text Label 6475 1200 2    30   ~ 0
calibration_LED
Text Label 6525 3225 2    20   ~ 0
ACT_SAT-LED
Text Label 4600 3375 1    20   ~ 0
actinic_switched
Text Label 6475 2625 2    40   ~ 0
ActVCC
Text Label 5975 3725 0    40   Italic 0
ACT_SAT_FB
Text Label 5975 4225 0    40   Italic 0
ACT_GND
$Comp
L LED D101
U 1 1 5182E95A
P 10425 3850
F 0 "D101" H 10425 3950 50  0000 C CNN
F 1 "MEAS2B" H 10425 3750 50  0000 C CNN
F 2 "" V 10425 4150 60  0000 C CNN
F 3 "SFH4441" H 10425 3850 20  0000 C CNN
	1    10425 3850
	0    -1   1    0   
$EndComp
$Comp
L R R101
U 1 1 5182E98C
P 10175 3600
F 0 "R101" V 10255 3600 50  0000 C CNN
F 1 "300" V 10175 3600 40  0000 C CNN
F 2 "SM1210" V 10175 3600 10  0000 C CNN
F 3 "ERJ-14YJ301U" V 10175 3600 10  0000 C CNN
F 4 "0.1304" V 10175 3600 10  0001 C CNN "price50"
F 5 "0.04023" V 10175 3600 60  0001 C CNN "Price1000"
	1    10175 3600
	0    1    1    0   
$EndComp
$Comp
L C C102
U 1 1 5182E9AA
P 9750 3800
F 0 "C102" H 9800 3900 50  0000 L CNN
F 1 "10u" H 9800 3700 50  0000 L CNN
F 2 "" H 9750 3700 20  0000 C CNN
F 3 "C0805C106M4PACTU" H 9750 3800 20  0000 C CNN
	1    9750 3800
	-1   0    0    -1  
$EndComp
$Comp
L LED D103
U 1 1 5182EBC9
P 10425 5050
F 0 "D103" H 10425 5150 50  0000 C CNN
F 1 "MEAS1B" H 10425 4950 50  0000 C CNN
F 2 "" V 10425 5350 60  0000 C CNN
F 3 "LXZ1-PB01" H 10425 5050 20  0000 C CNN
	1    10425 5050
	0    -1   1    0   
$EndComp
$Comp
L R R109
U 1 1 5182EBD5
P 10175 4625
F 0 "R109" V 10255 4625 50  0000 C CNN
F 1 "100" V 10175 4625 50  0000 C CNN
F 2 "SM1206" V 10175 4625 10  0000 C CNN
F 3 "MCR25JZHJ101" V 10175 4625 10  0000 C CNN
F 4 "0.12" V 10175 4625 60  0001 C CNN "Price10"
F 5 "0.02012" V 10175 4625 60  0001 C CNN "price2500"
	1    10175 4625
	0    1    -1   0   
$EndComp
$Comp
L R R111
U 1 1 5183EE6F
P 9825 5525
F 0 "R111" V 9905 5525 50  0000 C CNN
F 1 "22" V 9825 5525 50  0000 C CNN
F 2 "" H 9825 5525 60  0000 C CNN
F 3 "RC0402JR-0722RL" V 9825 5525 20  0000 C CNN
	1    9825 5525
	0    1    -1   0   
$EndComp
$Comp
L R R106
U 1 1 5183EE8B
P 9825 4325
F 0 "R106" V 9905 4325 50  0000 C CNN
F 1 "22" V 9825 4325 50  0000 C CNN
F 2 "" H 9825 4325 60  0000 C CNN
F 3 "RC0805JR-0722RL" V 9825 4325 20  0000 C CNN
	1    9825 4325
	0    1    -1   0   
$EndComp
NoConn ~ 8875 5625
NoConn ~ 9475 5625
$Comp
L GND #PWR01
U 1 1 51CC8D3D
P 5425 2025
F 0 "#PWR01" H 5425 2025 30  0001 C CNN
F 1 "GND" H 5425 1955 30  0001 C CNN
F 2 "" H 5425 2025 60  0000 C CNN
F 3 "" H 5425 2025 60  0000 C CNN
	1    5425 2025
	1    0    0    -1  
$EndComp
$Comp
L PWR_FLAG #FLG02
U 1 1 51CC9360
P 2375 1025
F 0 "#FLG02" H 2375 1120 30  0001 C CNN
F 1 "PWR_FLAG" H 2375 1250 30  0000 C CNN
F 2 "" H 2375 1025 60  0000 C CNN
F 3 "" H 2375 1025 60  0000 C CNN
	1    2375 1025
	1    0    0    -1  
$EndComp
$Comp
L DG4157DL-T1-E3 U102
U 1 1 51CCA405
P 4725 1100
F 0 "U102" H 4825 1000 30  0000 L CNN
F 1 "DG4157DL" H 4825 1200 30  0000 L CNN
F 2 "" H 4725 1100 60  0000 C CNN
F 3 "DG4157DL-T1-E3" H 4725 1100 20  0000 C CNN
F 4 "0.1" H 4725 1100 60  0001 C CNN "price 10"
F 5 "0.0001" H 4725 1100 60  0001 C CNN "price 2000"
	1    4725 1100
	-1   0    0    -1  
$EndComp
$Comp
L DG4157DL-T1-E3 U108
U 1 1 51CCBF2F
P 4375 3375
F 0 "U108" H 4255 3485 30  0000 L CNN
F 1 "DG4157DL" H 4475 3475 30  0000 L CNN
F 2 "" H 4375 3375 60  0000 C CNN
F 3 "DG4157DL-T1-E3" H 4375 3375 20  0000 C CNN
	1    4375 3375
	-1   0    0    -1  
$EndComp
$Comp
L MOSN-TSOP6 Q103
U 1 1 51D461CD
P 10325 5525
F 0 "Q103" H 10575 5475 40  0000 C CNN
F 1 "MOSN" H 10675 5575 60  0000 C CNN
F 2 "" H 10625 5375 60  0000 C CNN
F 3 "IRLTS6342TRPBF" H 10325 5525 20  0000 C CNN
	1    10325 5525
	1    0    0    -1  
$EndComp
$Comp
L MOSN-TSOP6 Q101
U 1 1 51D46788
P 10325 4325
F 0 "Q101" H 10575 4275 40  0000 C CNN
F 1 "MOSN" H 10675 4375 60  0000 C CNN
F 2 "" H 10625 4175 60  0000 C CNN
F 3 "IRLTS6342TRPBF" H 10325 4325 20  0000 C CNN
	1    10325 4325
	1    0    0    -1  
$EndComp
$Comp
L MOSN-TSOP6 Q102
U 1 1 51D4652C
P 6425 3475
F 0 "Q102" H 6675 3425 40  0000 C CNN
F 1 "MOSN" H 6775 3525 60  0000 C CNN
F 2 "" H 6725 3325 60  0000 C CNN
F 3 "IRLTS6342TRPBF" H 6425 3475 20  0000 C CNN
	1    6425 3475
	1    0    0    -1  
$EndComp
$Comp
L LMH6601 U105
U 1 1 51E446D8
P 4700 5175
F 0 "U105" H 4850 5475 70  0000 C CNN
F 1 "LMH6601" H 4850 5375 70  0000 C CNN
F 2 "" H 4700 5175 60  0000 C CNN
F 3 "LMH6601MG/NOPB" H 4700 5175 20  0000 C CNN
	1    4700 5175
	1    0    0    -1  
$EndComp
$Comp
L C C123
U 1 1 51E80F92
P 9250 4925
F 0 "C123" H 9300 5025 50  0000 L CNN
F 1 "10u" H 9300 4825 50  0000 L CNN
F 2 "" H 9250 4925 60  0000 C CNN
F 3 "C0805C106M4PACTU" H 9250 4925 20  0000 C CNN
	1    9250 4925
	-1   0    0    -1  
$EndComp
$Comp
L LM5551 U104
U 1 1 521F678B
P 9175 5475
F 0 "U104" H 9075 5225 60  0000 C CNN
F 1 "LM5551" H 9175 5725 60  0000 C CNN
F 2 "~" H 9175 5475 60  0000 C CNN
F 3 "LM5111-1MY/NOPB" H 9175 5475 20  0000 C CNN
	1    9175 5475
	1    0    0    1   
$EndComp
$Comp
L R R114
U 1 1 517FDF22
P 4350 5575
F 0 "R114" V 4430 5575 50  0000 C CNN
F 1 "1K" V 4350 5575 50  0000 C CNN
F 2 "" H 4350 5575 60  0000 C CNN
F 3 "RC0805JR-072K2L" V 4350 5575 20  0000 C CNN
	1    4350 5575
	-1   0    0    1   
$EndComp
$Comp
L C C115
U 1 1 521F7EBE
P 4100 5275
F 0 "C115" H 4100 5375 40  0000 L CNN
F 1 "0.1u" H 4106 5190 40  0000 L CNN
F 2 "SM1206" H 4138 5125 30  0000 C CNN
F 3 "C3216C0G1H104J160AA" H 4100 5275 20  0000 C CNN
	1    4100 5275
	0    -1   -1   0   
$EndComp
$Comp
L R R143
U 1 1 522F80E9
P 6525 2875
F 0 "R143" V 6605 2875 40  0000 C CNN
F 1 "2K" V 6532 2876 40  0000 C CNN
F 2 "~" V 6455 2875 30  0000 C CNN
F 3 "RC0805JR-072K2L" V 6525 2875 20  0000 C CNN
	1    6525 2875
	-1   0    0    -1  
$EndComp
$Comp
L R R144
U 1 1 523CA8E2
P 6675 1000
F 0 "R144" V 6755 1000 40  0000 C CNN
F 1 "10K" V 6682 1001 40  0000 C CNN
F 2 "~" V 6605 1000 30  0000 C CNN
F 3 "RC0805JR-0710KL" V 6675 1000 20  0000 C CNN
	1    6675 1000
	0    1    -1   0   
$EndComp
$Comp
L PWR_FLAG #FLG03
U 1 1 52535184
P 2625 1025
F 0 "#FLG03" H 2625 1120 30  0001 C CNN
F 1 "PWR_FLAG" H 2625 1250 30  0000 C CNN
F 2 "" H 2625 1025 60  0000 C CNN
F 3 "" H 2625 1025 60  0000 C CNN
	1    2625 1025
	1    0    0    -1  
$EndComp
$Comp
L C C1
U 1 1 5254815B
P 7125 1050
F 0 "C1" H 7175 1150 50  0000 L CNN
F 1 "10u" H 7175 950 50  0000 L CNN
F 2 "" H 7125 1050 60  0000 C CNN
F 3 "C0805C106M4PACTU" H 7125 1050 10  0000 C CNN
	1    7125 1050
	-1   0    0    -1  
$EndComp
$Comp
L LM358 U103
U 2 1 5182CE86
P 5525 1200
F 0 "U103" H 5595 1320 60  0000 L CNN
F 1 "OPA2180" H 5575 1070 60  0000 L CNN
F 2 "" H 5525 1200 60  0000 C CNN
F 3 "OPA2180IDR" H 5525 1200 20  0000 C CNN
	2    5525 1200
	1    0    0    -1  
$EndComp
$Comp
L PWR_FLAG #FLG04
U 1 1 5254858D
P 5025 850
F 0 "#FLG04" H 5025 945 30  0001 C CNN
F 1 "PWR_FLAG" H 5025 1030 30  0000 C CNN
F 2 "" H 5025 850 60  0000 C CNN
F 3 "" H 5025 850 60  0000 C CNN
	1    5025 850 
	1    0    0    1   
$EndComp
$Comp
L CONN_16 P1
U 1 1 5254250E
P 975 3350
F 0 "P1" V 925 3350 60  0000 C CNN
F 1 "CONN_12" V 1025 3350 60  0000 C CNN
F 2 "" H 975 3350 60  0000 C CNN
F 3 "609-1793-1-ND" V 975 3350 20  0000 C CNN
	1    975  3350
	-1   0    0    -1  
$EndComp
$Comp
L DIODE D106
U 1 1 52FD032F
P 5075 5675
F 0 "D106" H 5075 5750 40  0000 C CNN
F 1 "DIODE" H 5075 5600 40  0000 C CNN
F 2 "SOD323" H 5160 5660 10  0000 C CNN
F 3 "1N4148WS" H 5075 5675 10  0000 C CNN
	1    5075 5675
	-1   0    0    1   
$EndComp
$Comp
L DIODE D107
U 1 1 52FD033E
P 5075 6175
F 0 "D107" H 5075 6250 40  0000 C CNN
F 1 "DIODE" H 5075 6100 40  0000 C CNN
F 2 "SOD323" H 4990 6190 10  0000 C CNN
F 3 "1N4148WS" H 5075 6175 10  0000 C CNN
	1    5075 6175
	1    0    0    -1  
$EndComp
$Comp
L LMH6601 U106
U 1 1 52FD037D
P 5900 5225
F 0 "U106" H 6050 5525 70  0000 C CNN
F 1 "LMH6601" H 6050 5425 70  0000 C CNN
F 2 "" H 5900 5225 60  0000 C CNN
F 3 "LMH6601MG/NOPB" H 5900 5225 20  0000 C CNN
	1    5900 5225
	1    0    0    -1  
$EndComp
$Comp
L SPST_SW_ADG701 U101
U 1 1 53039D0D
P 4750 5900
F 0 "U101" H 4850 5800 30  0000 L CNN
F 1 "SPST_SW_ADG701" H 4775 5975 30  0000 L CNN
F 2 "sot23-6" H 4725 5925 30  0000 C CNN
F 3 "~" H 4750 5900 60  0000 C CNN
	1    4750 5900
	1    0    0    -1  
$EndComp
$Comp
L R R102
U 1 1 53039FDD
P 3850 6050
F 0 "R102" V 3930 6050 50  0000 C CNN
F 1 "1K" V 3850 6050 50  0000 C CNN
F 2 "" H 3850 6050 60  0000 C CNN
F 3 "RC0805JR-072K2L" V 3850 6050 20  0000 C CNN
	1    3850 6050
	0    1    1    0   
$EndComp
$Comp
L C C101
U 1 1 5303C003
P 4300 4825
F 0 "C101" V 4255 4885 50  0000 L CNN
F 1 "10u" V 4255 4645 50  0000 L CNN
F 2 "" H 4300 4825 60  0000 C CNN
F 3 "C0805C106M4PACTU" H 4300 4825 20  0000 C CNN
	1    4300 4825
	0    1    1    0   
$EndComp
$Comp
L DIODE_PHOTODIODE_REVE_DATE15JUN2010 D105
U 1 1 532C9214
P 3700 5475
F 0 "D105" H 3700 5675 30  0000 C CNN
F 1 "PIN" H 3700 5325 30  0001 C CNN
F 2 "SIP 0.2" H 3700 5450 10  0000 C CNN
F 3 "S6775" H 3600 5500 10  0000 C CNN
	1    3700 5475
	0    -1   -1   0   
$EndComp
Text GLabel 1425 2550 2    40   Output ~ 0
IRCALB_PIN10
Text GLabel 1425 2650 2    40   Output ~ 0
IR_CAL
Text GLabel 1425 2750 2    40   Output ~ 0
preselected ACT
Text GLabel 1425 2850 2    40   Output ~ 0
ACTB_PIN2
Text GLabel 1425 3150 2    40   Output ~ 0
+5V
Text GLabel 1425 2950 2    40   Output ~ 0
MEAS1B_PIN11
Text GLabel 1425 3050 2    40   Output ~ 0
MEAS2B_PIN12
Text GLabel 1425 3350 2    40   Output ~ 0
+V_meas_regulated
Text GLabel 1425 3850 2    40   Input ~ 0
DETB_A11_ADDON
Text GLabel 1425 4050 2    40   Output ~ 0
HOLD
Text GLabel 1425 3950 2    40   Output ~ 0
DetVcc
$Comp
L GND #PWR05
U 1 1 535996E7
P 2100 3275
F 0 "#PWR05" H 2100 3275 30  0001 C CNN
F 1 "GND" H 2100 3205 30  0001 C CNN
F 2 "" H 2100 3275 60  0000 C CNN
F 3 "" H 2100 3275 60  0000 C CNN
	1    2100 3275
	-1   0    0    -1  
$EndComp
$Comp
L AGND #PWR2
U 1 1 53599947
P 2100 3775
F 0 "#PWR2" H 2100 3775 40  0001 C CNN
F 1 "AGND" H 2100 3705 50  0000 C CNN
F 2 "" H 2100 3775 60  0000 C CNN
F 3 "" H 2100 3775 60  0000 C CNN
	1    2100 3775
	-1   0    0    -1  
$EndComp
Text GLabel 3350 6050 0    40   Input ~ 0
HOLD
Text GLabel 7025 5600 2    40   Output ~ 0
DETB_A11_ADDON
$Comp
L AGND #PWR10
U 1 1 5359ADDA
P 6425 6150
F 0 "#PWR10" H 6425 6150 40  0001 C CNN
F 1 "AGND" H 6425 6080 50  0000 C CNN
F 2 "" H 6425 6150 60  0000 C CNN
F 3 "" H 6425 6150 60  0000 C CNN
	1    6425 6150
	1    0    0    -1  
$EndComp
Text GLabel 7025 4825 2    60   Input ~ 0
DetVcc
Text GLabel 8650 5525 0    40   Input ~ 0
MEAS1B_PIN11
Text GLabel 8650 5325 0    40   Input ~ 0
MEAS2B_PIN12
Text GLabel 3950 2625 0    40   Input ~ 0
+5V
Text GLabel 4000 3650 0    40   Input ~ 0
ACTB_PIN2
$Comp
L GND #PWR06
U 1 1 5359BA0B
P 5025 4275
F 0 "#PWR06" H 5025 4275 30  0001 C CNN
F 1 "GND" H 5025 4205 30  0001 C CNN
F 2 "" H 5025 4275 60  0000 C CNN
F 3 "" H 5025 4275 60  0000 C CNN
	1    5025 4275
	1    0    0    -1  
$EndComp
Text GLabel 4000 3325 0    40   Input ~ 0
preselected ACT
Text GLabel 4175 1050 0    40   Input ~ 0
IR_CAL
Text GLabel 4175 1450 0    40   Input ~ 0
IRCALB_PIN10
Text GLabel 8625 4625 0    40   Input ~ 0
+V_meas_regulated
Text GLabel 8625 4725 0    40   Input ~ 0
+5V
Text Notes 8300 4100 0    60   ~ 0
measurement pulser
Text Notes 4900 4700 0    60   ~ 0
Detector
Text Notes 5175 2550 0    60   ~ 0
Actinic/Sat
$Comp
L GND #PWR07
U 1 1 535A8618
P 2375 1075
F 0 "#PWR07" H 2375 1075 30  0001 C CNN
F 1 "GND" H 2375 1005 30  0001 C CNN
F 2 "" H 2375 1075 60  0000 C CNN
F 3 "" H 2375 1075 60  0000 C CNN
	1    2375 1075
	1    0    0    -1  
$EndComp
$Comp
L AGND #PWR7
U 1 1 535A8620
P 2625 1075
F 0 "#PWR7" H 2625 1075 40  0001 C CNN
F 1 "AGND" H 2625 1005 50  0000 C CNN
F 2 "" H 2625 1075 60  0000 C CNN
F 3 "" H 2625 1075 60  0000 C CNN
	1    2625 1075
	1    0    0    -1  
$EndComp
Text GLabel 4175 800  0    40   Input ~ 0
+5V
$Comp
L GNDA #PWR3
U 1 1 53FB4F4F
P 2025 3575
F 0 "#PWR3" H 2025 3575 40  0001 C CNN
F 1 "GNDA" H 2025 3505 40  0000 C CNN
F 2 "" H 2025 3575 60  0000 C CNN
F 3 "" H 2025 3575 60  0000 C CNN
	1    2025 3575
	-1   0    0    -1  
$EndComp
$Comp
L GNDA #PWR16
U 1 1 53FB511A
P 10425 5775
F 0 "#PWR16" H 10425 5775 40  0001 C CNN
F 1 "GNDA" H 10425 5705 40  0000 C CNN
F 2 "" H 10425 5775 60  0000 C CNN
F 3 "" H 10425 5775 60  0000 C CNN
	1    10425 5775
	1    0    0    -1  
$EndComp
$Comp
L GNDA #PWR5
U 1 1 53FB540E
P 2125 1075
F 0 "#PWR5" H 2125 1075 40  0001 C CNN
F 1 "GNDA" H 2125 1005 40  0000 C CNN
F 2 "" H 2125 1075 60  0000 C CNN
F 3 "" H 2125 1075 60  0000 C CNN
	1    2125 1075
	1    0    0    -1  
$EndComp
$Comp
L PWR_FLAG #FLG08
U 1 1 53FB5414
P 2125 1025
F 0 "#FLG08" H 2125 1120 30  0001 C CNN
F 1 "PWR_FLAG" H 2125 1250 30  0000 C CNN
F 2 "" H 2125 1025 60  0000 C CNN
F 3 "" H 2125 1025 60  0000 C CNN
	1    2125 1025
	1    0    0    -1  
$EndComp
$Comp
L C C2
U 1 1 53FBA377
P 5725 2950
F 0 "C2" H 5775 3050 50  0000 L CNN
F 1 "10u" H 5775 2850 50  0000 L CNN
F 2 "" H 5725 2950 60  0000 C CNN
F 3 "C0805C106M4PACTU" H 5725 2950 10  0000 C CNN
	1    5725 2950
	-1   0    0    -1  
$EndComp
$Comp
L INDUCTOR L3
U 1 1 53FBA69B
P 4575 2625
F 0 "L3" V 4525 2625 40  0000 C CNN
F 1 "INDUCTOR" V 4675 2625 40  0000 C CNN
F 2 "~" H 4575 2625 60  0000 C CNN
F 3 "~" H 4575 2625 60  0000 C CNN
	1    4575 2625
	0    -1   -1   0   
$EndComp
$Comp
L PWR_FLAG #FLG09
U 1 1 5410BAFF
P 5150 3025
F 0 "#FLG09" H 5150 3120 30  0001 C CNN
F 1 "PWR_FLAG" H 5150 3250 30  0000 C CNN
F 2 "" H 5150 3025 60  0000 C CNN
F 3 "" H 5150 3025 60  0000 C CNN
	1    5150 3025
	1    0    0    -1  
$EndComp
$Comp
L GNDA #PWR4
U 1 1 54172952
P 1900 3650
F 0 "#PWR4" H 1900 3650 40  0001 C CNN
F 1 "GNDA" H 1900 3580 40  0000 C CNN
F 2 "" H 1900 3650 60  0000 C CNN
F 3 "" H 1900 3650 60  0000 C CNN
	1    1900 3650
	-1   0    0    -1  
$EndComp
Text GLabel 1425 3450 2    40   Output ~ 0
+V_meas_regulated'
Wire Wire Line
	1425 3350 1325 3350
Wire Wire Line
	2100 3250 1325 3250
Wire Wire Line
	2025 3550 1325 3550
Wire Wire Line
	2025 3575 2025 3550
Wire Wire Line
	1425 3625 1425 3650
Wire Wire Line
	1900 3625 1425 3625
Wire Wire Line
	1900 3650 1900 3625
Wire Wire Line
	2100 3775 2100 3750
Wire Wire Line
	1425 3950 1325 3950
Connection ~ 5725 4225
Wire Wire Line
	5725 4225 5725 3150
Connection ~ 5725 2625
Wire Wire Line
	5725 2625 5725 2750
Wire Wire Line
	2125 1025 2125 1075
Wire Wire Line
	8725 5425 8725 5775
Wire Wire Line
	2625 1025 2625 1075
Wire Wire Line
	2375 1025 2375 1075
Wire Wire Line
	8625 4625 9925 4625
Connection ~ 9250 4725
Wire Wire Line
	9250 5150 9250 5125
Wire Wire Line
	4575 3650 4000 3650
Wire Wire Line
	4575 3525 4575 3650
Connection ~ 5025 2625
Wire Wire Line
	4425 1950 7125 1950
Wire Wire Line
	7125 1950 7125 1250
Wire Wire Line
	8650 5325 8875 5325
Wire Wire Line
	8650 5525 8875 5525
Wire Wire Line
	6725 2625 6725 2775
Connection ~ 6425 4825
Connection ~ 6425 6100
Connection ~ 6250 5600
Wire Wire Line
	4350 6100 6475 6100
Connection ~ 4750 6100
Wire Wire Line
	4350 5825 4350 6100
Wire Wire Line
	1425 3850 1325 3850
Wire Wire Line
	1425 4050 1325 4050
Wire Wire Line
	2100 3750 1325 3750
Wire Wire Line
	1425 3650 1325 3650
Wire Wire Line
	1425 3050 1325 3050
Wire Wire Line
	1425 2950 1325 2950
Wire Wire Line
	1425 2850 1325 2850
Wire Wire Line
	1425 2750 1325 2750
Wire Wire Line
	1425 2650 1325 2650
Wire Wire Line
	1425 2550 1325 2550
Wire Wire Line
	4325 4225 6525 4225
Wire Wire Line
	4325 3025 4325 3175
Wire Wire Line
	6425 1000 6075 1000
Connection ~ 6925 1200
Wire Wire Line
	8625 4725 9650 4725
Wire Wire Line
	9575 5525 9475 5525
Wire Wire Line
	9575 5325 9475 5325
Connection ~ 6725 3225
Wire Wire Line
	6825 3225 6825 3275
Connection ~ 6625 3225
Wire Wire Line
	6725 3175 6725 3275
Connection ~ 6525 3225
Wire Wire Line
	6525 3225 6825 3225
Wire Wire Line
	6625 3225 6625 3275
Connection ~ 10625 4075
Wire Wire Line
	10725 4075 10725 4125
Connection ~ 10525 4075
Wire Wire Line
	10625 4075 10625 4125
Connection ~ 10425 4075
Wire Wire Line
	10425 4075 10725 4075
Wire Wire Line
	10525 4075 10525 4125
Connection ~ 10625 5275
Wire Wire Line
	10725 5275 10725 5325
Connection ~ 10525 5275
Wire Wire Line
	10625 5275 10625 5325
Connection ~ 10425 5275
Wire Wire Line
	10425 5275 10725 5275
Wire Wire Line
	10525 5275 10525 5325
Connection ~ 4325 3600
Wire Wire Line
	4175 3600 4325 3600
Wire Wire Line
	4175 3425 4175 3600
Wire Wire Line
	4325 3575 4325 4225
Wire Wire Line
	4625 3375 4575 3375
Wire Wire Line
	5025 1100 4925 1100
Wire Wire Line
	4425 1150 4525 1150
Wire Wire Line
	4675 1300 4675 1350
Wire Wire Line
	4675 800  4675 900 
Connection ~ 4425 1350
Wire Wire Line
	4675 1350 4425 1350
Wire Wire Line
	4425 1150 4425 1950
Wire Wire Line
	9650 5425 9475 5425
Wire Wire Line
	8875 5425 8725 5425
Wire Wire Line
	9575 5325 9575 4325
Wire Wire Line
	10125 5525 10075 5525
Wire Wire Line
	10125 4325 10075 4325
Connection ~ 9750 3600
Connection ~ 5675 3475
Connection ~ 6525 3725
Wire Wire Line
	6525 3125 6525 3275
Connection ~ 6075 1200
Wire Wire Line
	6025 1200 6525 1200
Connection ~ 5425 1950
Connection ~ 5025 1450
Wire Wire Line
	5025 1600 5675 1600
Wire Wire Line
	6075 1000 6075 1600
Connection ~ 6925 1950
Wire Wire Line
	5425 1600 5425 2025
Wire Wire Line
	6925 1000 6925 1450
Wire Wire Line
	6925 1450 5025 1450
Wire Wire Line
	5025 1300 5025 1600
Connection ~ 5025 4225
Connection ~ 4625 3725
Wire Wire Line
	4625 3875 5275 3875
Wire Wire Line
	5675 3475 5675 3875
Wire Wire Line
	5025 2625 5025 3075
Connection ~ 6525 2625
Wire Wire Line
	5025 3875 5025 4275
Wire Wire Line
	6525 3725 6525 3675
Wire Wire Line
	4625 3725 6525 3725
Wire Wire Line
	4625 3575 4625 3875
Wire Wire Line
	5675 3475 5625 3475
Wire Wire Line
	6225 3475 6175 3475
Wire Wire Line
	4525 1050 4175 1050
Wire Wire Line
	4925 1250 4925 1450
Wire Wire Line
	4925 1450 4175 1450
Wire Wire Line
	9475 3600 9925 3600
Wire Wire Line
	4325 3025 5150 3025
Connection ~ 5025 3025
Wire Wire Line
	9650 4725 9650 5425
Wire Wire Line
	4175 800  7125 800 
Connection ~ 4675 800 
Wire Wire Line
	5025 800  5025 850 
Connection ~ 5025 800 
Wire Wire Line
	4000 3325 4175 3325
Wire Wire Line
	10425 3600 10425 3650
Connection ~ 6525 3125
Wire Wire Line
	4875 2625 6725 2625
Wire Wire Line
	3950 2625 4275 2625
Wire Wire Line
	10425 4050 10425 4125
Wire Wire Line
	10425 4850 10425 4625
Wire Wire Line
	10425 5250 10425 5325
Wire Wire Line
	7125 800  7125 850 
Wire Wire Line
	5550 5325 5550 5600
Wire Wire Line
	5550 5600 6475 5600
Wire Wire Line
	6250 5600 6250 5225
Wire Wire Line
	5550 5125 5425 5125
Wire Wire Line
	5425 5125 5425 5525
Wire Wire Line
	5425 5525 4875 5525
Wire Wire Line
	4875 5525 4875 5850
Wire Wire Line
	4875 5675 4850 5675
Wire Wire Line
	5050 5175 5275 5175
Wire Wire Line
	5275 5175 5275 6175
Wire Wire Line
	4450 5325 4450 6025
Wire Wire Line
	4450 5325 4350 5325
Wire Wire Line
	4350 5325 4350 5275
Wire Wire Line
	4950 5850 4950 5950
Wire Wire Line
	4875 5850 4950 5850
Connection ~ 4875 5675
Connection ~ 4450 5675
Connection ~ 5275 5675
Wire Wire Line
	4625 6175 4875 6175
Wire Wire Line
	4625 6025 4625 6175
Wire Wire Line
	4450 6025 4625 6025
Wire Wire Line
	4600 5825 4600 5475
Wire Wire Line
	3525 5825 4600 5825
Wire Wire Line
	3850 5825 3850 5775
Connection ~ 4350 5825
Wire Wire Line
	4350 5275 4300 5275
Wire Wire Line
	3700 5275 3900 5275
Connection ~ 3850 5275
Wire Wire Line
	3700 5675 3700 5825
Connection ~ 3850 5825
Wire Wire Line
	3525 5075 4350 5075
Wire Wire Line
	3525 5075 3525 5825
Connection ~ 3700 5825
Wire Wire Line
	4750 5350 4750 5750
Wire Wire Line
	4750 5350 5175 5350
Wire Wire Line
	5175 5350 5175 4825
Wire Wire Line
	4500 4825 7025 4825
Connection ~ 4600 4825
Wire Wire Line
	5800 4825 5800 4925
Connection ~ 5175 4825
Wire Wire Line
	4700 5425 5200 5425
Connection ~ 4750 5425
Wire Wire Line
	5200 5425 5200 5575
Wire Wire Line
	5200 5575 5900 5575
Wire Wire Line
	5900 5575 5900 5475
Wire Wire Line
	4450 5900 4550 5900
Connection ~ 4450 5900
Wire Wire Line
	4100 4825 4100 5075
Connection ~ 4100 5075
Wire Wire Line
	4100 6050 4600 6050
Wire Wire Line
	6425 4825 6425 5050
Connection ~ 5800 4825
Wire Wire Line
	4600 4875 4600 4825
Wire Wire Line
	5800 5525 5800 6100
Connection ~ 5800 6100
Wire Wire Line
	6425 5450 6425 6150
Wire Wire Line
	3350 6050 3600 6050
Wire Wire Line
	1425 3450 1325 3450
Wire Wire Line
	2100 3250 2100 3275
Wire Wire Line
	1425 3150 1325 3150
Text GLabel 8625 4525 0    40   Input ~ 0
+V_meas_regulated'
Wire Wire Line
	9475 3600 9475 4525
Wire Wire Line
	9475 4525 8625 4525
$Comp
L C C3
U 1 1 541735EB
P 9850 4900
F 0 "C3" H 9900 5000 50  0000 L CNN
F 1 "10u" H 9900 4800 50  0000 L CNN
F 2 "" H 9850 4800 20  0000 C CNN
F 3 "C0805C106M4PACTU" H 9850 4900 20  0000 C CNN
	1    9850 4900
	-1   0    0    -1  
$EndComp
$Comp
L GNDA #PWR14
U 1 1 541736C7
P 9850 5175
F 0 "#PWR14" H 9850 5175 40  0001 C CNN
F 1 "GNDA" H 9850 5105 40  0000 C CNN
F 2 "" H 9850 5175 60  0000 C CNN
F 3 "" H 9850 5175 60  0000 C CNN
	1    9850 5175
	1    0    0    -1  
$EndComp
$Comp
L GNDA #PWR13
U 1 1 541736CD
P 9750 4050
F 0 "#PWR13" H 9750 4050 40  0001 C CNN
F 1 "GNDA" H 9750 3980 40  0000 C CNN
F 2 "" H 9750 4050 60  0000 C CNN
F 3 "" H 9750 4050 60  0000 C CNN
	1    9750 4050
	1    0    0    -1  
$EndComp
Wire Wire Line
	9750 4000 9750 4050
Wire Wire Line
	9850 4700 9850 4625
Connection ~ 9850 4625
Wire Wire Line
	9850 5100 9850 5175
$Comp
L GND #PWR010
U 1 1 54173EA0
P 8725 5775
F 0 "#PWR010" H 8725 5775 30  0001 C CNN
F 1 "GND" H 8725 5705 30  0001 C CNN
F 2 "" H 8725 5775 60  0000 C CNN
F 3 "" H 8725 5775 60  0000 C CNN
	1    8725 5775
	1    0    0    -1  
$EndComp
Wire Wire Line
	10425 5725 10425 5775
$Comp
L GND #PWR011
U 1 1 54174167
P 9250 5150
F 0 "#PWR011" H 9250 5150 30  0001 C CNN
F 1 "GND" H 9250 5080 30  0001 C CNN
F 2 "" H 9250 5150 60  0000 C CNN
F 3 "" H 9250 5150 60  0000 C CNN
	1    9250 5150
	1    0    0    -1  
$EndComp
$Comp
L GNDA #PWR15
U 1 1 541742CD
P 10425 4550
F 0 "#PWR15" H 10425 4550 40  0001 C CNN
F 1 "GNDA" H 10550 4525 40  0000 C CNN
F 2 "" H 10425 4550 60  0000 C CNN
F 3 "" H 10425 4550 60  0000 C CNN
	1    10425 4550
	1    0    0    -1  
$EndComp
Wire Wire Line
	10425 4550 10425 4525
Text Label 6925 1450 2    30   ~ 0
calibration_LED'
Text Label 10425 3650 0    20   ~ 0
MEAS2B+
Text Label 10425 4075 0    20   ~ 0
MEAS2B-
Text Label 10425 4850 0    20   ~ 0
MEAS1B+
Text Label 10425 5275 0    20   ~ 0
MEAS1B-
$Comp
L R R1
U 1 1 542F1274
P 6725 5600
F 0 "R1" V 6805 5600 50  0000 C CNN
F 1 "20" V 6725 5600 50  0000 C CNN
F 2 "" H 6725 5600 60  0000 C CNN
F 3 "RMCF0805JT20R0" V 6725 5600 20  0000 C CNN
	1    6725 5600
	0    1    1    0   
$EndComp
Wire Wire Line
	6975 5600 7025 5600
$Comp
L R R2
U 1 1 542F1507
P 6725 6100
F 0 "R2" V 6805 6100 50  0000 C CNN
F 1 "2K" V 6725 6100 50  0000 C CNN
F 2 "" H 6725 6100 60  0000 C CNN
F 3 "RC0805JR-072K2L" V 6725 6100 20  0000 C CNN
	1    6725 6100
	0    1    1    0   
$EndComp
Wire Wire Line
	6975 6100 6975 5600
$EndSCHEMATC
